fpga/myhdl/BootRom.vcd
$date
    Mon Jun  1 22:28:54 2015
$end
$version
    MyHDL 0.9.dev0
$end
$timescale
    1ns
$end

$scope module BootRom $end
$var reg 1 ! cs $end
$var reg 1 " rw $end
$var reg 23 # addr $end
$var reg 16 $ dataout $end
$upscope $end

$enddefinitions $end
$dumpvars
1!
1"
b00000000000000000000000 #
bzzzzzzzzzzzzzzzz $
$end
#20
b00000000000000000000001 #
#40
#60
b00000000000000000000010 #
#80
#100
b00000000000000000000011 #
#120
#140
b00000000000000000000100 #
#160
#180
b00000000000000000000101 #
#200
#220
b00000000000000000000110 #
#240
#260
b00000000000000000000111 #
#280
#300
b00000000000000000001000 #
#320
#340
b00000000000000000001001 #
#360
#380
b00000000000000000001010 #
#400
#420
b00000000000000000001011 #
#440
#460
b00000000000000000001100 #
#480
#500
b00000000000000000001101 #
#520
#540
b00000000000000000001110 #
#560
#580
b00000000000000000001111 #
#600
#620
b00000000000000000010000 #
#640
#660
b00000000000000000010001 #
#680
#700
b00000000000000000010010 #
#720
#740
b00000000000000000010011 #
#760
#780
b00000000000000000010100 #
#800
#820
b00000000000000000010101 #
#840
#860
b00000000000000000010110 #
#880
#900
b00000000000000000010111 #
#920
#940
b00000000000000000011000 #
#960
#980
b00000000000000000011001 #
#1000
#1020
b00000000000000000011010 #
#1040
#1060
b00000000000000000011011 #
#1080
#1100
b00000000000000000011100 #
#1120
#1140
b00000000000000000011101 #
#1160
#1180
b00000000000000000011110 #
#1200
#1220
b00000000000000000011111 #
#1240
#1260
b00000000000000000100000 #
#1280
#1300
b00000000000000000100001 #
#1320
#1340
b00000000000000000100010 #
#1360
#1380
b00000000000000000100011 #
#1400
#1420
b00000000000000000100100 #
#1440
#1460
b00000000000000000100101 #
#1480
#1500
b00000000000000000100110 #
#1520
#1540
b00000000000000000100111 #
#1560
#1580
b00000000000000000101000 #
#1600
#1620
b00000000000000000101001 #
#1640
#1660
b00000000000000000101010 #
#1680
#1700
b00000000000000000101011 #
#1720
#1740
b00000000000000000101100 #
#1760
#1780
b00000000000000000101101 #
#1800
#1820
b00000000000000000101110 #
#1840
#1860
b00000000000000000101111 #
#1880
#1900
b00000000000000000110000 #
#1920
#1940
b00000000000000000110001 #
#1960
#1980
b00000000000000000110010 #
#2000
#2020
b00000000000000000110011 #
#2040
#2060
b00000000000000000110100 #
#2080
#2100
b00000000000000000110101 #
#2120
#2140
b00000000000000000110110 #
#2160
#2180
b00000000000000000110111 #
#2200
#2220
b00000000000000000111000 #
#2240
#2260
b00000000000000000111001 #
#2280
#2300
b00000000000000000111010 #
#2320
#2340
b00000000000000000111011 #
#2360
#2380
b00000000000000000111100 #
#2400
#2420
b00000000000000000111101 #
#2440
#2460
b00000000000000000111110 #
#2480
#2500
b00000000000000000111111 #
#2520
#2540
b00000000000000001000000 #
#2560
#2580
b00000000000000001000001 #
#2600
#2620
b00000000000000001000010 #
#2640
#2660
b00000000000000001000011 #
#2680
#2700
b00000000000000001000100 #
#2720
#2740
b00000000000000001000101 #
#2760
#2780
b00000000000000001000110 #
#2800
#2820
b00000000000000001000111 #
#2840
#2860
b00000000000000001001000 #
#2880
#2900
b00000000000000001001001 #
#2920
#2940
b00000000000000001001010 #
#2960
#2980
b00000000000000001001011 #
#3000
#3020
b00000000000000001001100 #
#3040
#3060
b00000000000000001001101 #
#3080
#3100
b00000000000000001001110 #
#3120
#3140
b00000000000000001001111 #
#3160
#3180
b00000000000000001010000 #
#3200
#3220
b00000000000000001010001 #
#3240
#3260
b00000000000000001010010 #
#3280
#3300
b00000000000000001010011 #
#3320
#3340
b00000000000000001010100 #
#3360
#3380
b00000000000000001010101 #
#3400
#3420
b00000000000000001010110 #
#3440
#3460
b00000000000000001010111 #
#3480
#3500
b00000000000000001011000 #
#3520
#3540
b00000000000000001011001 #
#3560
#3580
b00000000000000001011010 #
#3600
#3620
b00000000000000001011011 #
#3640
#3660
b00000000000000001011100 #
#3680
#3700
b00000000000000001011101 #
#3720
#3740
b00000000000000001011110 #
#3760
#3780
b00000000000000001011111 #
#3800
#3820
b00000000000000001100000 #
#3840
#3860
b00000000000000001100001 #
#3880
#3900
b00000000000000001100010 #
#3920
#3940
b00000000000000001100011 #
#3960
#3980
b00000000000000001100100 #
#4000
#4020
b00000000000000001100101 #
#4040
#4060
b00000000000000001100110 #
#4080
#4100
b00000000000000001100111 #
#4120
#4140
b00000000000000001101000 #
#4160
#4180
b00000000000000001101001 #
#4200
#4220
b00000000000000001101010 #
#4240
#4260
b00000000000000001101011 #
#4280
#4300
b00000000000000001101100 #
#4320
#4340
b00000000000000001101101 #
#4360
#4380
b00000000000000001101110 #
#4400
#4420
b00000000000000001101111 #
#4440
#4460
b00000000000000001110000 #
#4480
#4500
b00000000000000001110001 #
#4520
#4540
b00000000000000001110010 #
#4560
#4580
b00000000000000001110011 #
#4600
#4620
b00000000000000001110100 #
#4640
#4660
b00000000000000001110101 #
#4680
#4700
b00000000000000001110110 #
#4720
#4740
b00000000000000001110111 #
#4760
#4780
b00000000000000001111000 #
#4800
#4820
b00000000000000001111001 #
#4840
#4860
b00000000000000001111010 #
#4880
#4900
b00000000000000001111011 #
#4920
#4940
b00000000000000001111100 #
#4960
#4980
b00000000000000001111101 #
#5000
#5020
b00000000000000001111110 #
#5040
#5060
b00000000000000001111111 #
#5080
#5100
b00000000000000010000000 #
#5120
#5140
b00000000000000010000001 #
#5160
#5180
b00000000000000010000010 #
#5200
#5220
b00000000000000010000011 #
#5240
#5260
b00000000000000010000100 #
#5280
#5300
b00000000000000010000101 #
#5320
#5340
b00000000000000010000110 #
#5360
#5380
b00000000000000010000111 #
#5400
#5420
b00000000000000010001000 #
#5440
#5460
b00000000000000010001001 #
#5480
#5500
b00000000000000010001010 #
#5520
#5540
b00000000000000010001011 #
#5560
#5580
b00000000000000010001100 #
#5600
#5620
b00000000000000010001101 #
#5640
#5660
b00000000000000010001110 #
#5680
#5700
b00000000000000010001111 #
#5720
#5740
b00000000000000010010000 #
#5760
#5780
b00000000000000010010001 #
#5800
#5820
b00000000000000010010010 #
#5840
#5860
b00000000000000010010011 #
#5880
#5900
b00000000000000010010100 #
#5920
#5940
b00000000000000010010101 #
#5960
#5980
b00000000000000010010110 #
#6000
#6020
b00000000000000010010111 #
#6040
#6060
b00000000000000010011000 #
#6080
#6100
b00000000000000010011001 #
#6120
#6140
b00000000000000010011010 #
#6160
#6180
b00000000000000010011011 #
#6200
#6220
b00000000000000010011100 #
#6240
#6260
b00000000000000010011101 #
#6280
#6300
b00000000000000010011110 #
#6320
#6340
b00000000000000010011111 #
#6360
#6380
b00000000000000010100000 #
#6400
#6420
b00000000000000010100001 #
#6440
#6460
b00000000000000010100010 #
#6480
#6500
b00000000000000010100011 #
#6520
#6540
b00000000000000010100100 #
#6560
#6580
b00000000000000010100101 #
#6600
#6620
b00000000000000010100110 #
#6640
#6660
b00000000000000010100111 #
#6680
#6700
b00000000000000010101000 #
#6720
#6740
b00000000000000010101001 #
#6760
#6780
b00000000000000010101010 #
#6800
#6820
b00000000000000010101011 #
#6840
#6860
b00000000000000010101100 #
#6880
#6900
b00000000000000010101101 #
#6920
#6940
b00000000000000010101110 #
#6960
#6980
b00000000000000010101111 #
#7000
#7020
b00000000000000010110000 #
#7040
#7060
b00000000000000010110001 #
#7080
#7100
b00000000000000010110010 #
#7120
#7140
b00000000000000010110011 #
#7160
#7180
b00000000000000010110100 #
#7200
#7220
b00000000000000010110101 #
#7240
#7260
b00000000000000010110110 #
#7280
#7300
b00000000000000010110111 #
#7320
#7340
b00000000000000010111000 #
#7360
#7380
b00000000000000010111001 #
#7400
#7420
b00000000000000010111010 #
#7440
#7460
b00000000000000010111011 #
#7480
#7500
b00000000000000010111100 #
#7520
#7540
b00000000000000010111101 #
#7560
#7580
b00000000000000010111110 #
#7600
#7620
b00000000000000010111111 #
#7640
#7660
b00000000000000011000000 #
#7680
#7700
b00000000000000011000001 #
#7720
#7740
b00000000000000011000010 #
#7760
#7780
b00000000000000011000011 #
#7800
#7820
b00000000000000011000100 #
#7840
#7860
b00000000000000011000101 #
#7880
#7900
b00000000000000011000110 #
#7920
#7940
b00000000000000011000111 #
#7960
#7980
b00000000000000011001000 #
#8000
#8020
b00000000000000011001001 #
#8040
#8060
b00000000000000011001010 #
#8080
#8100
b00000000000000011001011 #
#8120
#8140
b00000000000000011001100 #
#8160
#8180
b00000000000000011001101 #
#8200
#8220
b00000000000000011001110 #
#8240
#8260
b00000000000000011001111 #
#8280
#8300
b00000000000000011010000 #
#8320
#8340
b00000000000000011010001 #
#8360
#8380
b00000000000000011010010 #
#8400
#8420
b00000000000000011010011 #
#8440
#8460
b00000000000000011010100 #
#8480
#8500
b00000000000000011010101 #
#8520
#8540
b00000000000000011010110 #
#8560
#8580
b00000000000000011010111 #
#8600
#8620
b00000000000000011011000 #
#8640
#8660
b00000000000000011011001 #
#8680
#8700
b00000000000000011011010 #
#8720
#8740
b00000000000000011011011 #
#8760
#8780
b00000000000000011011100 #
#8800
#8820
b00000000000000011011101 #
#8840
#8860
b00000000000000011011110 #
#8880
#8900
b00000000000000011011111 #
#8920
#8940
b00000000000000011100000 #
#8960
#8980
b00000000000000011100001 #
#9000
#9020
b00000000000000011100010 #
#9040
#9060
b00000000000000011100011 #
#9080
#9100
b00000000000000011100100 #
#9120
#9140
b00000000000000011100101 #
#9160
#9180
b00000000000000011100110 #
#9200
#9220
b00000000000000011100111 #
#9240
#9260
b00000000000000011101000 #
#9280
#9300
b00000000000000011101001 #
#9320
#9340
b00000000000000011101010 #
#9360
#9380
b00000000000000011101011 #
#9400
#9420
b00000000000000011101100 #
#9440
#9460
b00000000000000011101101 #
#9480
#9500
b00000000000000011101110 #
#9520
#9540
b00000000000000011101111 #
#9560
#9580
b00000000000000011110000 #
#9600
#9620
b00000000000000011110001 #
#9640
#9660
b00000000000000011110010 #
#9680
#9700
b00000000000000011110011 #
#9720
#9740
b00000000000000011110100 #
#9760
#9780
b00000000000000011110101 #
#9800
#9820
b00000000000000011110110 #
#9840
#9860
b00000000000000011110111 #
#9880
#9900
b00000000000000011111000 #
#9920
#9940
b00000000000000011111001 #
#9960
#9980
b00000000000000011111010 #
#10000
#10020
b00000000000000011111011 #
#10040
#10060
b00000000000000011111100 #
#10080
#10100
b00000000000000011111101 #
#10120
#10140
b00000000000000011111110 #
#10160
#10180
b00000000000000011111111 #
#10200
#10220
b00000000000000100000000 #
#10240
#10260
b00000000000000100000001 #
#10280
#10300
b00000000000000100000010 #
#10320
#10340
b00000000000000100000011 #
#10360
#10380
b00000000000000100000100 #
#10400
#10420
b00000000000000100000101 #
#10440
#10460
b00000000000000100000110 #
#10480
#10500
b00000000000000100000111 #
#10520
#10540
b00000000000000100001000 #
#10560
#10580
b00000000000000100001001 #
#10600
#10620
b00000000000000100001010 #
#10640
#10660
b00000000000000100001011 #
#10680
#10700
b00000000000000100001100 #
#10720
#10740
b00000000000000100001101 #
#10760
#10780
b00000000000000100001110 #
#10800
#10820
b00000000000000100001111 #
#10840
#10860
b00000000000000100010000 #
#10880
#10900
b00000000000000100010001 #
#10920
#10940
b00000000000000100010010 #
#10960
#10980
b00000000000000100010011 #
#11000
#11020
b00000000000000100010100 #
#11040
#11060
b00000000000000100010101 #
#11080
#11100
b00000000000000100010110 #
#11120
#11140
b00000000000000100010111 #
#11160
#11180
b00000000000000100011000 #
#11200
#11220
b00000000000000100011001 #
#11240
#11260
b00000000000000100011010 #
#11280
#11300
b00000000000000100011011 #
#11320
#11340
b00000000000000100011100 #
#11360
#11380
b00000000000000100011101 #
#11400
#11420
b00000000000000100011110 #
#11440
#11460
b00000000000000100011111 #
#11480
#11500
b00000000000000100100000 #
#11520
#11540
b00000000000000100100001 #
#11560
#11580
b00000000000000100100010 #
#11600
#11620
b00000000000000100100011 #
#11640
#11660
b00000000000000100100100 #
#11680
#11700
b00000000000000100100101 #
#11720
#11740
b00000000000000100100110 #
#11760
#11780
b00000000000000100100111 #
#11800
#11820
b00000000000000100101000 #
#11840
#11860
b00000000000000100101001 #
#11880
#11900
b00000000000000100101010 #
#11920
#11940
b00000000000000100101011 #
#11960
#11980
b00000000000000100101100 #
#12000
#12020
b00000000000000100101101 #
#12040
#12060
b00000000000000100101110 #
#12080
#12100
b00000000000000100101111 #
#12120
#12140
b00000000000000100110000 #
#12160
#12180
b00000000000000100110001 #
#12200
#12220
b00000000000000100110010 #
#12240
#12260
b00000000000000100110011 #
#12280
#12300
b00000000000000100110100 #
#12320
#12340
b00000000000000100110101 #
#12360
#12380
b00000000000000100110110 #
#12400
#12420
b00000000000000100110111 #
#12440
#12460
b00000000000000100111000 #
#12480
#12500
b00000000000000100111001 #
#12520
#12540
b00000000000000100111010 #
#12560
#12580
b00000000000000100111011 #
#12600
#12620
b00000000000000100111100 #
#12640
#12660
b00000000000000100111101 #
#12680
#12700
b00000000000000100111110 #
#12720
#12740
b00000000000000100111111 #
#12760
#12780
b00000000000000101000000 #
#12800
#12820
b00000000000000101000001 #
#12840
#12860
b00000000000000101000010 #
#12880
#12900
b00000000000000101000011 #
#12920
#12940
b00000000000000101000100 #
#12960
#12980
b00000000000000101000101 #
#13000
#13020
b00000000000000101000110 #
#13040
#13060
b00000000000000101000111 #
#13080
#13100
b00000000000000101001000 #
#13120
#13140
b00000000000000101001001 #
#13160
#13180
b00000000000000101001010 #
#13200
#13220
b00000000000000101001011 #
#13240
#13260
b00000000000000101001100 #
#13280
#13300
b00000000000000101001101 #
#13320
#13340
b00000000000000101001110 #
#13360
#13380
b00000000000000101001111 #
#13400
#13420
b00000000000000101010000 #
#13440
#13460
b00000000000000101010001 #
#13480
#13500
b00000000000000101010010 #
#13520
#13540
b00000000000000101010011 #
#13560
#13580
b00000000000000101010100 #
#13600
#13620
b00000000000000101010101 #
#13640
#13660
b00000000000000101010110 #
#13680
#13700
b00000000000000101010111 #
#13720
#13740
b00000000000000101011000 #
#13760
#13780
b00000000000000101011001 #
#13800
#13820
b00000000000000101011010 #
#13840
#13860
b00000000000000101011011 #
#13880
#13900
b00000000000000101011100 #
#13920
#13940
b00000000000000101011101 #
#13960
#13980
b00000000000000101011110 #
#14000
#14020
b00000000000000101011111 #
#14040
#14060
b00000000000000101100000 #
#14080
#14100
b00000000000000101100001 #
#14120
#14140
b00000000000000101100010 #
#14160
#14180
b00000000000000101100011 #
#14200
#14220
b00000000000000101100100 #
#14240
#14260
b00000000000000101100101 #
#14280
#14300
b00000000000000101100110 #
#14320
#14340
b00000000000000101100111 #
#14360
#14380
b00000000000000101101000 #
#14400
#14420
b00000000000000101101001 #
#14440
#14460
b00000000000000101101010 #
#14480
#14500
b00000000000000101101011 #
#14520
#14540
b00000000000000101101100 #
#14560
#14580
b00000000000000101101101 #
#14600
#14620
b00000000000000101101110 #
#14640
#14660
b00000000000000101101111 #
#14680
#14700
b00000000000000101110000 #
#14720
#14740
b00000000000000101110001 #
#14760
#14780
b00000000000000101110010 #
#14800
#14820
b00000000000000101110011 #
#14840
#14860
b00000000000000101110100 #
#14880
#14900
b00000000000000101110101 #
#14920
#14940
b00000000000000101110110 #
#14960
#14980
b00000000000000101110111 #
#15000
#15020
b00000000000000101111000 #
#15040
#15060
b00000000000000101111001 #
#15080
#15100
b00000000000000101111010 #
#15120
#15140
b00000000000000101111011 #
#15160
#15180
b00000000000000101111100 #
#15200
#15220
b00000000000000101111101 #
#15240
#15260
b00000000000000101111110 #
#15280
#15300
b00000000000000101111111 #
#15320
#15340
b00000000000000110000000 #
#15360
#15380
b00000000000000110000001 #
#15400
#15420
b00000000000000110000010 #
#15440
#15460
b00000000000000110000011 #
#15480
#15500
b00000000000000110000100 #
#15520
#15540
b00000000000000110000101 #
#15560
#15580
b00000000000000110000110 #
#15600
#15620
b00000000000000110000111 #
#15640
#15660
b00000000000000110001000 #
#15680
#15700
b00000000000000110001001 #
#15720
#15740
b00000000000000110001010 #
#15760
#15780
b00000000000000110001011 #
#15800
#15820
b00000000000000110001100 #
#15840
#15860
b00000000000000110001101 #
#15880
#15900
b00000000000000110001110 #
#15920
#15940
b00000000000000110001111 #
#15960
#15980
b00000000000000110010000 #
#16000
#16020
b00000000000000110010001 #
#16040
#16060
b00000000000000110010010 #
#16080
#16100
b00000000000000110010011 #
#16120
#16140
b00000000000000110010100 #
#16160
#16180
b00000000000000110010101 #
#16200
#16220
b00000000000000110010110 #
#16240
#16260
b00000000000000110010111 #
#16280
#16300
b00000000000000110011000 #
#16320
#16340
b00000000000000110011001 #
#16360
#16380
b00000000000000110011010 #
#16400
#16420
b00000000000000110011011 #
#16440
#16460
b00000000000000110011100 #
#16480
#16500
b00000000000000110011101 #
#16520
#16540
b00000000000000110011110 #
#16560
#16580
b00000000000000110011111 #
#16600
#16620
b00000000000000110100000 #
#16640
#16660
b00000000000000110100001 #
#16680
#16700
b00000000000000110100010 #
#16720
#16740
b00000000000000110100011 #
#16760
#16780
b00000000000000110100100 #
#16800
#16820
b00000000000000110100101 #
#16840
#16860
b00000000000000110100110 #
#16880
#16900
b00000000000000110100111 #
#16920
#16940
b00000000000000110101000 #
#16960
#16980
b00000000000000110101001 #
#17000
#17020
b00000000000000110101010 #
#17040
#17060
b00000000000000110101011 #
#17080
#17100
b00000000000000110101100 #
#17120
#17140
b00000000000000110101101 #
#17160
#17180
b00000000000000110101110 #
#17200
#17220
b00000000000000110101111 #
#17240
#17260
b00000000000000110110000 #
#17280
#17300
b00000000000000110110001 #
#17320
#17340
b00000000000000110110010 #
#17360
#17380
b00000000000000110110011 #
#17400
#17420
b00000000000000110110100 #
#17440
#17460
b00000000000000110110101 #
#17480
#17500
b00000000000000110110110 #
#17520
#17540
b00000000000000110110111 #
#17560
#17580
b00000000000000110111000 #
#17600
#17620
b00000000000000110111001 #
#17640
#17660
b00000000000000110111010 #
#17680
#17700
b00000000000000110111011 #
#17720
#17740
b00000000000000110111100 #
#17760
#17780
b00000000000000110111101 #
#17800
#17820
b00000000000000110111110 #
#17840
#17860
b00000000000000110111111 #
#17880
#17900
b00000000000000111000000 #
#17920
#17940
b00000000000000111000001 #
#17960
#17980
b00000000000000111000010 #
#18000
#18020
b00000000000000111000011 #
#18040
#18060
b00000000000000111000100 #
#18080
#18100
b00000000000000111000101 #
#18120
#18140
b00000000000000111000110 #
#18160
#18180
b00000000000000111000111 #
#18200
#18220
b00000000000000111001000 #
#18240
#18260
b00000000000000111001001 #
#18280
#18300
b00000000000000111001010 #
#18320
#18340
b00000000000000111001011 #
#18360
#18380
b00000000000000111001100 #
#18400
#18420
b00000000000000111001101 #
#18440
#18460
b00000000000000111001110 #
#18480
#18500
b00000000000000111001111 #
#18520
#18540
b00000000000000111010000 #
#18560
#18580
b00000000000000111010001 #
#18600
#18620
b00000000000000111010010 #
#18640
#18660
b00000000000000111010011 #
#18680
#18700
b00000000000000111010100 #
#18720
#18740
b00000000000000111010101 #
#18760
#18780
b00000000000000111010110 #
#18800
#18820
b00000000000000111010111 #
#18840
#18860
b00000000000000111011000 #
#18880
#18900
b00000000000000111011001 #
#18920
#18940
b00000000000000111011010 #
#18960
#18980
b00000000000000111011011 #
#19000
#19020
b00000000000000111011100 #
#19040
#19060
b00000000000000111011101 #
#19080
#19100
b00000000000000111011110 #
#19120
#19140
b00000000000000111011111 #
#19160
#19180
b00000000000000111100000 #
#19200
#19220
b00000000000000111100001 #
#19240
#19260
b00000000000000111100010 #
#19280
#19300
b00000000000000111100011 #
#19320
#19340
b00000000000000111100100 #
#19360
#19380
b00000000000000111100101 #
#19400
#19420
b00000000000000111100110 #
#19440
#19460
b00000000000000111100111 #
#19480
#19500
b00000000000000111101000 #
#19520
#19540
b00000000000000111101001 #
#19560
#19580
b00000000000000111101010 #
#19600
#19620
b00000000000000111101011 #
#19640
#19660
b00000000000000111101100 #
#19680
#19700
b00000000000000111101101 #
#19720
#19740
b00000000000000111101110 #
#19760
#19780
b00000000000000111101111 #
#19800
#19820
b00000000000000111110000 #
#19840
#19860
b00000000000000111110001 #
#19880
#19900
b00000000000000111110010 #
#19920
#19940
b00000000000000111110011 #
#19960
#19980
b00000000000000111110100 #
#20000
#20020
b00000000000000111110101 #
#20040
#20060
b00000000000000111110110 #
#20080
#20100
b00000000000000111110111 #
#20120
#20140
b00000000000000111111000 #
#20160
#20180
b00000000000000111111001 #
#20200
#20220
b00000000000000111111010 #
#20240
#20260
b00000000000000111111011 #
#20280
#20300
b00000000000000111111100 #
#20320
#20340
b00000000000000111111101 #
#20360
#20380
b00000000000000111111110 #
#20400
#20420
b00000000000000111111111 #
#20440
#20460
b00000000000001000000000 #
#20480
#20500
b00000000000001000000001 #
#20520
#20540
b00000000000001000000010 #
#20560
#20580
b00000000000001000000011 #
#20600
#20620
b00000000000001000000100 #
#20640
#20660
b00000000000001000000101 #
#20680
#20700
b00000000000001000000110 #
#20720
#20740
b00000000000001000000111 #
#20760
#20780
b00000000000001000001000 #
#20800
#20820
b00000000000001000001001 #
#20840
#20860
b00000000000001000001010 #
#20880
#20900
b00000000000001000001011 #
#20920
#20940
b00000000000001000001100 #
#20960
#20980
b00000000000001000001101 #
#21000
#21020
b00000000000001000001110 #
#21040
#21060
b00000000000001000001111 #
#21080
#21100
b00000000000001000010000 #
#21120
#21140
b00000000000001000010001 #
#21160
#21180
b00000000000001000010010 #
#21200
#21220
b00000000000001000010011 #
#21240
#21260
b00000000000001000010100 #
#21280
#21300
b00000000000001000010101 #
#21320
#21340
b00000000000001000010110 #
#21360
#21380
b00000000000001000010111 #
#21400
#21420
b00000000000001000011000 #
#21440
#21460
b00000000000001000011001 #
#21480
#21500
b00000000000001000011010 #
#21520
#21540
b00000000000001000011011 #
#21560
#21580
b00000000000001000011100 #
#21600
#21620
b00000000000001000011101 #
#21640
#21660
b00000000000001000011110 #
#21680
#21700
b00000000000001000011111 #
#21720
#21740
b00000000000001000100000 #
#21760
#21780
b00000000000001000100001 #
#21800
#21820
b00000000000001000100010 #
#21840
#21860
b00000000000001000100011 #
#21880
#21900
b00000000000001000100100 #
#21920
#21940
b00000000000001000100101 #
#21960
#21980
b00000000000001000100110 #
#22000
#22020
b00000000000001000100111 #
#22040
#22060
b00000000000001000101000 #
#22080
#22100
b00000000000001000101001 #
#22120
#22140
b00000000000001000101010 #
#22160
#22180
b00000000000001000101011 #
#22200
#22220
b00000000000001000101100 #
#22240
#22260
b00000000000001000101101 #
#22280
#22300
b00000000000001000101110 #
#22320
#22340
b00000000000001000101111 #
#22360
#22380
b00000000000001000110000 #
#22400
#22420
b00000000000001000110001 #
#22440
#22460
b00000000000001000110010 #
#22480
#22500
b00000000000001000110011 #
#22520
#22540
b00000000000001000110100 #
#22560
#22580
b00000000000001000110101 #
#22600
#22620
b00000000000001000110110 #
#22640
#22660
b00000000000001000110111 #
#22680
#22700
b00000000000001000111000 #
#22720
#22740
b00000000000001000111001 #
#22760
#22780
b00000000000001000111010 #
#22800
#22820
b00000000000001000111011 #
#22840
#22860
b00000000000001000111100 #
#22880
#22900
b00000000000001000111101 #
#22920
#22940
b00000000000001000111110 #
#22960
#22980
b00000000000001000111111 #
#23000
#23020
b00000000000001001000000 #
#23040
#23060
b00000000000001001000001 #
#23080
#23100
b00000000000001001000010 #
#23120
#23140
b00000000000001001000011 #
#23160
#23180
b00000000000001001000100 #
#23200
#23220
b00000000000001001000101 #
#23240
#23260
b00000000000001001000110 #
#23280
#23300
b00000000000001001000111 #
#23320
#23340
b00000000000001001001000 #
#23360
#23380
b00000000000001001001001 #
#23400
#23420
b00000000000001001001010 #
#23440
#23460
b00000000000001001001011 #
#23480
#23500
b00000000000001001001100 #
#23520
#23540
b00000000000001001001101 #
#23560
#23580
b00000000000001001001110 #
#23600
#23620
b00000000000001001001111 #
#23640
#23660
b00000000000001001010000 #
#23680
#23700
b00000000000001001010001 #
#23720
#23740
b00000000000001001010010 #
#23760
#23780
b00000000000001001010011 #
#23800
#23820
b00000000000001001010100 #
#23840
#23860
b00000000000001001010101 #
#23880
#23900
b00000000000001001010110 #
#23920
#23940
b00000000000001001010111 #
#23960
#23980
b00000000000001001011000 #
#24000
#24020
b00000000000001001011001 #
#24040
#24060
b00000000000001001011010 #
#24080
#24100
b00000000000001001011011 #
#24120
#24140
b00000000000001001011100 #
#24160
#24180
b00000000000001001011101 #
#24200
#24220
b00000000000001001011110 #
#24240
#24260
b00000000000001001011111 #
#24280
#24300
b00000000000001001100000 #
#24320
#24340
b00000000000001001100001 #
#24360
#24380
b00000000000001001100010 #
#24400
#24420
b00000000000001001100011 #
#24440
#24460
b00000000000001001100100 #
#24480
#24500
b00000000000001001100101 #
#24520
#24540
b00000000000001001100110 #
#24560
#24580
b00000000000001001100111 #
#24600
#24620
b00000000000001001101000 #
#24640
#24660
b00000000000001001101001 #
#24680
#24700
b00000000000001001101010 #
#24720
#24740
b00000000000001001101011 #
#24760
#24780
b00000000000001001101100 #
#24800
#24820
b00000000000001001101101 #
#24840
#24860
b00000000000001001101110 #
#24880
#24900
b00000000000001001101111 #
#24920
#24940
b00000000000001001110000 #
#24960
#24980
b00000000000001001110001 #
#25000
#25020
b00000000000001001110010 #
#25040
#25060
b00000000000001001110011 #
#25080
#25100
b00000000000001001110100 #
#25120
#25140
b00000000000001001110101 #
#25160
#25180
b00000000000001001110110 #
#25200
#25220
b00000000000001001110111 #
#25240
#25260
b00000000000001001111000 #
#25280
#25300
b00000000000001001111001 #
#25320
#25340
b00000000000001001111010 #
#25360
#25380
b00000000000001001111011 #
#25400
#25420
b00000000000001001111100 #
#25440
#25460
b00000000000001001111101 #
#25480
#25500
b00000000000001001111110 #
#25520
#25540
b00000000000001001111111 #
#25560
#25580
b00000000000001010000000 #
#25600
#25620
b00000000000001010000001 #
#25640
#25660
b00000000000001010000010 #
#25680
#25700
b00000000000001010000011 #
#25720
#25740
b00000000000001010000100 #
#25760
#25780
b00000000000001010000101 #
#25800
#25820
b00000000000001010000110 #
#25840
#25860
b00000000000001010000111 #
#25880
#25900
b00000000000001010001000 #
#25920
#25940
b00000000000001010001001 #
#25960
#25980
b00000000000001010001010 #
#26000
#26020
b00000000000001010001011 #
#26040
#26060
b00000000000001010001100 #
#26080
#26100
b00000000000001010001101 #
#26120
#26140
b00000000000001010001110 #
#26160
#26180
b00000000000001010001111 #
#26200
#26220
b00000000000001010010000 #
#26240
#26260
b00000000000001010010001 #
#26280
#26300
b00000000000001010010010 #
#26320
#26340
b00000000000001010010011 #
#26360
#26380
b00000000000001010010100 #
#26400
#26420
b00000000000001010010101 #
#26440
#26460
b00000000000001010010110 #
#26480
#26500
b00000000000001010010111 #
#26520
#26540
b00000000000001010011000 #
#26560
#26580
b00000000000001010011001 #
#26600
#26620
b00000000000001010011010 #
#26640
#26660
b00000000000001010011011 #
#26680
#26700
b00000000000001010011100 #
#26720
#26740
b00000000000001010011101 #
#26760
#26780
b00000000000001010011110 #
#26800
#26820
b00000000000001010011111 #
#26840
#26860
b00000000000001010100000 #
#26880
#26900
b00000000000001010100001 #
#26920
#26940
b00000000000001010100010 #
#26960
#26980
b00000000000001010100011 #
#27000
#27020
b00000000000001010100100 #
#27040
#27060
b00000000000001010100101 #
#27080
#27100
b00000000000001010100110 #
#27120
#27140
b00000000000001010100111 #
#27160
#27180
b00000000000001010101000 #
#27200
#27220
b00000000000001010101001 #
#27240
#27260
b00000000000001010101010 #
#27280
#27300
b00000000000001010101011 #
#27320
#27340
b00000000000001010101100 #
#27360
#27380
b00000000000001010101101 #
#27400
#27420
b00000000000001010101110 #
#27440
#27460
b00000000000001010101111 #
#27480
#27500
b00000000000001010110000 #
#27520
#27540
b00000000000001010110001 #
#27560
#27580
b00000000000001010110010 #
#27600
#27620
b00000000000001010110011 #
#27640
#27660
b00000000000001010110100 #
#27680
#27700
b00000000000001010110101 #
#27720
#27740
b00000000000001010110110 #
#27760
#27780
b00000000000001010110111 #
#27800
#27820
b00000000000001010111000 #
#27840
#27860
b00000000000001010111001 #
#27880
#27900
b00000000000001010111010 #
#27920
#27940
b00000000000001010111011 #
#27960
#27980
b00000000000001010111100 #
#28000
#28020
b00000000000001010111101 #
#28040
#28060
b00000000000001010111110 #
#28080
#28100
b00000000000001010111111 #
#28120
#28140
b00000000000001011000000 #
#28160
#28180
b00000000000001011000001 #
#28200
#28220
b00000000000001011000010 #
#28240
#28260
b00000000000001011000011 #
#28280
#28300
b00000000000001011000100 #
#28320
#28340
b00000000000001011000101 #
#28360
#28380
b00000000000001011000110 #
#28400
#28420
b00000000000001011000111 #
#28440
#28460
b00000000000001011001000 #
#28480
#28500
b00000000000001011001001 #
#28520
#28540
b00000000000001011001010 #
#28560
#28580
b00000000000001011001011 #
#28600
#28620
b00000000000001011001100 #
#28640
#28660
b00000000000001011001101 #
#28680
#28700
b00000000000001011001110 #
#28720
#28740
b00000000000001011001111 #
#28760
#28780
b00000000000001011010000 #
#28800
#28820
b00000000000001011010001 #
#28840
#28860
b00000000000001011010010 #
#28880
#28900
b00000000000001011010011 #
#28920
#28940
b00000000000001011010100 #
#28960
#28980
b00000000000001011010101 #
#29000
#29020
b00000000000001011010110 #
#29040
#29060
b00000000000001011010111 #
#29080
#29100
b00000000000001011011000 #
#29120
#29140
b00000000000001011011001 #
#29160
#29180
b00000000000001011011010 #
#29200
#29220
b00000000000001011011011 #
#29240
#29260
b00000000000001011011100 #
#29280
#29300
b00000000000001011011101 #
#29320
#29340
b00000000000001011011110 #
#29360
#29380
b00000000000001011011111 #
#29400
#29420
b00000000000001011100000 #
#29440
#29460
b00000000000001011100001 #
#29480
#29500
b00000000000001011100010 #
#29520
#29540
b00000000000001011100011 #
#29560
#29580
b00000000000001011100100 #
#29600
#29620
b00000000000001011100101 #
#29640
#29660
b00000000000001011100110 #
#29680
