fpga/myhdl/ChipSelectGenerator.vcd
$date
    Wed May 27 23:17:48 2015
$end
$version
    MyHDL 0.9.dev0
$end
$timescale
    1ns
$end

$scope module ChipSelectGenerator $end
$var reg 4 ! chipselectbits $end
$var reg 16 " decoderoutput $end
$var reg 23 # addr $end
$var reg 1 $ notas $end
$var reg 16 % chipselects $end
$scope module decoder $end
$var reg 4 ! input $end
$var reg 16 " output $end
$upscope $end
$upscope $end

$enddefinitions $end
$dumpvars
b0000 !
b0000000000000000 "
b00000000000000000000000 #
1$
b0000000000000000 %
$end
b0000000000000001 "
0$
b1111111111111110 %
#20
1$
#40
0$
#60
1$
b00010000000000000000000 #
b0001 !
b0000000000000010 "
#80
0$
b1111111111111101 %
#100
1$
b00100000000000000000000 #
b0010 !
b0000000000000100 "
#120
0$
b1111111111111011 %
#140
1$
b00110000000000000000000 #
b0011 !
b0000000000001000 "
#160
0$
b1111111111110111 %
#180
1$
b01000000000000000000000 #
b0100 !
b0000000000010000 "
#200
0$
b1111111111101111 %
#220
1$
b01010000000000000000000 #
b0101 !
b0000000000100000 "
#240
0$
b1111111111011111 %
#260
1$
b01100000000000000000000 #
b0110 !
b0000000001000000 "
#280
0$
b1111111110111111 %
#300
1$
b01110000000000000000000 #
b0111 !
b0000000010000000 "
#320
0$
b1111111101111111 %
#340
1$
b10000000000000000000000 #
b1000 !
b0000000100000000 "
#360
0$
b1111111011111111 %
#380
1$
b10010000000000000000000 #
b1001 !
b0000001000000000 "
#400
0$
b1111110111111111 %
#420
1$
b10100000000000000000000 #
b1010 !
b0000010000000000 "
#440
0$
b1111101111111111 %
#460
1$
b10110000000000000000000 #
b1011 !
b0000100000000000 "
#480
0$
b1111011111111111 %
#500
1$
b11000000000000000000000 #
b1100 !
b0001000000000000 "
#520
0$
b1110111111111111 %
#540
1$
b11010000000000000000000 #
b1101 !
b0010000000000000 "
#560
0$
b1101111111111111 %
#580
1$
b11100000000000000000000 #
b1110 !
b0100000000000000 "
#600
0$
b1011111111111111 %
#620
1$
b11110000000000000000000 #
b1111 !
b1000000000000000 "
#640
0$
b0111111111111111 %
#660
1$
b00000000000000000000000 #
b0000 !
b0000000000000001 "
#680
0$
b1111111111111110 %
#700
1$
b00010000000000000000000 #
b0001 !
b0000000000000010 "
#720
0$
b1111111111111101 %
#740
1$
b00100000000000000000000 #
b0010 !
b0000000000000100 "
#760
0$
b1111111111111011 %
#780
1$
b00110000000000000000000 #
b0011 !
b0000000000001000 "
#800
0$
b1111111111110111 %
#820
1$
b01000000000000000000000 #
b0100 !
b0000000000010000 "
#840
0$
b1111111111101111 %
#860
1$
b01010000000000000000000 #
b0101 !
b0000000000100000 "
#880
0$
b1111111111011111 %
#900
1$
b01100000000000000000000 #
b0110 !
b0000000001000000 "
#920
0$
b1111111110111111 %
#940
1$
b01110000000000000000000 #
b0111 !
b0000000010000000 "
#960
0$
b1111111101111111 %
#980
1$
b10000000000000000000000 #
b1000 !
b0000000100000000 "
#1000
0$
b1111111011111111 %
#1020
1$
b10010000000000000000000 #
b1001 !
b0000001000000000 "
#1040
0$
b1111110111111111 %
#1060
1$
b10100000000000000000000 #
b1010 !
b0000010000000000 "
#1080
0$
b1111101111111111 %
#1100
1$
b10110000000000000000000 #
b1011 !
b0000100000000000 "
#1120
0$
b1111011111111111 %
#1140
1$
b11000000000000000000000 #
b1100 !
b0001000000000000 "
#1160
0$
b1110111111111111 %
#1180
1$
b11010000000000000000000 #
b1101 !
b0010000000000000 "
#1200
0$
b1101111111111111 %
#1220
1$
b11100000000000000000000 #
b1110 !
b0100000000000000 "
#1240
0$
b1011111111111111 %
#1260
1$
b11110000000000000000000 #
b1111 !
b1000000000000000 "
#1280
0$
b0111111111111111 %
#1300
1$
b00000000000000000000000 #
b0000 !
b0000000000000001 "
#1320
0$
b1111111111111110 %
#1340
1$
b00010000000000000000000 #
b0001 !
b0000000000000010 "
#1360
0$
b1111111111111101 %
#1380
1$
b00100000000000000000000 #
b0010 !
b0000000000000100 "
#1400
0$
b1111111111111011 %
#1420
1$
b00110000000000000000000 #
b0011 !
b0000000000001000 "
#1440
0$
b1111111111110111 %
#1460
1$
b01000000000000000000000 #
b0100 !
b0000000000010000 "
#1480
0$
b1111111111101111 %
#1500
1$
b01010000000000000000000 #
b0101 !
b0000000000100000 "
#1520
0$
b1111111111011111 %
#1540
1$
b01100000000000000000000 #
b0110 !
b0000000001000000 "
#1560
0$
b1111111110111111 %
#1580
1$
b01110000000000000000000 #
b0111 !
b0000000010000000 "
#1600
0$
b1111111101111111 %
#1620
1$
b10000000000000000000000 #
b1000 !
b0000000100000000 "
#1640
0$
b1111111011111111 %
#1660
1$
b10010000000000000000000 #
b1001 !
b0000001000000000 "
#1680
0$
b1111110111111111 %
#1700
1$
b10100000000000000000000 #
b1010 !
b0000010000000000 "
#1720
0$
b1111101111111111 %
#1740
1$
b10110000000000000000000 #
b1011 !
b0000100000000000 "
#1760
0$
b1111011111111111 %
#1780
1$
b11000000000000000000000 #
b1100 !
b0001000000000000 "
#1800
0$
b1110111111111111 %
#1820
1$
b11010000000000000000000 #
b1101 !
b0010000000000000 "
#1840
0$
b1101111111111111 %
#1860
1$
b11100000000000000000000 #
b1110 !
b0100000000000000 "
#1880
0$
b1011111111111111 %
#1900
1$
b11110000000000000000000 #
b1111 !
b1000000000000000 "
#1920
0$
b0111111111111111 %
#1940
1$
b00000000000000000000000 #
b0000 !
b0000000000000001 "
#1960
0$
b1111111111111110 %
#1980
1$
b00010000000000000000000 #
b0001 !
b0000000000000010 "
#2000
0$
b1111111111111101 %
#2020
1$
b00100000000000000000000 #
b0010 !
b0000000000000100 "
#2040
0$
b1111111111111011 %
#2060
1$
b00110000000000000000000 #
b0011 !
b0000000000001000 "
#2080
0$
b1111111111110111 %
#2100
1$
b01000000000000000000000 #
b0100 !
b0000000000010000 "
#2120
0$
b1111111111101111 %
#2140
1$
b01010000000000000000000 #
b0101 !
b0000000000100000 "
#2160
0$
b1111111111011111 %
#2180
1$
b01100000000000000000000 #
b0110 !
b0000000001000000 "
#2200
0$
b1111111110111111 %
#2220
1$
b01110000000000000000000 #
b0111 !
b0000000010000000 "
#2240
0$
b1111111101111111 %
#2260
1$
b10000000000000000000000 #
b1000 !
b0000000100000000 "
#2280
0$
b1111111011111111 %
#2300
1$
b10010000000000000000000 #
b1001 !
b0000001000000000 "
#2320
0$
b1111110111111111 %
#2340
1$
b10100000000000000000000 #
b1010 !
b0000010000000000 "
#2360
0$
b1111101111111111 %
#2380
1$
b10110000000000000000000 #
b1011 !
b0000100000000000 "
#2400
0$
b1111011111111111 %
#2420
1$
b11000000000000000000000 #
b1100 !
b0001000000000000 "
#2440
0$
b1110111111111111 %
#2460
1$
b11010000000000000000000 #
b1101 !
b0010000000000000 "
#2480
0$
b1101111111111111 %
#2500
1$
b11100000000000000000000 #
b1110 !
b0100000000000000 "
#2520
0$
b1011111111111111 %
#2540
1$
b11110000000000000000000 #
b1111 !
b1000000000000000 "
#2560
0$
b0111111111111111 %
#2580
1$
b00000000000000000000000 #
b0000 !
b0000000000000001 "
#2600
0$
b1111111111111110 %
#2620
1$
b00010000000000000000000 #
b0001 !
b0000000000000010 "
#2640
0$
b1111111111111101 %
#2660
1$
b00100000000000000000000 #
b0010 !
b0000000000000100 "
#2680
0$
b1111111111111011 %
#2700
1$
b00110000000000000000000 #
b0011 !
b0000000000001000 "
#2720
0$
b1111111111110111 %
#2740
1$
b01000000000000000000000 #
b0100 !
b0000000000010000 "
#2760
0$
b1111111111101111 %
#2780
1$
b01010000000000000000000 #
b0101 !
b0000000000100000 "
#2800
0$
b1111111111011111 %
#2820
1$
b01100000000000000000000 #
b0110 !
b0000000001000000 "
#2840
0$
b1111111110111111 %
#2860
1$
b01110000000000000000000 #
b0111 !
b0000000010000000 "
#2880
0$
b1111111101111111 %
#2900
1$
b10000000000000000000000 #
b1000 !
b0000000100000000 "
#2920
0$
b1111111011111111 %
#2940
1$
b10010000000000000000000 #
b1001 !
b0000001000000000 "
#2960
0$
b1111110111111111 %
#2980
1$
b10100000000000000000000 #
b1010 !
b0000010000000000 "
#3000
0$
b1111101111111111 %
#3020
1$
b10110000000000000000000 #
b1011 !
b0000100000000000 "
#3040
0$
b1111011111111111 %
#3060
1$
b11000000000000000000000 #
b1100 !
b0001000000000000 "
#3080
0$
b1110111111111111 %
#3100
1$
b11010000000000000000000 #
b1101 !
b0010000000000000 "
#3120
0$
b1101111111111111 %
#3140
1$
b11100000000000000000000 #
b1110 !
b0100000000000000 "
#3160
0$
b1011111111111111 %
#3180
1$
b11110000000000000000000 #
b1111 !
b1000000000000000 "
#3200
0$
b0111111111111111 %
#3220
1$
b00000000000000000000000 #
b0000 !
b0000000000000001 "
#3240
0$
b1111111111111110 %
#3260
1$
b00010000000000000000000 #
b0001 !
b0000000000000010 "
#3280
0$
b1111111111111101 %
#3300
1$
b00100000000000000000000 #
b0010 !
b0000000000000100 "
#3320
0$
b1111111111111011 %
#3340
1$
b00110000000000000000000 #
b0011 !
b0000000000001000 "
#3360
0$
b1111111111110111 %
#3380
1$
b01000000000000000000000 #
b0100 !
b0000000000010000 "
#3400
0$
b1111111111101111 %
#3420
1$
b01010000000000000000000 #
b0101 !
b0000000000100000 "
#3440
0$
b1111111111011111 %
#3460
1$
b01100000000000000000000 #
b0110 !
b0000000001000000 "
#3480
0$
b1111111110111111 %
#3500
1$
b01110000000000000000000 #
b0111 !
b0000000010000000 "
#3520
0$
b1111111101111111 %
#3540
1$
b10000000000000000000000 #
b1000 !
b0000000100000000 "
#3560
0$
b1111111011111111 %
#3580
1$
b10010000000000000000000 #
b1001 !
b0000001000000000 "
#3600
0$
b1111110111111111 %
#3620
1$
b10100000000000000000000 #
b1010 !
b0000010000000000 "
#3640
0$
b1111101111111111 %
#3660
1$
b10110000000000000000000 #
b1011 !
b0000100000000000 "
#3680
0$
b1111011111111111 %
#3700
1$
b11000000000000000000000 #
b1100 !
b0001000000000000 "
#3720
0$
b1110111111111111 %
#3740
1$
b11010000000000000000000 #
b1101 !
b0010000000000000 "
#3760
0$
b1101111111111111 %
#3780
1$
b11100000000000000000000 #
b1110 !
b0100000000000000 "
#3800
0$
b1011111111111111 %
#3820
1$
b11110000000000000000000 #
b1111 !
b1000000000000000 "
#3840
0$
b0111111111111111 %
#3860
1$
b00000000000000000000000 #
b0000 !
b0000000000000001 "
#3880
0$
b1111111111111110 %
#3900
1$
b00010000000000000000000 #
b0001 !
b0000000000000010 "
#3920
0$
b1111111111111101 %
#3940
1$
b00100000000000000000000 #
b0010 !
b0000000000000100 "
#3960
0$
b1111111111111011 %
#3980
1$
b00110000000000000000000 #
b0011 !
b0000000000001000 "
#4000
0$
b1111111111110111 %
#4020
1$
b01000000000000000000000 #
b0100 !
b0000000000010000 "
#4040
0$
b1111111111101111 %
#4060
1$
b01010000000000000000000 #
b0101 !
b0000000000100000 "
#4080
0$
b1111111111011111 %
#4100
1$
b01100000000000000000000 #
b0110 !
b0000000001000000 "
#4120
0$
b1111111110111111 %
#4140
1$
b01110000000000000000000 #
b0111 !
b0000000010000000 "
#4160
0$
b1111111101111111 %
#4180
1$
b10000000000000000000000 #
b1000 !
b0000000100000000 "
#4200
0$
b1111111011111111 %
#4220
1$
b10010000000000000000000 #
b1001 !
b0000001000000000 "
#4240
0$
b1111110111111111 %
#4260
1$
b10100000000000000000000 #
b1010 !
b0000010000000000 "
#4280
0$
b1111101111111111 %
#4300
1$
b10110000000000000000000 #
b1011 !
b0000100000000000 "
#4320
0$
b1111011111111111 %
#4340
1$
b11000000000000000000000 #
b1100 !
b0001000000000000 "
#4360
0$
b1110111111111111 %
#4380
1$
b11010000000000000000000 #
b1101 !
b0010000000000000 "
#4400
0$
b1101111111111111 %
#4420
1$
b11100000000000000000000 #
b1110 !
b0100000000000000 "
#4440
0$
b1011111111111111 %
#4460
1$
b11110000000000000000000 #
b1111 !
b1000000000000000 "
#4480
0$
b0111111111111111 %
#4500
1$
b00000000000000000000000 #
b0000 !
b0000000000000001 "
#4520
0$
b1111111111111110 %
#4540
1$
b00010000000000000000000 #
b0001 !
b0000000000000010 "
#4560
0$
b1111111111111101 %
#4580
1$
b00100000000000000000000 #
b0010 !
b0000000000000100 "
#4600
0$
b1111111111111011 %
#4620
1$
b00110000000000000000000 #
b0011 !
b0000000000001000 "
#4640
0$
b1111111111110111 %
#4660
1$
b01000000000000000000000 #
b0100 !
b0000000000010000 "
#4680
0$
b1111111111101111 %
#4700
1$
b01010000000000000000000 #
b0101 !
b0000000000100000 "
#4720
0$
b1111111111011111 %
#4740
1$
b01100000000000000000000 #
b0110 !
b0000000001000000 "
#4760
0$
b1111111110111111 %
#4780
1$
b01110000000000000000000 #
b0111 !
b0000000010000000 "
#4800
0$
b1111111101111111 %
#4820
1$
b10000000000000000000000 #
b1000 !
b0000000100000000 "
#4840
0$
b1111111011111111 %
#4860
1$
b10010000000000000000000 #
b1001 !
b0000001000000000 "
#4880
0$
b1111110111111111 %
#4900
1$
b10100000000000000000000 #
b1010 !
b0000010000000000 "
#4920
0$
b1111101111111111 %
#4940
1$
b10110000000000000000000 #
b1011 !
b0000100000000000 "
#4960
0$
b1111011111111111 %
#4980
1$
b11000000000000000000000 #
b1100 !
b0001000000000000 "
#5000
0$
b1110111111111111 %
#5020
1$
b11010000000000000000000 #
b1101 !
b0010000000000000 "
#5040
0$
b1101111111111111 %
#5060
1$
b11100000000000000000000 #
b1110 !
b0100000000000000 "
#5080
0$
b1011111111111111 %
#5100
1$
b11110000000000000000000 #
b1111 !
b1000000000000000 "
#5120
0$
b0111111111111111 %
#5140
1$
b00000000000000000000000 #
b0000 !
b0000000000000001 "
#5160
0$
b1111111111111110 %
#5180
1$
b00010000000000000000000 #
b0001 !
b0000000000000010 "
#5200
0$
b1111111111111101 %
#5220
1$
b00100000000000000000000 #
b0010 !
b0000000000000100 "
#5240
0$
b1111111111111011 %
#5260
1$
b00110000000000000000000 #
b0011 !
b0000000000001000 "
#5280
0$
b1111111111110111 %
#5300
1$
b01000000000000000000000 #
b0100 !
b0000000000010000 "
#5320
0$
b1111111111101111 %
#5340
1$
b01010000000000000000000 #
b0101 !
b0000000000100000 "
#5360
0$
b1111111111011111 %
#5380
1$
b01100000000000000000000 #
b0110 !
b0000000001000000 "
#5400
0$
b1111111110111111 %
#5420
1$
b01110000000000000000000 #
b0111 !
b0000000010000000 "
#5440
0$
b1111111101111111 %
#5460
1$
b10000000000000000000000 #
b1000 !
b0000000100000000 "
#5480
0$
b1111111011111111 %
#5500
1$
b10010000000000000000000 #
b1001 !
b0000001000000000 "
#5520
0$
b1111110111111111 %
#5540
1$
b10100000000000000000000 #
b1010 !
b0000010000000000 "
#5560
0$
b1111101111111111 %
#5580
1$
b10110000000000000000000 #
b1011 !
b0000100000000000 "
#5600
0$
b1111011111111111 %
#5620
1$
b11000000000000000000000 #
b1100 !
b0001000000000000 "
#5640
0$
b1110111111111111 %
#5660
1$
b11010000000000000000000 #
b1101 !
b0010000000000000 "
#5680
0$
b1101111111111111 %
#5700
1$
b11100000000000000000000 #
b1110 !
b0100000000000000 "
#5720
0$
b1011111111111111 %
#5740
1$
b11110000000000000000000 #
b1111 !
b1000000000000000 "
#5760
0$
b0111111111111111 %
#5780
1$
b00000000000000000000000 #
b0000 !
b0000000000000001 "
#5800
0$
b1111111111111110 %
#5820
1$
b00010000000000000000000 #
b0001 !
b0000000000000010 "
#5840
0$
b1111111111111101 %
#5860
1$
b00100000000000000000000 #
b0010 !
b0000000000000100 "
#5880
0$
b1111111111111011 %
#5900
1$
b00110000000000000000000 #
b0011 !
b0000000000001000 "
#5920
0$
b1111111111110111 %
#5940
1$
b01000000000000000000000 #
b0100 !
b0000000000010000 "
#5960
0$
b1111111111101111 %
#5980
1$
b01010000000000000000000 #
b0101 !
b0000000000100000 "
#6000
0$
b1111111111011111 %
#6020
1$
b01100000000000000000000 #
b0110 !
b0000000001000000 "
#6040
0$
b1111111110111111 %
#6060
1$
b01110000000000000000000 #
b0111 !
b0000000010000000 "
#6080
0$
b1111111101111111 %
#6100
1$
b10000000000000000000000 #
b1000 !
b0000000100000000 "
#6120
0$
b1111111011111111 %
#6140
1$
b10010000000000000000000 #
b1001 !
b0000001000000000 "
#6160
0$
b1111110111111111 %
#6180
1$
b10100000000000000000000 #
b1010 !
b0000010000000000 "
#6200
0$
b1111101111111111 %
#6220
1$
b10110000000000000000000 #
b1011 !
b0000100000000000 "
#6240
0$
b1111011111111111 %
#6260
1$
b11000000000000000000000 #
b1100 !
b0001000000000000 "
#6280
0$
b1110111111111111 %
#6300
1$
b11010000000000000000000 #
b1101 !
b0010000000000000 "
#6320
0$
b1101111111111111 %
#6340
1$
b11100000000000000000000 #
b1110 !
b0100000000000000 "
#6360
0$
b1011111111111111 %
#6380
1$
b11110000000000000000000 #
b1111 !
b1000000000000000 "
#6400
0$
b0111111111111111 %
#6420
1$
b00000000000000000000000 #
b0000 !
b0000000000000001 "
#6440
0$
b1111111111111110 %
#6460
1$
b00010000000000000000000 #
b0001 !
b0000000000000010 "
#6480
0$
b1111111111111101 %
#6500
1$
b00100000000000000000000 #
b0010 !
b0000000000000100 "
#6520
0$
b1111111111111011 %
#6540
1$
b00110000000000000000000 #
b0011 !
b0000000000001000 "
#6560
0$
b1111111111110111 %
#6580
1$
b01000000000000000000000 #
b0100 !
b0000000000010000 "
#6600
0$
b1111111111101111 %
#6620
1$
b01010000000000000000000 #
b0101 !
b0000000000100000 "
#6640
0$
b1111111111011111 %
#6660
1$
b01100000000000000000000 #
b0110 !
b0000000001000000 "
#6680
0$
b1111111110111111 %
#6700
1$
b01110000000000000000000 #
b0111 !
b0000000010000000 "
#6720
0$
b1111111101111111 %
#6740
1$
b10000000000000000000000 #
b1000 !
b0000000100000000 "
#6760
0$
b1111111011111111 %
#6780
1$
b10010000000000000000000 #
b1001 !
b0000001000000000 "
#6800
0$
b1111110111111111 %
#6820
1$
b10100000000000000000000 #
b1010 !
b0000010000000000 "
#6840
0$
b1111101111111111 %
#6860
1$
b10110000000000000000000 #
b1011 !
b0000100000000000 "
#6880
0$
b1111011111111111 %
#6900
1$
b11000000000000000000000 #
b1100 !
b0001000000000000 "
#6920
0$
b1110111111111111 %
#6940
1$
b11010000000000000000000 #
b1101 !
b0010000000000000 "
#6960
0$
b1101111111111111 %
#6980
1$
b11100000000000000000000 #
b1110 !
b0100000000000000 "
#7000
0$
b1011111111111111 %
#7020
1$
b11110000000000000000000 #
b1111 !
b1000000000000000 "
#7040
0$
b0111111111111111 %
#7060
1$
b00000000000000000000000 #
b0000 !
b0000000000000001 "
#7080
0$
b1111111111111110 %
#7100
1$
b00010000000000000000000 #
b0001 !
b0000000000000010 "
#7120
0$
b1111111111111101 %
#7140
1$
b00100000000000000000000 #
b0010 !
b0000000000000100 "
#7160
0$
b1111111111111011 %
#7180
1$
b00110000000000000000000 #
b0011 !
b0000000000001000 "
#7200
0$
b1111111111110111 %
#7220
1$
b01000000000000000000000 #
b0100 !
b0000000000010000 "
#7240
0$
b1111111111101111 %
#7260
1$
b01010000000000000000000 #
b0101 !
b0000000000100000 "
#7280
0$
b1111111111011111 %
#7300
1$
b01100000000000000000000 #
b0110 !
b0000000001000000 "
#7320
0$
b1111111110111111 %
#7340
1$
b01110000000000000000000 #
b0111 !
b0000000010000000 "
#7360
0$
b1111111101111111 %
#7380
1$
b10000000000000000000000 #
b1000 !
b0000000100000000 "
#7400
0$
b1111111011111111 %
#7420
1$
b10010000000000000000000 #
b1001 !
b0000001000000000 "
#7440
0$
b1111110111111111 %
#7460
1$
b10100000000000000000000 #
b1010 !
b0000010000000000 "
#7480
0$
b1111101111111111 %
#7500
1$
b10110000000000000000000 #
b1011 !
b0000100000000000 "
#7520
0$
b1111011111111111 %
#7540
1$
b11000000000000000000000 #
b1100 !
b0001000000000000 "
#7560
0$
b1110111111111111 %
#7580
1$
b11010000000000000000000 #
b1101 !
b0010000000000000 "
#7600
0$
b1101111111111111 %
#7620
1$
b11100000000000000000000 #
b1110 !
b0100000000000000 "
#7640
0$
b1011111111111111 %
#7660
1$
b11110000000000000000000 #
b1111 !
b1000000000000000 "
#7680
0$
b0111111111111111 %
#7700
1$
b00000000000000000000000 #
b0000 !
b0000000000000001 "
#7720
0$
b1111111111111110 %
#7740
1$
b00010000000000000000000 #
b0001 !
b0000000000000010 "
#7760
0$
b1111111111111101 %
#7780
1$
b00100000000000000000000 #
b0010 !
b0000000000000100 "
#7800
0$
b1111111111111011 %
#7820
1$
b00110000000000000000000 #
b0011 !
b0000000000001000 "
#7840
0$
b1111111111110111 %
#7860
1$
b01000000000000000000000 #
b0100 !
b0000000000010000 "
#7880
0$
b1111111111101111 %
#7900
1$
b01010000000000000000000 #
b0101 !
b0000000000100000 "
#7920
0$
b1111111111011111 %
#7940
1$
b01100000000000000000000 #
b0110 !
b0000000001000000 "
#7960
0$
b1111111110111111 %
#7980
1$
b01110000000000000000000 #
b0111 !
b0000000010000000 "
#8000
0$
b1111111101111111 %
#8020
1$
b10000000000000000000000 #
b1000 !
b0000000100000000 "
#8040
0$
b1111111011111111 %
#8060
1$
b10010000000000000000000 #
b1001 !
b0000001000000000 "
#8080
0$
b1111110111111111 %
#8100
1$
b10100000000000000000000 #
b1010 !
b0000010000000000 "
#8120
0$
b1111101111111111 %
#8140
1$
b10110000000000000000000 #
b1011 !
b0000100000000000 "
#8160
0$
b1111011111111111 %
#8180
1$
b11000000000000000000000 #
b1100 !
b0001000000000000 "
#8200
0$
b1110111111111111 %
#8220
1$
b11010000000000000000000 #
b1101 !
b0010000000000000 "
#8240
0$
b1101111111111111 %
#8260
1$
b11100000000000000000000 #
b1110 !
b0100000000000000 "
#8280
0$
b1011111111111111 %
#8300
1$
b11110000000000000000000 #
b1111 !
b1000000000000000 "
#8320
0$
b0111111111111111 %
#8340
1$
b00000000000000000000000 #
b0000 !
b0000000000000001 "
#8360
0$
b1111111111111110 %
#8380
1$
b00010000000000000000000 #
b0001 !
b0000000000000010 "
#8400
0$
b1111111111111101 %
#8420
1$
b00100000000000000000000 #
b0010 !
b0000000000000100 "
#8440
0$
b1111111111111011 %
#8460
1$
b00110000000000000000000 #
b0011 !
b0000000000001000 "
#8480
0$
b1111111111110111 %
#8500
1$
b01000000000000000000000 #
b0100 !
b0000000000010000 "
#8520
0$
b1111111111101111 %
#8540
1$
b01010000000000000000000 #
b0101 !
b0000000000100000 "
#8560
0$
b1111111111011111 %
#8580
1$
b01100000000000000000000 #
b0110 !
b0000000001000000 "
#8600
0$
b1111111110111111 %
#8620
1$
b01110000000000000000000 #
b0111 !
b0000000010000000 "
#8640
0$
b1111111101111111 %
#8660
1$
b10000000000000000000000 #
b1000 !
b0000000100000000 "
#8680
0$
b1111111011111111 %
#8700
1$
b10010000000000000000000 #
b1001 !
b0000001000000000 "
#8720
0$
b1111110111111111 %
#8740
1$
b10100000000000000000000 #
b1010 !
b0000010000000000 "
#8760
0$
b1111101111111111 %
#8780
1$
b10110000000000000000000 #
b1011 !
b0000100000000000 "
#8800
0$
b1111011111111111 %
#8820
1$
b11000000000000000000000 #
b1100 !
b0001000000000000 "
#8840
0$
b1110111111111111 %
#8860
1$
b11010000000000000000000 #
b1101 !
b0010000000000000 "
#8880
0$
b1101111111111111 %
#8900
1$
b11100000000000000000000 #
b1110 !
b0100000000000000 "
#8920
0$
b1011111111111111 %
#8940
1$
b11110000000000000000000 #
b1111 !
b1000000000000000 "
#8960
0$
b0111111111111111 %
#8980
1$
b00000000000000000000000 #
b0000 !
b0000000000000001 "
#9000
0$
b1111111111111110 %
#9020
1$
b00010000000000000000000 #
b0001 !
b0000000000000010 "
#9040
0$
b1111111111111101 %
#9060
1$
b00100000000000000000000 #
b0010 !
b0000000000000100 "
#9080
0$
b1111111111111011 %
#9100
1$
b00110000000000000000000 #
b0011 !
b0000000000001000 "
#9120
0$
b1111111111110111 %
#9140
1$
b01000000000000000000000 #
b0100 !
b0000000000010000 "
#9160
0$
b1111111111101111 %
#9180
1$
b01010000000000000000000 #
b0101 !
b0000000000100000 "
#9200
0$
b1111111111011111 %
#9220
1$
b01100000000000000000000 #
b0110 !
b0000000001000000 "
#9240
0$
b1111111110111111 %
#9260
1$
b01110000000000000000000 #
b0111 !
b0000000010000000 "
#9280
0$
b1111111101111111 %
#9300
1$
b10000000000000000000000 #
b1000 !
b0000000100000000 "
#9320
0$
b1111111011111111 %
#9340
1$
b10010000000000000000000 #
b1001 !
b0000001000000000 "
#9360
0$
b1111110111111111 %
#9380
1$
b10100000000000000000000 #
b1010 !
b0000010000000000 "
#9400
0$
b1111101111111111 %
#9420
1$
b10110000000000000000000 #
b1011 !
b0000100000000000 "
#9440
0$
b1111011111111111 %
#9460
1$
b11000000000000000000000 #
b1100 !
b0001000000000000 "
#9480
0$
b1110111111111111 %
#9500
1$
b11010000000000000000000 #
b1101 !
b0010000000000000 "
#9520
0$
b1101111111111111 %
#9540
1$
b11100000000000000000000 #
b1110 !
b0100000000000000 "
#9560
0$
b1011111111111111 %
#9580
1$
b11110000000000000000000 #
b1111 !
b1000000000000000 "
#9600
0$
b0111111111111111 %
#9620
1$
b00000000000000000000000 #
b0000 !
b0000000000000001 "
#9640
0$
b1111111111111110 %
#9660
1$
b00010000000000000000000 #
b0001 !
b0000000000000010 "
#9680
0$
b1111111111111101 %
#9700
1$
b00100000000000000000000 #
b0010 !
b0000000000000100 "
#9720
0$
b1111111111111011 %
#9740
1$
b00110000000000000000000 #
b0011 !
b0000000000001000 "
#9760
0$
b1111111111110111 %
#9780
1$
b01000000000000000000000 #
b0100 !
b0000000000010000 "
#9800
0$
b1111111111101111 %
#9820
1$
b01010000000000000000000 #
b0101 !
b0000000000100000 "
#9840
0$
b1111111111011111 %
#9860
1$
b01100000000000000000000 #
b0110 !
b0000000001000000 "
#9880
0$
b1111111110111111 %
#9900
1$
b01110000000000000000000 #
b0111 !
b0000000010000000 "
#9920
0$
b1111111101111111 %
#9940
1$
b10000000000000000000000 #
b1000 !
b0000000100000000 "
#9960
0$
b1111111011111111 %
#9980
1$
b10010000000000000000000 #
b1001 !
b0000001000000000 "
#10000
0$
b1111110111111111 %
