fpga/myhdl/ResetGenerator.vcd
$date
    Sun May 31 00:16:34 2015
$end
$version
    MyHDL 0.9.dev0
$end
$timescale
    1ns
$end

$scope module ResetGenerator $end
$var reg 1 ! reseto $end
$var reg 1 " clk $end
$var reg 1 # halto $end
$var reg 10 $ counter $end
$var reg 1 % notsysreset $end
$var reg 1 & notcpuhalt $end
$var reg 1 ' notcpureset $end
$upscope $end

$enddefinitions $end
$dumpvars
z!
1"
z#
b0000000000 $
0%
z&
z'
$end
1%
#20
0"
#40
1"
#60
0"
#80
1"
#100
0"
#120
1"
#140
0"
#160
1"
#180
0"
#200
1"
#220
0"
#240
1"
#260
0"
#280
1"
#300
0"
#320
1"
#340
0"
0%
#360
1"
b0000000001 $
#380
0"
#400
1"
b0000000010 $
#420
0"
#440
1"
b0000000011 $
#460
0"
#480
1"
b0000000100 $
#500
0"
#520
1"
b0000000101 $
#540
0"
#560
1"
b0000000110 $
#580
0"
#600
1"
b0000000111 $
#620
0"
#640
1"
b0000001000 $
#660
0"
#680
1"
b0000001001 $
#700
0"
#720
1"
b0000001010 $
#740
0"
#760
1"
b0000001011 $
#780
0"
#800
1"
b0000001100 $
#820
0"
#840
1"
b0000001101 $
#860
0"
#880
1"
b0000001110 $
#900
0"
#920
1"
b0000001111 $
#940
0"
#960
1"
b0000010000 $
#980
0"
#1000
1"
b0000010001 $
#1020
0"
#1040
1"
b0000010010 $
#1060
0"
#1080
1"
b0000010011 $
#1100
0"
#1120
1"
b0000010100 $
#1140
0"
#1160
1"
b0000010101 $
#1180
0"
#1200
1"
b0000010110 $
#1220
0"
#1240
1"
b0000010111 $
#1260
0"
#1280
1"
b0000011000 $
#1300
0"
#1320
1"
b0000011001 $
#1340
0"
#1360
1"
b0000011010 $
#1380
0"
#1400
1"
b0000011011 $
#1420
0"
#1440
1"
b0000011100 $
#1460
0"
#1480
1"
b0000011101 $
#1500
0"
#1520
1"
b0000011110 $
#1540
0"
#1560
1"
b0000011111 $
#1580
0"
#1600
1"
b0000100000 $
#1620
0"
#1640
1"
b0000100001 $
#1660
0"
#1680
1"
b0000100010 $
#1700
0"
#1720
1"
b0000100011 $
#1740
0"
#1760
1"
b0000100100 $
#1780
0"
#1800
1"
b0000100101 $
#1820
0"
#1840
1"
b0000100110 $
#1860
0"
#1880
1"
b0000100111 $
#1900
0"
#1920
1"
b0000101000 $
#1940
0"
#1960
1"
b0000101001 $
#1980
0"
#2000
1"
b0000101010 $
#2020
0"
#2040
1"
b0000101011 $
#2060
0"
#2080
1"
b0000101100 $
#2100
0"
#2120
1"
b0000101101 $
#2140
0"
#2160
1"
b0000101110 $
#2180
0"
#2200
1"
b0000101111 $
#2220
0"
#2240
1"
b0000110000 $
#2260
0"
#2280
1"
b0000110001 $
#2300
0"
#2320
1"
b0000110010 $
#2340
0"
#2360
1"
b0000110011 $
#2380
0"
#2400
1"
b0000110100 $
#2420
0"
#2440
1"
b0000110101 $
#2460
0"
#2480
1"
b0000110110 $
#2500
0"
#2520
1"
b0000110111 $
#2540
0"
#2560
1"
b0000111000 $
#2580
0"
#2600
1"
b0000111001 $
#2620
0"
#2640
1"
b0000111010 $
#2660
0"
#2680
1"
b0000111011 $
#2700
0"
#2720
1"
b0000111100 $
#2740
0"
#2760
1"
b0000111101 $
#2780
0"
#2800
1"
b0000111110 $
#2820
0"
#2840
1"
b0000111111 $
#2860
0"
#2880
1"
b0001000000 $
#2900
0"
#2920
1"
b0001000001 $
#2940
0"
#2960
1"
b0001000010 $
#2980
0"
#3000
1"
b0001000011 $
#3020
0"
#3040
1"
b0001000100 $
#3060
0"
#3080
1"
b0001000101 $
#3100
0"
#3120
1"
b0001000110 $
#3140
0"
#3160
1"
b0001000111 $
#3180
0"
#3200
1"
b0001001000 $
#3220
0"
#3240
1"
b0001001001 $
#3260
0"
#3280
1"
b0001001010 $
#3300
0"
#3320
1"
b0001001011 $
#3340
0"
#3360
1"
b0001001100 $
#3380
0"
#3400
1"
b0001001101 $
#3420
0"
#3440
1"
b0001001110 $
#3460
0"
#3480
1"
b0001001111 $
#3500
0"
#3520
1"
b0001010000 $
#3540
0"
#3560
1"
b0001010001 $
#3580
0"
#3600
1"
b0001010010 $
#3620
0"
#3640
1"
b0001010011 $
#3660
0"
#3680
1"
b0001010100 $
#3700
0"
#3720
1"
b0001010101 $
#3740
0"
#3760
1"
b0001010110 $
#3780
0"
#3800
1"
b0001010111 $
#3820
0"
#3840
1"
b0001011000 $
#3860
0"
#3880
1"
b0001011001 $
#3900
0"
#3920
1"
b0001011010 $
#3940
0"
#3960
1"
b0001011011 $
#3980
0"
#4000
1"
b0001011100 $
#4020
0"
#4040
1"
b0001011101 $
#4060
0"
#4080
1"
b0001011110 $
#4100
0"
#4120
1"
b0001011111 $
#4140
0"
#4160
1"
b0001100000 $
#4180
0"
#4200
1"
b0001100001 $
#4220
0"
#4240
1"
b0001100010 $
#4260
0"
#4280
1"
b0001100011 $
#4300
0"
#4320
1"
b0001100100 $
#4340
0"
#4360
1"
b0001100101 $
#4380
0"
#4400
1"
b0001100110 $
#4420
0"
#4440
1"
b0001100111 $
#4460
0"
#4480
1"
b0001101000 $
#4500
0"
#4520
1"
b0001101001 $
#4540
0"
#4560
1"
b0001101010 $
#4580
0"
#4600
1"
b0001101011 $
#4620
0"
#4640
1"
b0001101100 $
#4660
0"
#4680
1"
b0001101101 $
#4700
0"
#4720
1"
b0001101110 $
#4740
0"
#4760
1"
b0001101111 $
#4780
0"
#4800
1"
b0001110000 $
#4820
0"
#4840
1"
b0001110001 $
#4860
0"
#4880
1"
b0001110010 $
#4900
0"
#4920
1"
b0001110011 $
#4940
0"
#4960
1"
b0001110100 $
#4980
0"
#5000
1"
b0001110101 $
#5020
0"
#5040
1"
b0001110110 $
#5060
0"
#5080
1"
b0001110111 $
#5100
0"
#5120
1"
b0001111000 $
#5140
0"
#5160
1"
b0001111001 $
#5180
0"
#5200
1"
b0001111010 $
#5220
0"
#5240
1"
b0001111011 $
#5260
0"
#5280
1"
b0001111100 $
#5300
0"
#5320
1"
b0001111101 $
#5340
0"
#5360
1"
b0001111110 $
#5380
0"
#5400
1"
b0001111111 $
#5420
0"
#5440
1"
b0010000000 $
#5460
0"
#5480
1"
b0010000001 $
#5500
0"
#5520
1"
b0010000010 $
#5540
0"
#5560
1"
b0010000011 $
#5580
0"
#5600
1"
b0010000100 $
#5620
0"
#5640
1"
b0010000101 $
#5660
0"
#5680
1"
b0010000110 $
#5700
0"
#5720
1"
b0010000111 $
#5740
0"
#5760
1"
b0010001000 $
#5780
0"
#5800
1"
b0010001001 $
#5820
0"
#5840
1"
b0010001010 $
#5860
0"
#5880
1"
b0010001011 $
#5900
0"
#5920
1"
b0010001100 $
#5940
0"
#5960
1"
b0010001101 $
#5980
0"
#6000
1"
b0010001110 $
#6020
0"
#6040
1"
b0010001111 $
#6060
0"
#6080
1"
b0010010000 $
#6100
0"
#6120
1"
b0010010001 $
#6140
0"
#6160
1"
b0010010010 $
#6180
0"
#6200
1"
b0010010011 $
#6220
0"
#6240
1"
b0010010100 $
#6260
0"
#6280
1"
b0010010101 $
#6300
0"
#6320
1"
b0010010110 $
#6340
0"
#6360
1"
b0010010111 $
#6380
0"
#6400
1"
b0010011000 $
#6420
0"
#6440
1"
b0010011001 $
#6460
0"
#6480
1"
b0010011010 $
#6500
0"
#6520
1"
b0010011011 $
#6540
0"
#6560
1"
b0010011100 $
#6580
0"
#6600
1"
b0010011101 $
#6620
0"
#6640
1"
b0010011110 $
#6660
0"
#6680
1"
b0010011111 $
#6700
0"
#6720
1"
b0010100000 $
#6740
0"
#6760
1"
b0010100001 $
#6780
0"
#6800
1"
b0010100010 $
#6820
0"
#6840
1"
b0010100011 $
#6860
0"
#6880
1"
b0010100100 $
#6900
0"
#6920
1"
b0010100101 $
#6940
0"
#6960
1"
b0010100110 $
#6980
0"
#7000
1"
b0010100111 $
#7020
0"
#7040
1"
b0010101000 $
#7060
0"
#7080
1"
b0010101001 $
#7100
0"
#7120
1"
b0010101010 $
#7140
0"
#7160
1"
b0010101011 $
#7180
0"
#7200
1"
b0010101100 $
#7220
0"
#7240
1"
b0010101101 $
#7260
0"
#7280
1"
b0010101110 $
#7300
0"
#7320
1"
b0010101111 $
#7340
0"
#7360
1"
b0010110000 $
#7380
0"
#7400
1"
b0010110001 $
#7420
0"
#7440
1"
b0010110010 $
#7460
0"
#7480
1"
b0010110011 $
#7500
0"
#7520
1"
b0010110100 $
#7540
0"
#7560
1"
b0010110101 $
#7580
0"
#7600
1"
b0010110110 $
#7620
0"
#7640
1"
b0010110111 $
#7660
0"
#7680
1"
b0010111000 $
#7700
0"
#7720
1"
b0010111001 $
#7740
0"
#7760
1"
b0010111010 $
#7780
0"
#7800
1"
b0010111011 $
#7820
0"
#7840
1"
b0010111100 $
#7860
0"
#7880
1"
b0010111101 $
#7900
0"
#7920
1"
b0010111110 $
#7940
0"
#7960
1"
b0010111111 $
#7980
0"
#8000
1"
b0011000000 $
#8020
0"
#8040
1"
b0011000001 $
#8060
0"
#8080
1"
b0011000010 $
#8100
0"
#8120
1"
b0011000011 $
#8140
0"
#8160
1"
b0011000100 $
#8180
0"
#8200
1"
b0011000101 $
#8220
0"
#8240
1"
b0011000110 $
#8260
0"
#8280
1"
b0011000111 $
#8300
0"
#8320
1"
b0011001000 $
#8340
0"
#8360
1"
b0011001001 $
#8380
0"
#8400
1"
b0011001010 $
#8420
0"
#8440
1"
b0011001011 $
#8460
0"
#8480
1"
b0011001100 $
#8500
0"
#8520
1"
b0011001101 $
#8540
0"
#8560
1"
b0011001110 $
#8580
0"
#8600
1"
b0011001111 $
#8620
0"
#8640
1"
b0011010000 $
#8660
0"
#8680
1"
b0011010001 $
#8700
0"
#8720
1"
b0011010010 $
#8740
0"
#8760
1"
b0011010011 $
#8780
0"
#8800
1"
b0011010100 $
#8820
0"
#8840
1"
b0011010101 $
#8860
0"
#8880
1"
b0011010110 $
#8900
0"
#8920
1"
b0011010111 $
#8940
0"
#8960
1"
b0011011000 $
#8980
0"
#9000
1"
b0011011001 $
#9020
0"
#9040
1"
b0011011010 $
#9060
0"
#9080
1"
b0011011011 $
#9100
0"
#9120
1"
b0011011100 $
#9140
0"
#9160
1"
b0011011101 $
#9180
0"
#9200
1"
b0011011110 $
#9220
0"
#9240
1"
b0011011111 $
#9260
0"
#9280
1"
b0011100000 $
#9300
0"
#9320
1"
b0011100001 $
#9340
0"
#9360
1"
b0011100010 $
#9380
0"
#9400
1"
b0011100011 $
#9420
0"
#9440
1"
b0011100100 $
#9460
0"
#9480
1"
b0011100101 $
#9500
0"
#9520
1"
b0011100110 $
#9540
0"
#9560
1"
b0011100111 $
#9580
0"
#9600
1"
b0011101000 $
#9620
0"
#9640
1"
b0011101001 $
#9660
0"
#9680
1"
b0011101010 $
#9700
0"
#9720
1"
b0011101011 $
#9740
0"
#9760
1"
b0011101100 $
#9780
0"
#9800
1"
b0011101101 $
#9820
0"
#9840
1"
b0011101110 $
#9860
0"
#9880
1"
b0011101111 $
#9900
0"
#9920
1"
b0011110000 $
#9940
0"
#9960
1"
b0011110001 $
#9980
0"
#10000
1"
b0011110010 $
#10020
0"
#10040
1"
b0011110011 $
#10060
0"
#10080
1"
b0011110100 $
#10100
0"
#10120
1"
b0011110101 $
#10140
0"
#10160
1"
b0011110110 $
#10180
0"
#10200
1"
b0011110111 $
#10220
0"
#10240
1"
b0011111000 $
#10260
0"
#10280
1"
b0011111001 $
#10300
0"
#10320
1"
b0011111010 $
#10340
0"
#10360
1"
b0011111011 $
#10380
0"
#10400
1"
b0011111100 $
#10420
0"
#10440
1"
b0011111101 $
#10460
0"
#10480
1"
b0011111110 $
#10500
0"
#10520
1"
b0011111111 $
#10540
0"
#10560
1"
b0100000000 $
#10580
0"
#10600
1"
b0100000001 $
#10620
0"
#10640
1"
b0100000010 $
#10660
0"
#10680
1"
b0100000011 $
#10700
0"
#10720
1"
b0100000100 $
#10740
0"
#10760
1"
b0100000101 $
#10780
0"
#10800
1"
b0100000110 $
#10820
0"
#10840
1"
b0100000111 $
#10860
0"
#10880
1"
b0100001000 $
#10900
0"
#10920
1"
b0100001001 $
#10940
0"
#10960
1"
b0100001010 $
#10980
0"
#11000
1"
b0100001011 $
#11020
0"
#11040
1"
b0100001100 $
#11060
0"
#11080
1"
b0100001101 $
#11100
0"
#11120
1"
b0100001110 $
#11140
0"
#11160
1"
b0100001111 $
#11180
0"
#11200
1"
b0100010000 $
#11220
0"
#11240
1"
b0100010001 $
#11260
0"
#11280
1"
b0100010010 $
#11300
0"
#11320
1"
b0100010011 $
#11340
0"
#11360
1"
b0100010100 $
#11380
0"
#11400
1"
b0100010101 $
#11420
0"
#11440
1"
b0100010110 $
#11460
0"
#11480
1"
b0100010111 $
#11500
0"
#11520
1"
b0100011000 $
#11540
0"
#11560
1"
b0100011001 $
#11580
0"
#11600
1"
b0100011010 $
#11620
0"
#11640
1"
b0100011011 $
#11660
0"
#11680
1"
b0100011100 $
#11700
0"
#11720
1"
b0100011101 $
#11740
0"
#11760
1"
b0100011110 $
#11780
0"
#11800
1"
b0100011111 $
#11820
0"
#11840
1"
b0100100000 $
#11860
0"
#11880
1"
b0100100001 $
#11900
0"
#11920
1"
b0100100010 $
#11940
0"
#11960
1"
b0100100011 $
#11980
0"
#12000
1"
b0100100100 $
#12020
0"
#12040
1"
b0100100101 $
#12060
0"
#12080
1"
b0100100110 $
#12100
0"
#12120
1"
b0100100111 $
#12140
0"
#12160
1"
b0100101000 $
#12180
0"
#12200
1"
b0100101001 $
#12220
0"
#12240
1"
b0100101010 $
#12260
0"
#12280
1"
b0100101011 $
#12300
0"
#12320
1"
b0100101100 $
#12340
0"
#12360
1"
b0100101101 $
#12380
0"
#12400
1"
b0100101110 $
#12420
0"
#12440
1"
b0100101111 $
#12460
0"
#12480
1"
b0100110000 $
#12500
0"
#12520
1"
b0100110001 $
#12540
0"
#12560
1"
b0100110010 $
#12580
0"
#12600
1"
b0100110011 $
#12620
0"
#12640
1"
b0100110100 $
#12660
0"
#12680
1"
b0100110101 $
#12700
0"
#12720
1"
b0100110110 $
#12740
0"
#12760
1"
b0100110111 $
#12780
0"
#12800
1"
b0100111000 $
#12820
0"
#12840
1"
b0100111001 $
#12860
0"
#12880
1"
b0100111010 $
#12900
0"
#12920
1"
b0100111011 $
#12940
0"
#12960
1"
b0100111100 $
#12980
0"
#13000
1"
b0100111101 $
#13020
0"
#13040
1"
b0100111110 $
#13060
0"
#13080
1"
b0100111111 $
#13100
0"
#13120
1"
b0101000000 $
#13140
0"
#13160
1"
b0101000001 $
#13180
0"
#13200
1"
b0101000010 $
#13220
0"
#13240
1"
b0101000011 $
#13260
0"
#13280
1"
b0101000100 $
#13300
0"
#13320
1"
b0101000101 $
#13340
0"
#13360
1"
b0101000110 $
#13380
0"
#13400
1"
b0101000111 $
#13420
0"
#13440
1"
b0101001000 $
#13460
0"
#13480
1"
b0101001001 $
#13500
0"
#13520
1"
b0101001010 $
#13540
0"
#13560
1"
b0101001011 $
#13580
0"
#13600
1"
b0101001100 $
#13620
0"
#13640
1"
b0101001101 $
#13660
0"
#13680
1"
b0101001110 $
#13700
0"
#13720
1"
b0101001111 $
#13740
0"
#13760
1"
b0101010000 $
#13780
0"
#13800
1"
b0101010001 $
#13820
0"
#13840
1"
b0101010010 $
#13860
0"
#13880
1"
b0101010011 $
#13900
0"
#13920
1"
b0101010100 $
#13940
0"
#13960
1"
b0101010101 $
#13980
0"
#14000
1"
b0101010110 $
#14020
0"
#14040
1"
b0101010111 $
#14060
0"
#14080
1"
b0101011000 $
#14100
0"
#14120
1"
b0101011001 $
#14140
0"
#14160
1"
b0101011010 $
#14180
0"
#14200
1"
b0101011011 $
#14220
0"
#14240
1"
b0101011100 $
#14260
0"
#14280
1"
b0101011101 $
#14300
0"
#14320
1"
b0101011110 $
#14340
0"
#14360
1"
b0101011111 $
#14380
0"
#14400
1"
b0101100000 $
#14420
0"
#14440
1"
b0101100001 $
#14460
0"
#14480
1"
b0101100010 $
#14500
0"
#14520
1"
b0101100011 $
#14540
0"
#14560
1"
b0101100100 $
#14580
0"
#14600
1"
b0101100101 $
#14620
0"
#14640
1"
b0101100110 $
#14660
0"
#14680
1"
b0101100111 $
#14700
0"
#14720
1"
b0101101000 $
#14740
0"
#14760
1"
b0101101001 $
#14780
0"
#14800
1"
b0101101010 $
#14820
0"
#14840
1"
b0101101011 $
#14860
0"
#14880
1"
b0101101100 $
#14900
0"
#14920
1"
b0101101101 $
#14940
0"
#14960
1"
b0101101110 $
#14980
0"
#15000
1"
b0101101111 $
#15020
0"
#15040
1"
b0101110000 $
#15060
0"
#15080
1"
b0101110001 $
#15100
0"
#15120
1"
b0101110010 $
#15140
0"
#15160
1"
b0101110011 $
#15180
0"
#15200
1"
b0101110100 $
#15220
0"
#15240
1"
b0101110101 $
#15260
0"
#15280
1"
b0101110110 $
#15300
0"
#15320
1"
b0101110111 $
#15340
0"
#15360
1"
b0101111000 $
#15380
0"
#15400
1"
b0101111001 $
#15420
0"
#15440
1"
b0101111010 $
#15460
0"
#15480
1"
b0101111011 $
#15500
0"
#15520
1"
b0101111100 $
#15540
0"
#15560
1"
b0101111101 $
#15580
0"
#15600
1"
b0101111110 $
#15620
0"
#15640
1"
b0101111111 $
#15660
0"
#15680
1"
b0110000000 $
#15700
0"
#15720
1"
b0110000001 $
#15740
0"
#15760
1"
b0110000010 $
#15780
0"
#15800
1"
b0110000011 $
#15820
0"
#15840
1"
b0110000100 $
#15860
0"
#15880
1"
b0110000101 $
#15900
0"
#15920
1"
b0110000110 $
#15940
0"
#15960
1"
b0110000111 $
#15980
0"
#16000
1"
b0110001000 $
#16020
0"
#16040
1"
b0110001001 $
#16060
0"
#16080
1"
b0110001010 $
#16100
0"
#16120
1"
b0110001011 $
#16140
0"
#16160
1"
b0110001100 $
#16180
0"
#16200
1"
b0110001101 $
#16220
0"
#16240
1"
b0110001110 $
#16260
0"
#16280
1"
b0110001111 $
#16300
0"
#16320
1"
b0110010000 $
#16340
0"
#16360
1"
b0110010001 $
#16380
0"
#16400
1"
b0110010010 $
#16420
0"
#16440
1"
b0110010011 $
#16460
0"
#16480
1"
b0110010100 $
#16500
0"
#16520
1"
b0110010101 $
#16540
0"
#16560
1"
b0110010110 $
#16580
0"
#16600
1"
b0110010111 $
#16620
0"
#16640
1"
b0110011000 $
#16660
0"
#16680
1"
b0110011001 $
#16700
0"
#16720
1"
b0110011010 $
#16740
0"
#16760
1"
b0110011011 $
#16780
0"
#16800
1"
b0110011100 $
#16820
0"
#16840
1"
b0110011101 $
#16860
0"
#16880
1"
b0110011110 $
#16900
0"
#16920
1"
b0110011111 $
#16940
0"
#16960
1"
b0110100000 $
#16980
0"
#17000
1"
b0110100001 $
#17020
0"
#17040
1"
b0110100010 $
#17060
0"
#17080
1"
b0110100011 $
#17100
0"
#17120
1"
b0110100100 $
#17140
0"
#17160
1"
b0110100101 $
#17180
0"
#17200
1"
b0110100110 $
#17220
0"
#17240
1"
b0110100111 $
#17260
0"
#17280
1"
b0110101000 $
#17300
0"
#17320
1"
b0110101001 $
#17340
0"
#17360
1"
b0110101010 $
#17380
0"
#17400
1"
b0110101011 $
#17420
0"
#17440
1"
b0110101100 $
#17460
0"
#17480
1"
b0110101101 $
#17500
0"
#17520
1"
b0110101110 $
#17540
0"
#17560
1"
b0110101111 $
#17580
0"
#17600
1"
b0110110000 $
#17620
0"
#17640
1"
b0110110001 $
#17660
0"
#17680
1"
b0110110010 $
#17700
0"
#17720
1"
b0110110011 $
#17740
0"
#17760
1"
b0110110100 $
#17780
0"
#17800
1"
b0110110101 $
#17820
0"
#17840
1"
b0110110110 $
#17860
0"
#17880
1"
b0110110111 $
#17900
0"
#17920
1"
b0110111000 $
#17940
0"
#17960
1"
b0110111001 $
#17980
0"
#18000
1"
b0110111010 $
#18020
0"
#18040
1"
b0110111011 $
#18060
0"
#18080
1"
b0110111100 $
#18100
0"
#18120
1"
b0110111101 $
#18140
0"
#18160
1"
b0110111110 $
#18180
0"
#18200
1"
b0110111111 $
#18220
0"
#18240
1"
b0111000000 $
#18260
0"
#18280
1"
b0111000001 $
#18300
0"
#18320
1"
b0111000010 $
#18340
0"
#18360
1"
b0111000011 $
#18380
0"
#18400
1"
b0111000100 $
#18420
0"
#18440
1"
b0111000101 $
#18460
0"
#18480
1"
b0111000110 $
#18500
0"
#18520
1"
b0111000111 $
#18540
0"
#18560
1"
b0111001000 $
#18580
0"
#18600
1"
b0111001001 $
#18620
0"
#18640
1"
b0111001010 $
#18660
0"
#18680
1"
b0111001011 $
#18700
0"
#18720
1"
b0111001100 $
#18740
0"
#18760
1"
b0111001101 $
#18780
0"
#18800
1"
b0111001110 $
#18820
0"
#18840
1"
b0111001111 $
#18860
0"
#18880
1"
b0111010000 $
#18900
0"
#18920
1"
b0111010001 $
#18940
0"
#18960
1"
b0111010010 $
#18980
0"
#19000
1"
b0111010011 $
#19020
0"
#19040
1"
b0111010100 $
#19060
0"
#19080
1"
b0111010101 $
#19100
0"
#19120
1"
b0111010110 $
#19140
0"
#19160
1"
b0111010111 $
#19180
0"
#19200
1"
b0111011000 $
#19220
0"
#19240
1"
b0111011001 $
#19260
0"
#19280
1"
b0111011010 $
#19300
0"
#19320
1"
b0111011011 $
#19340
0"
#19360
1"
b0111011100 $
#19380
0"
#19400
1"
b0111011101 $
#19420
0"
#19440
1"
b0111011110 $
#19460
0"
#19480
1"
b0111011111 $
#19500
0"
#19520
1"
b0111100000 $
#19540
0"
#19560
1"
b0111100001 $
#19580
0"
#19600
1"
b0111100010 $
#19620
0"
#19640
1"
b0111100011 $
#19660
0"
#19680
1"
b0111100100 $
#19700
0"
#19720
1"
b0111100101 $
#19740
0"
#19760
1"
b0111100110 $
#19780
0"
#19800
1"
b0111100111 $
#19820
0"
#19840
1"
b0111101000 $
#19860
0"
#19880
1"
b0111101001 $
#19900
0"
#19920
1"
b0111101010 $
#19940
0"
#19960
1"
b0111101011 $
#19980
0"
#20000
1"
b0111101100 $
#20020
0"
#20040
1"
b0111101101 $
#20060
0"
#20080
1"
b0111101110 $
#20100
0"
#20120
1"
b0111101111 $
#20140
0"
#20160
1"
b0111110000 $
#20180
0"
#20200
1"
b0111110001 $
#20220
0"
#20240
1"
b0111110010 $
#20260
0"
#20280
1"
b0111110011 $
#20300
0"
#20320
1"
b0111110100 $
#20340
0"
#20360
1"
b0111110101 $
#20380
0"
#20400
1"
b0111110110 $
#20420
0"
#20440
1"
b0111110111 $
#20460
0"
#20480
1"
b0111111000 $
#20500
0"
#20520
1"
b0111111001 $
#20540
0"
#20560
1"
b0111111010 $
#20580
0"
#20600
1"
b0111111011 $
#20620
0"
#20640
1"
b0111111100 $
#20660
0"
#20680
1"
b0111111101 $
#20700
0"
#20720
1"
b0111111110 $
#20740
0"
#20760
1"
b0111111111 $
#20780
0"
#20800
1"
b1000000000 $
#20820
0"
#20840
1"
b1000000001 $
#20860
0"
#20880
1"
b1000000010 $
#20900
0"
#20920
1"
b1000000011 $
#20940
0"
#20960
1"
b1000000100 $
#20980
0"
#21000
1"
b1000000101 $
#21020
0"
#21040
1"
b1000000110 $
#21060
0"
#21080
1"
b1000000111 $
#21100
0"
#21120
1"
b1000001000 $
#21140
0"
#21160
1"
b1000001001 $
#21180
0"
#21200
1"
b1000001010 $
#21220
0"
#21240
1"
b1000001011 $
#21260
0"
#21280
1"
b1000001100 $
#21300
0"
#21320
1"
b1000001101 $
#21340
0"
#21360
1"
b1000001110 $
#21380
0"
#21400
1"
b1000001111 $
#21420
0"
#21440
1"
b1000010000 $
#21460
0"
#21480
1"
b1000010001 $
#21500
0"
#21520
1"
b1000010010 $
#21540
0"
#21560
1"
b1000010011 $
#21580
0"
#21600
1"
b1000010100 $
#21620
0"
#21640
1"
b1000010101 $
#21660
0"
#21680
1"
b1000010110 $
#21700
0"
#21720
1"
b1000010111 $
#21740
0"
#21760
1"
b1000011000 $
#21780
0"
#21800
1"
b1000011001 $
#21820
0"
#21840
1"
b1000011010 $
#21860
0"
#21880
1"
b1000011011 $
#21900
0"
#21920
1"
b1000011100 $
#21940
0"
#21960
1"
b1000011101 $
#21980
0"
#22000
1"
b1000011110 $
#22020
0"
#22040
1"
b1000011111 $
#22060
0"
#22080
1"
b1000100000 $
#22100
0"
#22120
1"
b1000100001 $
#22140
0"
#22160
1"
b1000100010 $
#22180
0"
#22200
1"
b1000100011 $
#22220
0"
#22240
1"
b1000100100 $
#22260
0"
#22280
1"
b1000100101 $
#22300
0"
#22320
1"
b1000100110 $
#22340
0"
#22360
1"
b1000100111 $
#22380
0"
#22400
1"
b1000101000 $
#22420
0"
#22440
1"
b1000101001 $
#22460
0"
#22480
1"
b1000101010 $
#22500
0"
#22520
1"
b1000101011 $
#22540
0"
#22560
1"
b1000101100 $
#22580
0"
#22600
1"
b1000101101 $
#22620
0"
#22640
1"
b1000101110 $
#22660
0"
#22680
1"
b1000101111 $
#22700
0"
#22720
1"
b1000110000 $
#22740
0"
#22760
1"
b1000110001 $
#22780
0"
#22800
1"
b1000110010 $
#22820
0"
#22840
1"
b1000110011 $
#22860
0"
#22880
1"
b1000110100 $
#22900
0"
#22920
1"
b1000110101 $
#22940
0"
#22960
1"
b1000110110 $
#22980
0"
#23000
1"
b1000110111 $
#23020
0"
#23040
1"
b1000111000 $
#23060
0"
#23080
1"
b1000111001 $
#23100
0"
#23120
1"
b1000111010 $
#23140
0"
#23160
1"
b1000111011 $
#23180
0"
#23200
1"
b1000111100 $
#23220
0"
#23240
1"
b1000111101 $
#23260
0"
#23280
1"
b1000111110 $
#23300
0"
#23320
1"
b1000111111 $
#23340
0"
#23360
1"
b1001000000 $
#23380
0"
#23400
1"
b1001000001 $
#23420
0"
#23440
1"
b1001000010 $
#23460
0"
#23480
1"
b1001000011 $
#23500
0"
#23520
1"
b1001000100 $
#23540
0"
#23560
1"
b1001000101 $
#23580
0"
#23600
1"
b1001000110 $
#23620
0"
#23640
1"
b1001000111 $
#23660
0"
#23680
1"
b1001001000 $
#23700
0"
#23720
1"
b1001001001 $
#23740
0"
#23760
1"
b1001001010 $
#23780
0"
#23800
1"
b1001001011 $
#23820
0"
#23840
1"
b1001001100 $
#23860
0"
#23880
1"
b1001001101 $
#23900
0"
#23920
1"
b1001001110 $
#23940
0"
#23960
1"
b1001001111 $
#23980
0"
#24000
1"
b1001010000 $
#24020
0"
#24040
1"
b1001010001 $
#24060
0"
#24080
1"
b1001010010 $
#24100
0"
#24120
1"
b1001010011 $
#24140
0"
#24160
1"
b1001010100 $
#24180
0"
#24200
1"
b1001010101 $
#24220
0"
#24240
1"
b1001010110 $
#24260
0"
#24280
1"
b1001010111 $
#24300
0"
#24320
1"
b1001011000 $
#24340
0"
#24360
1"
b1001011001 $
#24380
0"
#24400
1"
b1001011010 $
#24420
0"
#24440
1"
b1001011011 $
#24460
0"
#24480
1"
b1001011100 $
#24500
0"
#24520
1"
b1001011101 $
#24540
0"
#24560
1"
b1001011110 $
#24580
0"
#24600
1"
b1001011111 $
#24620
0"
#24640
1"
b1001100000 $
#24660
0"
#24680
1"
b1001100001 $
#24700
0"
#24720
1"
b1001100010 $
#24740
0"
#24760
1"
b1001100011 $
#24780
0"
#24800
1"
b1001100100 $
#24820
0"
#24840
1"
b1001100101 $
#24860
0"
#24880
1"
b1001100110 $
#24900
0"
#24920
1"
b1001100111 $
#24940
0"
#24960
1"
b1001101000 $
#24980
0"
#25000
1"
b1001101001 $
#25020
0"
#25040
1"
b1001101010 $
#25060
0"
#25080
1"
b1001101011 $
#25100
0"
#25120
1"
b1001101100 $
#25140
0"
#25160
1"
b1001101101 $
#25180
0"
#25200
1"
b1001101110 $
#25220
0"
#25240
1"
b1001101111 $
#25260
0"
#25280
1"
b1001110000 $
#25300
0"
#25320
1"
b1001110001 $
#25340
0"
#25360
1"
b1001110010 $
#25380
0"
#25400
1"
b1001110011 $
#25420
0"
#25440
1"
b1001110100 $
#25460
0"
#25480
1"
b1001110101 $
#25500
0"
#25520
1"
b1001110110 $
#25540
0"
#25560
1"
b1001110111 $
#25580
0"
#25600
1"
b1001111000 $
#25620
0"
#25640
1"
b1001111001 $
#25660
0"
#25680
1"
b1001111010 $
#25700
0"
#25720
1"
b1001111011 $
#25740
0"
#25760
1"
b1001111100 $
#25780
0"
#25800
1"
b1001111101 $
#25820
0"
#25840
1"
b1001111110 $
#25860
0"
#25880
1"
b1001111111 $
#25900
0"
#25920
1"
b1010000000 $
#25940
0"
#25960
1"
b1010000001 $
#25980
0"
#26000
1"
b1010000010 $
#26020
0"
#26040
1"
b1010000011 $
#26060
0"
#26080
1"
b1010000100 $
#26100
0"
#26120
1"
b1010000101 $
#26140
0"
#26160
1"
b1010000110 $
#26180
0"
#26200
1"
b1010000111 $
#26220
0"
#26240
1"
b1010001000 $
#26260
0"
#26280
1"
b1010001001 $
#26300
0"
#26320
1"
b1010001010 $
#26340
0"
#26360
1"
b1010001011 $
#26380
0"
#26400
1"
b1010001100 $
#26420
0"
#26440
1"
b1010001101 $
#26460
0"
#26480
1"
b1010001110 $
#26500
0"
#26520
1"
b1010001111 $
#26540
0"
#26560
1"
b1010010000 $
#26580
0"
#26600
1"
b1010010001 $
#26620
0"
#26640
1"
b1010010010 $
#26660
0"
#26680
1"
b1010010011 $
#26700
0"
#26720
1"
b1010010100 $
#26740
0"
#26760
1"
b1010010101 $
#26780
0"
#26800
1"
b1010010110 $
#26820
0"
#26840
1"
b1010010111 $
#26860
0"
#26880
1"
b1010011000 $
#26900
0"
#26920
1"
b1010011001 $
#26940
0"
#26960
1"
b1010011010 $
#26980
0"
#27000
1"
b1010011011 $
