fpga/myhdl/ShiftRegister.vcd
$date
    Sun Jun 14 17:22:25 2015
$end
$version
    MyHDL 0.9.dev0
$end
$timescale
    1ns
$end

$scope module ShiftRegister $end
$var reg 3 ! incounter $end
$var reg 8 " pin $end
$var reg 1 # clk $end
$var reg 8 $ pout $end
$var reg 8 % datain $end
$var reg 3 & outcounter $end
$var reg 1 ' sout $end
$var reg 1 ( rst $end
$var reg 1 ) sin $end
$var reg 1 * dir $end
$var reg 1 + inbits(0) $end
$var reg 1 , inbits(1) $end
$var reg 1 - inbits(2) $end
$var reg 1 . inbits(3) $end
$var reg 1 / inbits(4) $end
$var reg 1 0 inbits(5) $end
$var reg 1 1 inbits(6) $end
$var reg 1 2 inbits(7) $end
$upscope $end

$enddefinitions $end
$dumpvars
b000 !
b00000000 "
1#
b10101010 $
b00000000 %
b000 &
0'
0(
0)
1*
0+
0,
0-
0.
0/
00
01
02
$end
1(
#20
0#
#40
1#
#60
0#
#80
1#
#100
0#
#120
1#
#140
0#
#160
1#
#180
0#
#200
1#
#220
0#
#240
1#
#260
0#
#280
1#
#300
0#
#320
1#
#340
0#
0(
#360
1#
b001 !
b001 &
#380
0#
#400
1#
b010 !
b010 &
1'
#420
0#
#440
1#
0'
b011 !
b011 &
#460
0#
#480
1#
b100 !
b100 &
1'
#500
0#
#520
1#
0'
b101 !
b101 &
#540
0#
#560
1#
b110 !
b110 &
1'
#580
0#
#600
1#
0'
b111 !
b111 &
#620
0#
#640
1#
b000 !
b000 &
1'
#660
0#
#680
1#
0'
b001 !
b001 &
#700
0#
#720
1#
b010 !
b010 &
1'
#740
0#
#760
1#
0'
b011 !
b011 &
#780
0#
#800
1#
b100 !
b100 &
1'
#820
0#
#840
1#
0'
b101 !
b101 &
#860
0#
#880
1#
b110 !
b110 &
1'
#900
0#
#920
1#
0'
b111 !
b111 &
#940
0#
#960
1#
b000 !
b000 &
1'
#980
0#
#1000
1#
0'
b001 !
b001 &
#1020
0#
#1040
1#
b010 !
b010 &
1'
#1060
0#
#1080
1#
0'
b011 !
b011 &
#1100
0#
#1120
1#
b100 !
b100 &
1'
#1140
0#
#1160
1#
0'
b101 !
b101 &
#1180
0#
#1200
1#
b110 !
b110 &
1'
#1220
0#
#1240
1#
0'
b111 !
b111 &
#1260
0#
#1280
1#
b000 !
b000 &
1'
#1300
0#
#1320
1#
0'
b001 !
b001 &
#1340
0#
#1360
1#
b010 !
b010 &
1'
#1380
0#
#1400
1#
0'
b011 !
b011 &
#1420
0#
#1440
1#
b100 !
b100 &
1'
#1460
0#
#1480
1#
0'
b101 !
b101 &
#1500
0#
#1520
1#
b110 !
b110 &
1'
#1540
0#
#1560
1#
0'
b111 !
b111 &
#1580
0#
#1600
1#
b000 !
b000 &
1'
#1620
0#
#1640
1#
0'
b001 !
b001 &
#1660
0#
#1680
1#
b010 !
b010 &
1'
#1700
0#
#1720
1#
0'
b011 !
b011 &
#1740
0#
#1760
1#
b100 !
b100 &
1'
#1780
0#
#1800
1#
0'
b101 !
b101 &
#1820
0#
#1840
1#
b110 !
b110 &
1'
#1860
0#
#1880
1#
0'
b111 !
b111 &
#1900
0#
#1920
1#
b000 !
b000 &
1'
#1940
0#
#1960
1#
0'
b001 !
b001 &
#1980
0#
#2000
1#
b010 !
b010 &
1'
#2020
0#
#2040
1#
0'
b011 !
b011 &
#2060
0#
#2080
1#
b100 !
b100 &
1'
#2100
0#
#2120
1#
0'
b101 !
b101 &
#2140
0#
#2160
1#
b110 !
b110 &
1'
#2180
0#
#2200
1#
0'
b111 !
b111 &
#2220
0#
#2240
1#
b000 !
b000 &
1'
#2260
0#
#2280
1#
0'
b001 !
b001 &
#2300
0#
#2320
1#
b010 !
b010 &
1'
#2340
0#
#2360
1#
0'
b011 !
b011 &
#2380
0#
#2400
1#
b100 !
b100 &
1'
#2420
0#
#2440
1#
0'
b101 !
b101 &
#2460
0#
#2480
1#
b110 !
b110 &
1'
#2500
0#
#2520
1#
0'
b111 !
b111 &
#2540
0#
#2560
1#
b000 !
b000 &
1'
#2580
0#
#2600
1#
0'
b001 !
b001 &
#2620
0#
#2640
1#
b010 !
b010 &
1'
#2660
0#
#2680
1#
0'
b011 !
b011 &
#2700
0#
#2720
1#
b100 !
b100 &
1'
#2740
0#
#2760
1#
0'
b101 !
b101 &
#2780
0#
#2800
1#
b110 !
b110 &
1'
#2820
0#
#2840
1#
0'
b111 !
b111 &
#2860
0#
#2880
1#
b000 !
b000 &
1'
#2900
0#
#2920
1#
0'
b001 !
b001 &
#2940
0#
#2960
1#
b010 !
b010 &
1'
#2980
0#
#3000
1#
0'
b011 !
b011 &
#3020
0#
#3040
1#
b100 !
b100 &
1'
#3060
0#
#3080
1#
0'
b101 !
b101 &
#3100
0#
#3120
1#
b110 !
b110 &
1'
#3140
0#
#3160
1#
0'
b111 !
b111 &
#3180
0#
#3200
1#
b000 !
b000 &
1'
#3220
0#
#3240
1#
0'
b001 !
b001 &
#3260
0#
#3280
1#
b010 !
b010 &
1'
#3300
0#
#3320
1#
0'
b011 !
b011 &
#3340
0#
#3360
1#
b100 !
b100 &
1'
#3380
0#
#3400
1#
0'
b101 !
b101 &
#3420
0#
#3440
1#
b110 !
b110 &
1'
#3460
0#
#3480
1#
0'
b111 !
b111 &
#3500
0#
#3520
1#
b000 !
b000 &
1'
#3540
0#
#3560
1#
0'
b001 !
b001 &
#3580
0#
#3600
1#
b010 !
b010 &
1'
#3620
0#
#3640
1#
0'
b011 !
b011 &
#3660
0#
#3680
1#
b100 !
b100 &
1'
#3700
0#
#3720
1#
0'
b101 !
b101 &
#3740
0#
#3760
1#
b110 !
b110 &
1'
#3780
0#
#3800
1#
0'
b111 !
b111 &
#3820
0#
#3840
1#
b000 !
b000 &
1'
#3860
0#
#3880
1#
0'
b001 !
b001 &
#3900
0#
#3920
1#
b010 !
b010 &
1'
#3940
0#
#3960
1#
0'
b011 !
b011 &
#3980
0#
#4000
1#
b100 !
b100 &
1'
#4020
0#
#4040
1#
0'
b101 !
b101 &
#4060
0#
#4080
1#
b110 !
b110 &
1'
#4100
0#
#4120
1#
0'
b111 !
b111 &
#4140
0#
#4160
1#
b000 !
b000 &
1'
#4180
0#
#4200
1#
0'
b001 !
b001 &
#4220
0#
#4240
1#
b010 !
b010 &
1'
#4260
0#
#4280
1#
0'
b011 !
b011 &
#4300
0#
#4320
1#
b100 !
b100 &
1'
#4340
0#
#4360
1#
0'
b101 !
b101 &
#4380
0#
#4400
1#
b110 !
b110 &
1'
#4420
0#
#4440
1#
0'
b111 !
b111 &
#4460
0#
#4480
1#
b000 !
b000 &
1'
#4500
0#
#4520
1#
0'
b001 !
b001 &
#4540
0#
#4560
1#
b010 !
b010 &
1'
#4580
0#
#4600
1#
0'
b011 !
b011 &
#4620
0#
#4640
1#
b100 !
b100 &
1'
#4660
0#
#4680
1#
0'
b101 !
b101 &
#4700
0#
#4720
1#
b110 !
b110 &
1'
#4740
0#
#4760
1#
0'
b111 !
b111 &
#4780
0#
#4800
1#
b000 !
b000 &
1'
#4820
0#
#4840
1#
0'
b001 !
b001 &
#4860
0#
#4880
1#
b010 !
b010 &
1'
#4900
0#
#4920
1#
0'
b011 !
b011 &
#4940
0#
#4960
1#
b100 !
b100 &
1'
#4980
0#
#5000
1#
0'
b101 !
b101 &
#5020
0#
#5040
1#
b110 !
b110 &
1'
#5060
0#
#5080
1#
0'
b111 !
b111 &
#5100
0#
#5120
1#
b000 !
b000 &
1'
#5140
0#
#5160
1#
0'
b001 !
b001 &
#5180
0#
#5200
1#
b010 !
b010 &
1'
#5220
0#
#5240
1#
0'
b011 !
b011 &
#5260
0#
#5280
1#
b100 !
b100 &
1'
#5300
0#
#5320
1#
0'
b101 !
b101 &
#5340
0#
#5360
1#
b110 !
b110 &
1'
#5380
0#
#5400
1#
0'
b111 !
b111 &
#5420
0#
#5440
1#
b000 !
b000 &
1'
#5460
0#
#5480
1#
0'
b001 !
b001 &
#5500
0#
#5520
1#
b010 !
b010 &
1'
#5540
0#
#5560
1#
0'
b011 !
b011 &
#5580
0#
#5600
1#
b100 !
b100 &
1'
#5620
0#
#5640
1#
0'
b101 !
b101 &
#5660
0#
#5680
1#
b110 !
b110 &
1'
#5700
0#
#5720
1#
0'
b111 !
b111 &
#5740
0#
#5760
1#
b000 !
b000 &
1'
#5780
0#
#5800
1#
0'
b001 !
b001 &
#5820
0#
#5840
1#
b010 !
b010 &
1'
#5860
0#
#5880
1#
0'
b011 !
b011 &
#5900
0#
#5920
1#
b100 !
b100 &
1'
#5940
0#
#5960
1#
0'
b101 !
b101 &
#5980
0#
#6000
1#
b110 !
b110 &
1'
#6020
0#
#6040
1#
0'
b111 !
b111 &
#6060
0#
#6080
1#
b000 !
b000 &
1'
#6100
0#
#6120
1#
0'
b001 !
b001 &
#6140
0#
#6160
1#
b010 !
b010 &
1'
#6180
0#
#6200
1#
0'
b011 !
b011 &
#6220
0#
#6240
1#
b100 !
b100 &
1'
#6260
0#
#6280
1#
0'
b101 !
b101 &
#6300
0#
#6320
1#
b110 !
b110 &
1'
#6340
0#
#6360
1#
0'
b111 !
b111 &
#6380
0#
#6400
1#
b000 !
b000 &
1'
#6420
0#
#6440
1#
0'
b001 !
b001 &
#6460
0#
#6480
1#
b010 !
b010 &
1'
#6500
0#
#6520
1#
0'
b011 !
b011 &
#6540
0#
#6560
1#
b100 !
b100 &
1'
#6580
0#
#6600
1#
0'
b101 !
b101 &
#6620
0#
#6640
1#
b110 !
b110 &
1'
#6660
0#
#6680
1#
0'
b111 !
b111 &
#6700
0#
#6720
1#
b000 !
b000 &
1'
#6740
0#
#6760
1#
0'
b001 !
b001 &
#6780
0#
#6800
1#
b010 !
b010 &
1'
#6820
0#
#6840
1#
0'
b011 !
b011 &
#6860
0#
#6880
1#
b100 !
b100 &
1'
#6900
0#
#6920
1#
0'
b101 !
b101 &
#6940
0#
#6960
1#
b110 !
b110 &
1'
#6980
0#
#7000
1#
0'
b111 !
b111 &
#7020
0#
#7040
1#
b000 !
b000 &
1'
#7060
0#
#7080
1#
0'
b001 !
b001 &
#7100
0#
#7120
1#
b010 !
b010 &
1'
#7140
0#
#7160
1#
0'
b011 !
b011 &
#7180
0#
#7200
1#
b100 !
b100 &
1'
#7220
0#
#7240
1#
0'
b101 !
b101 &
#7260
0#
#7280
1#
b110 !
b110 &
1'
#7300
0#
#7320
1#
0'
b111 !
b111 &
#7340
0#
#7360
1#
b000 !
b000 &
1'
#7380
0#
#7400
1#
0'
b001 !
b001 &
#7420
0#
#7440
1#
b010 !
b010 &
1'
#7460
0#
#7480
1#
0'
b011 !
b011 &
#7500
0#
#7520
1#
b100 !
b100 &
1'
#7540
0#
#7560
1#
0'
b101 !
b101 &
#7580
0#
#7600
1#
b110 !
b110 &
1'
#7620
0#
#7640
1#
0'
b111 !
b111 &
#7660
0#
#7680
1#
b000 !
b000 &
1'
#7700
0#
#7720
1#
0'
b001 !
b001 &
#7740
0#
#7760
1#
b010 !
b010 &
1'
#7780
0#
#7800
1#
0'
b011 !
b011 &
#7820
0#
#7840
1#
b100 !
b100 &
1'
#7860
0#
#7880
1#
0'
b101 !
b101 &
#7900
0#
#7920
1#
b110 !
b110 &
1'
#7940
0#
#7960
1#
0'
b111 !
b111 &
#7980
0#
#8000
1#
b000 !
b000 &
1'
#8020
0#
#8040
1#
0'
b001 !
b001 &
#8060
0#
#8080
1#
b010 !
b010 &
1'
#8100
0#
#8120
1#
0'
b011 !
b011 &
#8140
0#
#8160
1#
b100 !
b100 &
1'
#8180
0#
#8200
1#
0'
b101 !
b101 &
#8220
0#
#8240
1#
b110 !
b110 &
1'
#8260
0#
#8280
1#
0'
b111 !
b111 &
#8300
0#
#8320
1#
b000 !
b000 &
1'
#8340
0#
#8360
1#
0'
b001 !
b001 &
#8380
0#
#8400
1#
b010 !
b010 &
1'
#8420
0#
#8440
1#
0'
b011 !
b011 &
#8460
0#
#8480
1#
b100 !
b100 &
1'
#8500
0#
#8520
1#
0'
b101 !
b101 &
#8540
0#
#8560
1#
b110 !
b110 &
1'
#8580
0#
#8600
1#
0'
b111 !
b111 &
#8620
0#
#8640
1#
b000 !
b000 &
1'
#8660
0#
#8680
1#
0'
b001 !
b001 &
#8700
0#
#8720
1#
b010 !
b010 &
1'
#8740
0#
#8760
1#
0'
b011 !
b011 &
#8780
0#
#8800
1#
b100 !
b100 &
1'
#8820
0#
#8840
1#
0'
b101 !
b101 &
#8860
0#
#8880
1#
b110 !
b110 &
1'
#8900
0#
#8920
1#
0'
b111 !
b111 &
#8940
0#
#8960
1#
b000 !
b000 &
1'
#8980
0#
#9000
1#
0'
b001 !
b001 &
#9020
0#
#9040
1#
b010 !
b010 &
1'
#9060
0#
#9080
1#
0'
b011 !
b011 &
#9100
0#
#9120
1#
b100 !
b100 &
1'
#9140
0#
#9160
1#
0'
b101 !
b101 &
#9180
0#
#9200
1#
b110 !
b110 &
1'
#9220
0#
#9240
1#
0'
b111 !
b111 &
#9260
0#
#9280
1#
b000 !
b000 &
1'
#9300
0#
#9320
1#
0'
b001 !
b001 &
#9340
0#
#9360
1#
b010 !
b010 &
1'
#9380
0#
#9400
1#
0'
b011 !
b011 &
#9420
0#
#9440
1#
b100 !
b100 &
1'
#9460
0#
#9480
1#
0'
b101 !
b101 &
#9500
0#
#9520
1#
b110 !
b110 &
1'
#9540
0#
#9560
1#
0'
b111 !
b111 &
#9580
0#
#9600
1#
b000 !
b000 &
1'
#9620
0#
#9640
1#
0'
b001 !
b001 &
#9660
0#
#9680
1#
b010 !
b010 &
1'
#9700
0#
#9720
1#
0'
b011 !
b011 &
#9740
0#
#9760
1#
b100 !
b100 &
1'
#9780
0#
#9800
1#
0'
b101 !
b101 &
#9820
0#
#9840
1#
b110 !
b110 &
1'
#9860
0#
#9880
1#
0'
b111 !
b111 &
#9900
0#
#9920
1#
b000 !
b000 &
1'
#9940
0#
#9960
1#
0'
b001 !
b001 &
#9980
0#
#10000
1#
b010 !
b010 &
1'
#10020
0#
#10040
1#
0'
b011 !
b011 &
#10060
0#
#10080
1#
b100 !
b100 &
1'
#10100
0#
#10120
1#
0'
b101 !
b101 &
#10140
0#
#10160
1#
b110 !
b110 &
1'
#10180
0#
#10200
1#
0'
b111 !
b111 &
#10220
0#
#10240
1#
b000 !
b000 &
1'
#10260
0#
#10280
1#
0'
b001 !
b001 &
#10300
0#
#10320
1#
b010 !
b010 &
1'
#10340
0#
#10360
1#
0'
b011 !
b011 &
#10380
0#
#10400
1#
b100 !
b100 &
1'
#10420
0#
#10440
1#
0'
b101 !
b101 &
#10460
0#
#10480
1#
b110 !
b110 &
1'
#10500
0#
#10520
1#
0'
b111 !
b111 &
#10540
0#
#10560
1#
b000 !
b000 &
1'
#10580
0#
#10600
1#
0'
b001 !
b001 &
#10620
0#
#10640
1#
b010 !
b010 &
1'
#10660
0#
#10680
1#
0'
b011 !
b011 &
#10700
0#
#10720
1#
b100 !
b100 &
1'
#10740
0#
#10760
1#
0'
b101 !
b101 &
#10780
0#
#10800
1#
b110 !
b110 &
1'
#10820
0#
#10840
1#
0'
b111 !
b111 &
#10860
0#
#10880
1#
b000 !
b000 &
1'
#10900
0#
#10920
1#
0'
b001 !
b001 &
#10940
0#
#10960
1#
b010 !
b010 &
1'
#10980
0#
#11000
1#
0'
b011 !
b011 &
#11020
0#
#11040
1#
b100 !
b100 &
1'
#11060
0#
#11080
1#
0'
b101 !
b101 &
#11100
0#
#11120
1#
b110 !
b110 &
1'
#11140
0#
#11160
1#
0'
b111 !
b111 &
#11180
0#
#11200
1#
b000 !
b000 &
1'
#11220
0#
#11240
1#
0'
b001 !
b001 &
#11260
0#
#11280
1#
b010 !
b010 &
1'
#11300
0#
#11320
1#
0'
b011 !
b011 &
#11340
0#
#11360
1#
b100 !
b100 &
1'
#11380
0#
#11400
1#
0'
b101 !
b101 &
#11420
0#
#11440
1#
b110 !
b110 &
1'
#11460
0#
#11480
1#
0'
b111 !
b111 &
#11500
0#
#11520
1#
b000 !
b000 &
1'
#11540
0#
#11560
1#
0'
b001 !
b001 &
#11580
0#
#11600
1#
b010 !
b010 &
1'
#11620
0#
#11640
1#
0'
b011 !
b011 &
#11660
0#
#11680
1#
b100 !
b100 &
1'
#11700
0#
#11720
1#
0'
b101 !
b101 &
#11740
0#
#11760
1#
b110 !
b110 &
1'
#11780
0#
#11800
1#
0'
b111 !
b111 &
#11820
0#
#11840
1#
b000 !
b000 &
1'
#11860
0#
#11880
1#
0'
b001 !
b001 &
#11900
0#
#11920
1#
b010 !
b010 &
1'
#11940
0#
#11960
1#
0'
b011 !
b011 &
#11980
0#
#12000
1#
b100 !
b100 &
1'
#12020
0#
#12040
1#
0'
b101 !
b101 &
#12060
0#
#12080
1#
b110 !
b110 &
1'
#12100
0#
#12120
1#
0'
b111 !
b111 &
#12140
0#
#12160
1#
b000 !
b000 &
1'
#12180
0#
#12200
1#
0'
b001 !
b001 &
#12220
0#
#12240
1#
b010 !
b010 &
1'
#12260
0#
#12280
1#
0'
b011 !
b011 &
#12300
0#
#12320
1#
b100 !
b100 &
1'
#12340
0#
#12360
1#
0'
b101 !
b101 &
#12380
0#
#12400
1#
b110 !
b110 &
1'
#12420
0#
#12440
1#
0'
b111 !
b111 &
#12460
0#
#12480
1#
b000 !
b000 &
1'
#12500
0#
#12520
1#
0'
b001 !
b001 &
#12540
0#
#12560
1#
b010 !
b010 &
1'
#12580
0#
#12600
1#
0'
b011 !
b011 &
#12620
0#
#12640
1#
b100 !
b100 &
1'
#12660
0#
#12680
1#
0'
b101 !
b101 &
#12700
0#
#12720
1#
b110 !
b110 &
1'
#12740
0#
#12760
1#
0'
b111 !
b111 &
#12780
0#
#12800
1#
b000 !
b000 &
1'
#12820
0#
#12840
1#
0'
b001 !
b001 &
#12860
0#
#12880
1#
b010 !
b010 &
1'
#12900
0#
#12920
1#
0'
b011 !
b011 &
#12940
0#
#12960
1#
b100 !
b100 &
1'
#12980
0#
#13000
1#
0'
b101 !
b101 &
#13020
0#
#13040
1#
b110 !
b110 &
1'
#13060
0#
#13080
1#
0'
b111 !
b111 &
#13100
0#
#13120
1#
b000 !
b000 &
1'
#13140
0#
#13160
1#
0'
b001 !
b001 &
#13180
0#
#13200
1#
b010 !
b010 &
1'
#13220
0#
#13240
1#
0'
b011 !
b011 &
#13260
0#
#13280
1#
b100 !
b100 &
1'
#13300
0#
#13320
1#
0'
b101 !
b101 &
#13340
0#
#13360
1#
b110 !
b110 &
1'
#13380
0#
#13400
1#
0'
b111 !
b111 &
#13420
0#
#13440
1#
b000 !
b000 &
1'
#13460
0#
#13480
1#
0'
b001 !
b001 &
#13500
0#
#13520
1#
b010 !
b010 &
1'
#13540
0#
#13560
1#
0'
b011 !
b011 &
#13580
0#
#13600
1#
b100 !
b100 &
1'
#13620
0#
#13640
1#
0'
b101 !
b101 &
#13660
0#
#13680
1#
b110 !
b110 &
1'
#13700
0#
#13720
1#
0'
b111 !
b111 &
#13740
0#
#13760
1#
b000 !
b000 &
1'
#13780
0#
#13800
1#
0'
b001 !
b001 &
#13820
0#
#13840
1#
b010 !
b010 &
1'
#13860
0#
#13880
1#
0'
b011 !
b011 &
#13900
0#
#13920
1#
b100 !
b100 &
1'
#13940
0#
#13960
1#
0'
b101 !
b101 &
#13980
0#
#14000
1#
b110 !
b110 &
1'
#14020
0#
#14040
1#
0'
b111 !
b111 &
#14060
0#
#14080
1#
b000 !
b000 &
1'
#14100
0#
#14120
1#
0'
b001 !
b001 &
#14140
0#
#14160
1#
b010 !
b010 &
1'
#14180
0#
#14200
1#
0'
b011 !
b011 &
#14220
0#
#14240
1#
b100 !
b100 &
1'
#14260
0#
#14280
1#
0'
b101 !
b101 &
#14300
0#
#14320
1#
b110 !
b110 &
1'
#14340
0#
#14360
1#
0'
b111 !
b111 &
#14380
0#
#14400
1#
b000 !
b000 &
1'
#14420
0#
#14440
1#
0'
b001 !
b001 &
#14460
0#
#14480
1#
b010 !
b010 &
1'
#14500
0#
#14520
1#
0'
b011 !
b011 &
#14540
0#
#14560
1#
b100 !
b100 &
1'
#14580
0#
#14600
1#
0'
b101 !
b101 &
#14620
0#
#14640
1#
b110 !
b110 &
1'
#14660
0#
#14680
1#
0'
b111 !
b111 &
#14700
0#
#14720
1#
b000 !
b000 &
1'
#14740
0#
#14760
1#
0'
b001 !
b001 &
#14780
0#
#14800
1#
b010 !
b010 &
1'
#14820
0#
#14840
1#
0'
b011 !
b011 &
#14860
0#
#14880
1#
b100 !
b100 &
1'
#14900
0#
#14920
1#
0'
b101 !
b101 &
#14940
0#
#14960
1#
b110 !
b110 &
1'
#14980
0#
#15000
1#
0'
b111 !
b111 &
#15020
0#
#15040
1#
b000 !
b000 &
1'
#15060
0#
#15080
1#
0'
b001 !
b001 &
#15100
0#
#15120
1#
b010 !
b010 &
1'
#15140
0#
#15160
1#
0'
b011 !
b011 &
#15180
0#
#15200
1#
b100 !
b100 &
1'
#15220
0#
#15240
1#
0'
b101 !
b101 &
#15260
0#
#15280
1#
b110 !
b110 &
1'
#15300
0#
#15320
1#
0'
b111 !
b111 &
#15340
0#
#15360
1#
b000 !
b000 &
1'
#15380
0#
#15400
1#
0'
b001 !
b001 &
#15420
0#
#15440
1#
b010 !
b010 &
1'
#15460
0#
#15480
1#
0'
b011 !
b011 &
#15500
0#
#15520
1#
b100 !
b100 &
1'
#15540
0#
#15560
1#
0'
b101 !
b101 &
#15580
0#
#15600
1#
b110 !
b110 &
1'
#15620
0#
#15640
1#
0'
b111 !
b111 &
#15660
0#
#15680
1#
b000 !
b000 &
1'
#15700
0#
#15720
1#
0'
b001 !
b001 &
#15740
0#
#15760
1#
b010 !
b010 &
1'
#15780
0#
#15800
1#
0'
b011 !
b011 &
#15820
0#
#15840
1#
b100 !
b100 &
1'
#15860
0#
#15880
1#
0'
b101 !
b101 &
#15900
0#
#15920
1#
b110 !
b110 &
1'
#15940
0#
#15960
1#
0'
b111 !
b111 &
#15980
0#
#16000
1#
b000 !
b000 &
1'
#16020
0#
#16040
1#
0'
b001 !
b001 &
#16060
0#
#16080
1#
b010 !
b010 &
1'
#16100
0#
#16120
1#
0'
b011 !
b011 &
#16140
0#
#16160
1#
b100 !
b100 &
1'
#16180
0#
#16200
1#
0'
b101 !
b101 &
#16220
0#
#16240
1#
b110 !
b110 &
1'
#16260
0#
#16280
1#
0'
b111 !
b111 &
#16300
0#
#16320
1#
b000 !
b000 &
1'
#16340
0#
#16360
1#
0'
b001 !
b001 &
#16380
0#
#16400
1#
b010 !
b010 &
1'
#16420
0#
#16440
1#
0'
b011 !
b011 &
#16460
0#
#16480
1#
b100 !
b100 &
1'
#16500
0#
#16520
1#
0'
b101 !
b101 &
#16540
0#
#16560
1#
b110 !
b110 &
1'
#16580
0#
#16600
1#
0'
b111 !
b111 &
#16620
0#
#16640
1#
b000 !
b000 &
1'
#16660
0#
#16680
1#
0'
b001 !
b001 &
#16700
0#
#16720
1#
b010 !
b010 &
1'
#16740
0#
#16760
1#
0'
b011 !
b011 &
#16780
0#
#16800
1#
b100 !
b100 &
1'
#16820
0#
#16840
1#
0'
b101 !
b101 &
#16860
0#
#16880
1#
b110 !
b110 &
1'
#16900
0#
#16920
1#
0'
b111 !
b111 &
#16940
0#
#16960
1#
b000 !
b000 &
1'
#16980
0#
#17000
1#
0'
b001 !
b001 &
#17020
0#
#17040
1#
b010 !
b010 &
1'
#17060
0#
#17080
1#
0'
b011 !
b011 &
#17100
0#
#17120
1#
b100 !
b100 &
1'
#17140
0#
#17160
1#
0'
b101 !
b101 &
#17180
0#
#17200
1#
b110 !
b110 &
1'
#17220
0#
#17240
1#
0'
b111 !
b111 &
#17260
0#
#17280
1#
b000 !
b000 &
1'
#17300
0#
#17320
1#
0'
b001 !
b001 &
#17340
0#
#17360
1#
b010 !
b010 &
1'
#17380
0#
#17400
1#
0'
b011 !
b011 &
#17420
0#
#17440
1#
b100 !
b100 &
1'
#17460
0#
#17480
1#
0'
b101 !
b101 &
#17500
0#
#17520
1#
b110 !
b110 &
1'
#17540
0#
#17560
1#
0'
b111 !
b111 &
#17580
0#
#17600
1#
b000 !
b000 &
1'
#17620
0#
#17640
1#
0'
b001 !
b001 &
#17660
0#
#17680
1#
b010 !
b010 &
1'
#17700
0#
#17720
1#
0'
b011 !
b011 &
#17740
0#
#17760
1#
b100 !
b100 &
1'
#17780
0#
#17800
1#
0'
b101 !
b101 &
#17820
0#
#17840
1#
b110 !
b110 &
1'
#17860
0#
#17880
1#
0'
b111 !
b111 &
#17900
0#
#17920
1#
b000 !
b000 &
1'
#17940
0#
#17960
1#
0'
b001 !
b001 &
#17980
0#
#18000
1#
b010 !
b010 &
1'
#18020
0#
#18040
1#
0'
b011 !
b011 &
#18060
0#
#18080
1#
b100 !
b100 &
1'
#18100
0#
#18120
1#
0'
b101 !
b101 &
#18140
0#
#18160
1#
b110 !
b110 &
1'
#18180
0#
#18200
1#
0'
b111 !
b111 &
#18220
0#
#18240
1#
b000 !
b000 &
1'
#18260
0#
#18280
1#
0'
b001 !
b001 &
#18300
0#
#18320
1#
b010 !
b010 &
1'
#18340
0#
#18360
1#
0'
b011 !
b011 &
#18380
0#
#18400
1#
b100 !
b100 &
1'
#18420
0#
#18440
1#
0'
b101 !
b101 &
#18460
0#
#18480
1#
b110 !
b110 &
1'
#18500
0#
#18520
1#
0'
b111 !
b111 &
#18540
0#
#18560
1#
b000 !
b000 &
1'
#18580
0#
#18600
1#
0'
b001 !
b001 &
#18620
0#
#18640
1#
b010 !
b010 &
1'
#18660
0#
#18680
1#
0'
b011 !
b011 &
#18700
0#
#18720
1#
b100 !
b100 &
1'
#18740
0#
#18760
1#
0'
b101 !
b101 &
#18780
0#
#18800
1#
b110 !
b110 &
1'
#18820
0#
#18840
1#
0'
b111 !
b111 &
#18860
0#
#18880
1#
b000 !
b000 &
1'
#18900
0#
#18920
1#
0'
b001 !
b001 &
#18940
0#
#18960
1#
b010 !
b010 &
1'
#18980
0#
#19000
1#
0'
b011 !
b011 &
#19020
0#
#19040
1#
b100 !
b100 &
1'
#19060
0#
#19080
1#
0'
b101 !
b101 &
#19100
0#
#19120
1#
b110 !
b110 &
1'
#19140
0#
#19160
1#
0'
b111 !
b111 &
#19180
0#
#19200
1#
b000 !
b000 &
1'
#19220
0#
#19240
1#
0'
b001 !
b001 &
#19260
0#
#19280
1#
b010 !
b010 &
1'
#19300
0#
#19320
1#
0'
b011 !
b011 &
#19340
0#
#19360
1#
b100 !
b100 &
1'
#19380
0#
#19400
1#
0'
b101 !
b101 &
#19420
0#
#19440
1#
b110 !
b110 &
1'
#19460
0#
#19480
1#
0'
b111 !
b111 &
#19500
0#
#19520
1#
b000 !
b000 &
1'
#19540
0#
#19560
1#
0'
b001 !
b001 &
#19580
0#
#19600
1#
b010 !
b010 &
1'
#19620
0#
#19640
1#
0'
b011 !
b011 &
#19660
0#
#19680
1#
b100 !
b100 &
1'
#19700
0#
#19720
1#
0'
b101 !
b101 &
#19740
0#
#19760
1#
b110 !
b110 &
1'
#19780
0#
#19800
1#
0'
b111 !
b111 &
#19820
0#
#19840
1#
b000 !
b000 &
1'
#19860
0#
#19880
1#
0'
b001 !
b001 &
#19900
0#
#19920
1#
b010 !
b010 &
1'
#19940
0#
#19960
1#
0'
b011 !
b011 &
#19980
0#
#20000
1#
b100 !
b100 &
1'
#20020
0#
#20040
1#
0'
b101 !
b101 &
#20060
0#
#20080
1#
b110 !
b110 &
1'
#20100
0#
#20120
1#
0'
b111 !
b111 &
#20140
0#
#20160
1#
b000 !
b000 &
1'
#20180
0#
#20200
1#
0'
b001 !
b001 &
#20220
0#
#20240
1#
b010 !
b010 &
1'
#20260
0#
#20280
1#
0'
b011 !
b011 &
#20300
0#
#20320
1#
b100 !
b100 &
1'
#20340
0#
#20360
1#
0'
b101 !
b101 &
#20380
0#
#20400
1#
b110 !
b110 &
1'
#20420
0#
#20440
1#
0'
b111 !
b111 &
#20460
0#
#20480
1#
b000 !
b000 &
1'
#20500
0#
#20520
1#
0'
b001 !
b001 &
#20540
0#
#20560
1#
b010 !
b010 &
1'
#20580
0#
#20600
1#
0'
b011 !
b011 &
#20620
0#
#20640
1#
b100 !
b100 &
1'
#20660
0#
#20680
1#
0'
b101 !
b101 &
#20700
0#
#20720
1#
b110 !
b110 &
1'
#20740
0#
#20760
1#
0'
b111 !
b111 &
#20780
0#
#20800
1#
b000 !
b000 &
1'
#20820
0#
#20840
1#
0'
b001 !
b001 &
#20860
0#
#20880
1#
b010 !
b010 &
1'
#20900
0#
#20920
1#
0'
b011 !
b011 &
#20940
0#
#20960
1#
b100 !
b100 &
1'
#20980
0#
#21000
1#
0'
b101 !
b101 &
#21020
0#
#21040
1#
b110 !
b110 &
1'
#21060
0#
#21080
1#
0'
b111 !
b111 &
#21100
0#
#21120
1#
b000 !
b000 &
1'
#21140
0#
#21160
1#
0'
b001 !
b001 &
#21180
0#
#21200
1#
b010 !
b010 &
1'
#21220
0#
#21240
1#
0'
b011 !
b011 &
#21260
0#
#21280
1#
b100 !
b100 &
1'
#21300
0#
#21320
1#
0'
b101 !
b101 &
#21340
0#
#21360
1#
b110 !
b110 &
1'
#21380
0#
#21400
1#
0'
b111 !
b111 &
#21420
0#
#21440
1#
b000 !
b000 &
1'
#21460
0#
#21480
1#
0'
b001 !
b001 &
#21500
0#
#21520
1#
b010 !
b010 &
1'
#21540
0#
#21560
1#
0'
b011 !
b011 &
#21580
0#
#21600
1#
b100 !
b100 &
1'
#21620
0#
#21640
1#
0'
b101 !
b101 &
#21660
0#
#21680
1#
b110 !
b110 &
1'
#21700
0#
#21720
1#
0'
b111 !
b111 &
#21740
0#
