fpga/myhdl/SPIController.vcd
$date
    Sun Jun 14 01:09:06 2015
$end
$version
    MyHDL 0.9.dev0
$end
$timescale
    1ns
$end

$scope module SPIController $end
$var real 1 ! fillin $end
$var reg 1 " sck $end
$var reg 1 # pushcsin $end
$var reg 16 $ datain $end
$var reg 1 % notwe $end
$var reg 1 & fullin $end
$var real 1 ' fillout $end
$var reg 1 ( emptyin $end
$var reg 3 ) addrbits $end
$var reg 1 * clk $end
$var reg 1 + emptyout $end
$var reg 1 , scs $end
$var reg 1 - popcsout $end
$var reg 1 . fifocs $end
$var reg 1 / rst $end
$var reg 1 0 notoe $end
$var reg 23 1 addr $end
$var reg 1 2 notcs $end
$var reg 1 3 fullout $end
$var reg 3 4 transferbitcounter $end
$var real 1 5 transferstate $end
$var reg 1 6 si $end
$var reg 16 7 dataout $end
$var reg 1 8 so $end
$var reg 1 9 popout $end
$var reg 8 : transfercounter $end
$var reg 1 ; pushin $end
$scope module fifoin $end
$var reg 1 & full $end
$var reg 8 < outpointer $end
$var reg 1 . cspop $end
$var reg 16 $ datain $end
$var reg 8 = inpointer $end
$var reg 1 0 pop $end
$var reg 1 / rst $end
$var reg 16 7 dataout $end
$var reg 1 # cspush $end
$var reg 1 ; push $end
$var reg 1 ( empty $end
$var real 1 ! fill $end
$var reg 8 > mem(0) $end
$var reg 8 ? mem(1) $end
$var reg 8 @ mem(2) $end
$var reg 8 A mem(3) $end
$var reg 8 B mem(4) $end
$var reg 8 C mem(5) $end
$var reg 8 D mem(6) $end
$var reg 8 E mem(7) $end
$var reg 8 F mem(8) $end
$var reg 8 G mem(9) $end
$var reg 8 H mem(10) $end
$var reg 8 I mem(11) $end
$var reg 8 J mem(12) $end
$var reg 8 K mem(13) $end
$var reg 8 L mem(14) $end
$var reg 8 M mem(15) $end
$var reg 8 N mem(16) $end
$var reg 8 O mem(17) $end
$var reg 8 P mem(18) $end
$var reg 8 Q mem(19) $end
$var reg 8 R mem(20) $end
$var reg 8 S mem(21) $end
$var reg 8 T mem(22) $end
$var reg 8 U mem(23) $end
$var reg 8 V mem(24) $end
$var reg 8 W mem(25) $end
$var reg 8 X mem(26) $end
$var reg 8 Y mem(27) $end
$var reg 8 Z mem(28) $end
$var reg 8 [ mem(29) $end
$var reg 8 \ mem(30) $end
$var reg 8 ] mem(31) $end
$var reg 8 ^ mem(32) $end
$var reg 8 _ mem(33) $end
$var reg 8 ` mem(34) $end
$var reg 8 a mem(35) $end
$var reg 8 b mem(36) $end
$var reg 8 c mem(37) $end
$var reg 8 d mem(38) $end
$var reg 8 e mem(39) $end
$var reg 8 f mem(40) $end
$var reg 8 g mem(41) $end
$var reg 8 h mem(42) $end
$var reg 8 i mem(43) $end
$var reg 8 j mem(44) $end
$var reg 8 k mem(45) $end
$var reg 8 l mem(46) $end
$var reg 8 m mem(47) $end
$var reg 8 n mem(48) $end
$var reg 8 o mem(49) $end
$var reg 8 p mem(50) $end
$var reg 8 q mem(51) $end
$var reg 8 r mem(52) $end
$var reg 8 s mem(53) $end
$var reg 8 t mem(54) $end
$var reg 8 u mem(55) $end
$var reg 8 v mem(56) $end
$var reg 8 w mem(57) $end
$var reg 8 x mem(58) $end
$var reg 8 y mem(59) $end
$var reg 8 z mem(60) $end
$var reg 8 { mem(61) $end
$var reg 8 | mem(62) $end
$var reg 8 } mem(63) $end
$var reg 8 ~ mem(64) $end
$var reg 8 "! mem(65) $end
$var reg 8 "" mem(66) $end
$var reg 8 "# mem(67) $end
$var reg 8 "$ mem(68) $end
$var reg 8 "% mem(69) $end
$var reg 8 "& mem(70) $end
$var reg 8 "' mem(71) $end
$var reg 8 "( mem(72) $end
$var reg 8 ") mem(73) $end
$var reg 8 "* mem(74) $end
$var reg 8 "+ mem(75) $end
$var reg 8 ", mem(76) $end
$var reg 8 "- mem(77) $end
$var reg 8 ". mem(78) $end
$var reg 8 "/ mem(79) $end
$var reg 8 "0 mem(80) $end
$var reg 8 "1 mem(81) $end
$var reg 8 "2 mem(82) $end
$var reg 8 "3 mem(83) $end
$var reg 8 "4 mem(84) $end
$var reg 8 "5 mem(85) $end
$var reg 8 "6 mem(86) $end
$var reg 8 "7 mem(87) $end
$var reg 8 "8 mem(88) $end
$var reg 8 "9 mem(89) $end
$var reg 8 ": mem(90) $end
$var reg 8 "; mem(91) $end
$var reg 8 "< mem(92) $end
$var reg 8 "= mem(93) $end
$var reg 8 "> mem(94) $end
$var reg 8 "? mem(95) $end
$var reg 8 "@ mem(96) $end
$var reg 8 "A mem(97) $end
$var reg 8 "B mem(98) $end
$var reg 8 "C mem(99) $end
$var reg 8 "D mem(100) $end
$var reg 8 "E mem(101) $end
$var reg 8 "F mem(102) $end
$var reg 8 "G mem(103) $end
$var reg 8 "H mem(104) $end
$var reg 8 "I mem(105) $end
$var reg 8 "J mem(106) $end
$var reg 8 "K mem(107) $end
$var reg 8 "L mem(108) $end
$var reg 8 "M mem(109) $end
$var reg 8 "N mem(110) $end
$var reg 8 "O mem(111) $end
$var reg 8 "P mem(112) $end
$var reg 8 "Q mem(113) $end
$var reg 8 "R mem(114) $end
$var reg 8 "S mem(115) $end
$var reg 8 "T mem(116) $end
$var reg 8 "U mem(117) $end
$var reg 8 "V mem(118) $end
$var reg 8 "W mem(119) $end
$var reg 8 "X mem(120) $end
$var reg 8 "Y mem(121) $end
$var reg 8 "Z mem(122) $end
$var reg 8 "[ mem(123) $end
$var reg 8 "\ mem(124) $end
$var reg 8 "] mem(125) $end
$var reg 8 "^ mem(126) $end
$var reg 8 "_ mem(127) $end
$var reg 8 "` mem(128) $end
$var reg 8 "a mem(129) $end
$var reg 8 "b mem(130) $end
$var reg 8 "c mem(131) $end
$var reg 8 "d mem(132) $end
$var reg 8 "e mem(133) $end
$var reg 8 "f mem(134) $end
$var reg 8 "g mem(135) $end
$var reg 8 "h mem(136) $end
$var reg 8 "i mem(137) $end
$var reg 8 "j mem(138) $end
$var reg 8 "k mem(139) $end
$var reg 8 "l mem(140) $end
$var reg 8 "m mem(141) $end
$var reg 8 "n mem(142) $end
$var reg 8 "o mem(143) $end
$var reg 8 "p mem(144) $end
$var reg 8 "q mem(145) $end
$var reg 8 "r mem(146) $end
$var reg 8 "s mem(147) $end
$var reg 8 "t mem(148) $end
$var reg 8 "u mem(149) $end
$var reg 8 "v mem(150) $end
$var reg 8 "w mem(151) $end
$var reg 8 "x mem(152) $end
$var reg 8 "y mem(153) $end
$var reg 8 "z mem(154) $end
$var reg 8 "{ mem(155) $end
$var reg 8 "| mem(156) $end
$var reg 8 "} mem(157) $end
$var reg 8 "~ mem(158) $end
$var reg 8 #! mem(159) $end
$var reg 8 #" mem(160) $end
$var reg 8 ## mem(161) $end
$var reg 8 #$ mem(162) $end
$var reg 8 #% mem(163) $end
$var reg 8 #& mem(164) $end
$var reg 8 #' mem(165) $end
$var reg 8 #( mem(166) $end
$var reg 8 #) mem(167) $end
$var reg 8 #* mem(168) $end
$var reg 8 #+ mem(169) $end
$var reg 8 #, mem(170) $end
$var reg 8 #- mem(171) $end
$var reg 8 #. mem(172) $end
$var reg 8 #/ mem(173) $end
$var reg 8 #0 mem(174) $end
$var reg 8 #1 mem(175) $end
$var reg 8 #2 mem(176) $end
$var reg 8 #3 mem(177) $end
$var reg 8 #4 mem(178) $end
$var reg 8 #5 mem(179) $end
$var reg 8 #6 mem(180) $end
$var reg 8 #7 mem(181) $end
$var reg 8 #8 mem(182) $end
$var reg 8 #9 mem(183) $end
$var reg 8 #: mem(184) $end
$var reg 8 #; mem(185) $end
$var reg 8 #< mem(186) $end
$var reg 8 #= mem(187) $end
$var reg 8 #> mem(188) $end
$var reg 8 #? mem(189) $end
$var reg 8 #@ mem(190) $end
$var reg 8 #A mem(191) $end
$var reg 8 #B mem(192) $end
$var reg 8 #C mem(193) $end
$var reg 8 #D mem(194) $end
$var reg 8 #E mem(195) $end
$var reg 8 #F mem(196) $end
$var reg 8 #G mem(197) $end
$var reg 8 #H mem(198) $end
$var reg 8 #I mem(199) $end
$var reg 8 #J mem(200) $end
$var reg 8 #K mem(201) $end
$var reg 8 #L mem(202) $end
$var reg 8 #M mem(203) $end
$var reg 8 #N mem(204) $end
$var reg 8 #O mem(205) $end
$var reg 8 #P mem(206) $end
$var reg 8 #Q mem(207) $end
$var reg 8 #R mem(208) $end
$var reg 8 #S mem(209) $end
$var reg 8 #T mem(210) $end
$var reg 8 #U mem(211) $end
$var reg 8 #V mem(212) $end
$var reg 8 #W mem(213) $end
$var reg 8 #X mem(214) $end
$var reg 8 #Y mem(215) $end
$var reg 8 #Z mem(216) $end
$var reg 8 #[ mem(217) $end
$var reg 8 #\ mem(218) $end
$var reg 8 #] mem(219) $end
$var reg 8 #^ mem(220) $end
$var reg 8 #_ mem(221) $end
$var reg 8 #` mem(222) $end
$var reg 8 #a mem(223) $end
$var reg 8 #b mem(224) $end
$var reg 8 #c mem(225) $end
$var reg 8 #d mem(226) $end
$var reg 8 #e mem(227) $end
$var reg 8 #f mem(228) $end
$var reg 8 #g mem(229) $end
$var reg 8 #h mem(230) $end
$var reg 8 #i mem(231) $end
$var reg 8 #j mem(232) $end
$var reg 8 #k mem(233) $end
$var reg 8 #l mem(234) $end
$var reg 8 #m mem(235) $end
$var reg 8 #n mem(236) $end
$var reg 8 #o mem(237) $end
$var reg 8 #p mem(238) $end
$var reg 8 #q mem(239) $end
$var reg 8 #r mem(240) $end
$var reg 8 #s mem(241) $end
$var reg 8 #t mem(242) $end
$var reg 8 #u mem(243) $end
$var reg 8 #v mem(244) $end
$var reg 8 #w mem(245) $end
$var reg 8 #x mem(246) $end
$var reg 8 #y mem(247) $end
$var reg 8 #z mem(248) $end
$var reg 8 #{ mem(249) $end
$var reg 8 #| mem(250) $end
$var reg 8 #} mem(251) $end
$var reg 8 #~ mem(252) $end
$var reg 8 $! mem(253) $end
$var reg 8 $" mem(254) $end
$var reg 8 $# mem(255) $end
$upscope $end
$scope module fifoout $end
$var reg 1 3 full $end
$var reg 8 $$ outpointer $end
$var reg 1 - cspop $end
$var reg 16 $ datain $end
$var reg 8 $% inpointer $end
$var reg 1 9 pop $end
$var reg 1 / rst $end
$var reg 16 7 dataout $end
$var reg 1 . cspush $end
$var reg 1 % push $end
$var reg 1 + empty $end
$var real 1 ' fill $end
$var reg 8 $& mem(0) $end
$var reg 8 $' mem(1) $end
$var reg 8 $( mem(2) $end
$var reg 8 $) mem(3) $end
$var reg 8 $* mem(4) $end
$var reg 8 $+ mem(5) $end
$var reg 8 $, mem(6) $end
$var reg 8 $- mem(7) $end
$var reg 8 $. mem(8) $end
$var reg 8 $/ mem(9) $end
$var reg 8 $0 mem(10) $end
$var reg 8 $1 mem(11) $end
$var reg 8 $2 mem(12) $end
$var reg 8 $3 mem(13) $end
$var reg 8 $4 mem(14) $end
$var reg 8 $5 mem(15) $end
$var reg 8 $6 mem(16) $end
$var reg 8 $7 mem(17) $end
$var reg 8 $8 mem(18) $end
$var reg 8 $9 mem(19) $end
$var reg 8 $: mem(20) $end
$var reg 8 $; mem(21) $end
$var reg 8 $< mem(22) $end
$var reg 8 $= mem(23) $end
$var reg 8 $> mem(24) $end
$var reg 8 $? mem(25) $end
$var reg 8 $@ mem(26) $end
$var reg 8 $A mem(27) $end
$var reg 8 $B mem(28) $end
$var reg 8 $C mem(29) $end
$var reg 8 $D mem(30) $end
$var reg 8 $E mem(31) $end
$var reg 8 $F mem(32) $end
$var reg 8 $G mem(33) $end
$var reg 8 $H mem(34) $end
$var reg 8 $I mem(35) $end
$var reg 8 $J mem(36) $end
$var reg 8 $K mem(37) $end
$var reg 8 $L mem(38) $end
$var reg 8 $M mem(39) $end
$var reg 8 $N mem(40) $end
$var reg 8 $O mem(41) $end
$var reg 8 $P mem(42) $end
$var reg 8 $Q mem(43) $end
$var reg 8 $R mem(44) $end
$var reg 8 $S mem(45) $end
$var reg 8 $T mem(46) $end
$var reg 8 $U mem(47) $end
$var reg 8 $V mem(48) $end
$var reg 8 $W mem(49) $end
$var reg 8 $X mem(50) $end
$var reg 8 $Y mem(51) $end
$var reg 8 $Z mem(52) $end
$var reg 8 $[ mem(53) $end
$var reg 8 $\ mem(54) $end
$var reg 8 $] mem(55) $end
$var reg 8 $^ mem(56) $end
$var reg 8 $_ mem(57) $end
$var reg 8 $` mem(58) $end
$var reg 8 $a mem(59) $end
$var reg 8 $b mem(60) $end
$var reg 8 $c mem(61) $end
$var reg 8 $d mem(62) $end
$var reg 8 $e mem(63) $end
$var reg 8 $f mem(64) $end
$var reg 8 $g mem(65) $end
$var reg 8 $h mem(66) $end
$var reg 8 $i mem(67) $end
$var reg 8 $j mem(68) $end
$var reg 8 $k mem(69) $end
$var reg 8 $l mem(70) $end
$var reg 8 $m mem(71) $end
$var reg 8 $n mem(72) $end
$var reg 8 $o mem(73) $end
$var reg 8 $p mem(74) $end
$var reg 8 $q mem(75) $end
$var reg 8 $r mem(76) $end
$var reg 8 $s mem(77) $end
$var reg 8 $t mem(78) $end
$var reg 8 $u mem(79) $end
$var reg 8 $v mem(80) $end
$var reg 8 $w mem(81) $end
$var reg 8 $x mem(82) $end
$var reg 8 $y mem(83) $end
$var reg 8 $z mem(84) $end
$var reg 8 ${ mem(85) $end
$var reg 8 $| mem(86) $end
$var reg 8 $} mem(87) $end
$var reg 8 $~ mem(88) $end
$var reg 8 %! mem(89) $end
$var reg 8 %" mem(90) $end
$var reg 8 %# mem(91) $end
$var reg 8 %$ mem(92) $end
$var reg 8 %% mem(93) $end
$var reg 8 %& mem(94) $end
$var reg 8 %' mem(95) $end
$var reg 8 %( mem(96) $end
$var reg 8 %) mem(97) $end
$var reg 8 %* mem(98) $end
$var reg 8 %+ mem(99) $end
$var reg 8 %, mem(100) $end
$var reg 8 %- mem(101) $end
$var reg 8 %. mem(102) $end
$var reg 8 %/ mem(103) $end
$var reg 8 %0 mem(104) $end
$var reg 8 %1 mem(105) $end
$var reg 8 %2 mem(106) $end
$var reg 8 %3 mem(107) $end
$var reg 8 %4 mem(108) $end
$var reg 8 %5 mem(109) $end
$var reg 8 %6 mem(110) $end
$var reg 8 %7 mem(111) $end
$var reg 8 %8 mem(112) $end
$var reg 8 %9 mem(113) $end
$var reg 8 %: mem(114) $end
$var reg 8 %; mem(115) $end
$var reg 8 %< mem(116) $end
$var reg 8 %= mem(117) $end
$var reg 8 %> mem(118) $end
$var reg 8 %? mem(119) $end
$var reg 8 %@ mem(120) $end
$var reg 8 %A mem(121) $end
$var reg 8 %B mem(122) $end
$var reg 8 %C mem(123) $end
$var reg 8 %D mem(124) $end
$var reg 8 %E mem(125) $end
$var reg 8 %F mem(126) $end
$var reg 8 %G mem(127) $end
$var reg 8 %H mem(128) $end
$var reg 8 %I mem(129) $end
$var reg 8 %J mem(130) $end
$var reg 8 %K mem(131) $end
$var reg 8 %L mem(132) $end
$var reg 8 %M mem(133) $end
$var reg 8 %N mem(134) $end
$var reg 8 %O mem(135) $end
$var reg 8 %P mem(136) $end
$var reg 8 %Q mem(137) $end
$var reg 8 %R mem(138) $end
$var reg 8 %S mem(139) $end
$var reg 8 %T mem(140) $end
$var reg 8 %U mem(141) $end
$var reg 8 %V mem(142) $end
$var reg 8 %W mem(143) $end
$var reg 8 %X mem(144) $end
$var reg 8 %Y mem(145) $end
$var reg 8 %Z mem(146) $end
$var reg 8 %[ mem(147) $end
$var reg 8 %\ mem(148) $end
$var reg 8 %] mem(149) $end
$var reg 8 %^ mem(150) $end
$var reg 8 %_ mem(151) $end
$var reg 8 %` mem(152) $end
$var reg 8 %a mem(153) $end
$var reg 8 %b mem(154) $end
$var reg 8 %c mem(155) $end
$var reg 8 %d mem(156) $end
$var reg 8 %e mem(157) $end
$var reg 8 %f mem(158) $end
$var reg 8 %g mem(159) $end
$var reg 8 %h mem(160) $end
$var reg 8 %i mem(161) $end
$var reg 8 %j mem(162) $end
$var reg 8 %k mem(163) $end
$var reg 8 %l mem(164) $end
$var reg 8 %m mem(165) $end
$var reg 8 %n mem(166) $end
$var reg 8 %o mem(167) $end
$var reg 8 %p mem(168) $end
$var reg 8 %q mem(169) $end
$var reg 8 %r mem(170) $end
$var reg 8 %s mem(171) $end
$var reg 8 %t mem(172) $end
$var reg 8 %u mem(173) $end
$var reg 8 %v mem(174) $end
$var reg 8 %w mem(175) $end
$var reg 8 %x mem(176) $end
$var reg 8 %y mem(177) $end
$var reg 8 %z mem(178) $end
$var reg 8 %{ mem(179) $end
$var reg 8 %| mem(180) $end
$var reg 8 %} mem(181) $end
$var reg 8 %~ mem(182) $end
$var reg 8 &! mem(183) $end
$var reg 8 &" mem(184) $end
$var reg 8 &# mem(185) $end
$var reg 8 &$ mem(186) $end
$var reg 8 &% mem(187) $end
$var reg 8 && mem(188) $end
$var reg 8 &' mem(189) $end
$var reg 8 &( mem(190) $end
$var reg 8 &) mem(191) $end
$var reg 8 &* mem(192) $end
$var reg 8 &+ mem(193) $end
$var reg 8 &, mem(194) $end
$var reg 8 &- mem(195) $end
$var reg 8 &. mem(196) $end
$var reg 8 &/ mem(197) $end
$var reg 8 &0 mem(198) $end
$var reg 8 &1 mem(199) $end
$var reg 8 &2 mem(200) $end
$var reg 8 &3 mem(201) $end
$var reg 8 &4 mem(202) $end
$var reg 8 &5 mem(203) $end
$var reg 8 &6 mem(204) $end
$var reg 8 &7 mem(205) $end
$var reg 8 &8 mem(206) $end
$var reg 8 &9 mem(207) $end
$var reg 8 &: mem(208) $end
$var reg 8 &; mem(209) $end
$var reg 8 &< mem(210) $end
$var reg 8 &= mem(211) $end
$var reg 8 &> mem(212) $end
$var reg 8 &? mem(213) $end
$var reg 8 &@ mem(214) $end
$var reg 8 &A mem(215) $end
$var reg 8 &B mem(216) $end
$var reg 8 &C mem(217) $end
$var reg 8 &D mem(218) $end
$var reg 8 &E mem(219) $end
$var reg 8 &F mem(220) $end
$var reg 8 &G mem(221) $end
$var reg 8 &H mem(222) $end
$var reg 8 &I mem(223) $end
$var reg 8 &J mem(224) $end
$var reg 8 &K mem(225) $end
$var reg 8 &L mem(226) $end
$var reg 8 &M mem(227) $end
$var reg 8 &N mem(228) $end
$var reg 8 &O mem(229) $end
$var reg 8 &P mem(230) $end
$var reg 8 &Q mem(231) $end
$var reg 8 &R mem(232) $end
$var reg 8 &S mem(233) $end
$var reg 8 &T mem(234) $end
$var reg 8 &U mem(235) $end
$var reg 8 &V mem(236) $end
$var reg 8 &W mem(237) $end
$var reg 8 &X mem(238) $end
$var reg 8 &Y mem(239) $end
$var reg 8 &Z mem(240) $end
$var reg 8 &[ mem(241) $end
$var reg 8 &\ mem(242) $end
$var reg 8 &] mem(243) $end
$var reg 8 &^ mem(244) $end
$var reg 8 &_ mem(245) $end
$var reg 8 &` mem(246) $end
$var reg 8 &a mem(247) $end
$var reg 8 &b mem(248) $end
$var reg 8 &c mem(249) $end
$var reg 8 &d mem(250) $end
$var reg 8 &e mem(251) $end
$var reg 8 &f mem(252) $end
$var reg 8 &g mem(253) $end
$var reg 8 &h mem(254) $end
$var reg 8 &i mem(255) $end
$upscope $end
$upscope $end

$enddefinitions $end
$dumpvars
s0x0 !
1"
0#
b0000000000000000 $
1%
0&
s0x0 '
0(
b000 )
1*
0+
1,
1-
1.
0/
10
b00000000000000000000000 1
12
03
b000 4
sTRANSFER_IDLE 5
16
bzzzzzzzzzzzzzzzz 7
18
19
b00000000 :
1;
b00000000 <
b00000000 =
b00000000 >
b00000000 ?
b00000000 @
b00000000 A
b00000000 B
b00000000 C
b00000000 D
b00000000 E
b00000000 F
b00000000 G
b00000000 H
b00000000 I
b00000000 J
b00000000 K
b00000000 L
b00000000 M
b00000000 N
b00000000 O
b00000000 P
b00000000 Q
b00000000 R
b00000000 S
b00000000 T
b00000000 U
b00000000 V
b00000000 W
b00000000 X
b00000000 Y
b00000000 Z
b00000000 [
b00000000 \
b00000000 ]
b00000000 ^
b00000000 _
b00000000 `
b00000000 a
b00000000 b
b00000000 c
b00000000 d
b00000000 e
b00000000 f
b00000000 g
b00000000 h
b00000000 i
b00000000 j
b00000000 k
b00000000 l
b00000000 m
b00000000 n
b00000000 o
b00000000 p
b00000000 q
b00000000 r
b00000000 s
b00000000 t
b00000000 u
b00000000 v
b00000000 w
b00000000 x
b00000000 y
b00000000 z
b00000000 {
b00000000 |
b00000000 }
b00000000 ~
b00000000 "!
b00000000 ""
b00000000 "#
b00000000 "$
b00000000 "%
b00000000 "&
b00000000 "'
b00000000 "(
b00000000 ")
b00000000 "*
b00000000 "+
b00000000 ",
b00000000 "-
b00000000 ".
b00000000 "/
b00000000 "0
b00000000 "1
b00000000 "2
b00000000 "3
b00000000 "4
b00000000 "5
b00000000 "6
b00000000 "7
b00000000 "8
b00000000 "9
b00000000 ":
b00000000 ";
b00000000 "<
b00000000 "=
b00000000 ">
b00000000 "?
b00000000 "@
b00000000 "A
b00000000 "B
b00000000 "C
b00000000 "D
b00000000 "E
b00000000 "F
b00000000 "G
b00000000 "H
b00000000 "I
b00000000 "J
b00000000 "K
b00000000 "L
b00000000 "M
b00000000 "N
b00000000 "O
b00000000 "P
b00000000 "Q
b00000000 "R
b00000000 "S
b00000000 "T
b00000000 "U
b00000000 "V
b00000000 "W
b00000000 "X
b00000000 "Y
b00000000 "Z
b00000000 "[
b00000000 "\
b00000000 "]
b00000000 "^
b00000000 "_
b00000000 "`
b00000000 "a
b00000000 "b
b00000000 "c
b00000000 "d
b00000000 "e
b00000000 "f
b00000000 "g
b00000000 "h
b00000000 "i
b00000000 "j
b00000000 "k
b00000000 "l
b00000000 "m
b00000000 "n
b00000000 "o
b00000000 "p
b00000000 "q
b00000000 "r
b00000000 "s
b00000000 "t
b00000000 "u
b00000000 "v
b00000000 "w
b00000000 "x
b00000000 "y
b00000000 "z
b00000000 "{
b00000000 "|
b00000000 "}
b00000000 "~
b00000000 #!
b00000000 #"
b00000000 ##
b00000000 #$
b00000000 #%
b00000000 #&
b00000000 #'
b00000000 #(
b00000000 #)
b00000000 #*
b00000000 #+
b00000000 #,
b00000000 #-
b00000000 #.
b00000000 #/
b00000000 #0
b00000000 #1
b00000000 #2
b00000000 #3
b00000000 #4
b00000000 #5
b00000000 #6
b00000000 #7
b00000000 #8
b00000000 #9
b00000000 #:
b00000000 #;
b00000000 #<
b00000000 #=
b00000000 #>
b00000000 #?
b00000000 #@
b00000000 #A
b00000000 #B
b00000000 #C
b00000000 #D
b00000000 #E
b00000000 #F
b00000000 #G
b00000000 #H
b00000000 #I
b00000000 #J
b00000000 #K
b00000000 #L
b00000000 #M
b00000000 #N
b00000000 #O
b00000000 #P
b00000000 #Q
b00000000 #R
b00000000 #S
b00000000 #T
b00000000 #U
b00000000 #V
b00000000 #W
b00000000 #X
b00000000 #Y
b00000000 #Z
b00000000 #[
b00000000 #\
b00000000 #]
b00000000 #^
b00000000 #_
b00000000 #`
b00000000 #a
b00000000 #b
b00000000 #c
b00000000 #d
b00000000 #e
b00000000 #f
b00000000 #g
b00000000 #h
b00000000 #i
b00000000 #j
b00000000 #k
b00000000 #l
b00000000 #m
b00000000 #n
b00000000 #o
b00000000 #p
b00000000 #q
b00000000 #r
b00000000 #s
b00000000 #t
b00000000 #u
b00000000 #v
b00000000 #w
b00000000 #x
b00000000 #y
b00000000 #z
b00000000 #{
b00000000 #|
b00000000 #}
b00000000 #~
b00000000 $!
b00000000 $"
b00000000 $#
b00000000 $$
b00000000 $%
b00000000 $&
b00000000 $'
b00000000 $(
b00000000 $)
b00000000 $*
b00000000 $+
b00000000 $,
b00000000 $-
b00000000 $.
b00000000 $/
b00000000 $0
b00000000 $1
b00000000 $2
b00000000 $3
b00000000 $4
b00000000 $5
b00000000 $6
b00000000 $7
b00000000 $8
b00000000 $9
b00000000 $:
b00000000 $;
b00000000 $<
b00000000 $=
b00000000 $>
b00000000 $?
b00000000 $@
b00000000 $A
b00000000 $B
b00000000 $C
b00000000 $D
b00000000 $E
b00000000 $F
b00000000 $G
b00000000 $H
b00000000 $I
b00000000 $J
b00000000 $K
b00000000 $L
b00000000 $M
b00000000 $N
b00000000 $O
b00000000 $P
b00000000 $Q
b00000000 $R
b00000000 $S
b00000000 $T
b00000000 $U
b00000000 $V
b00000000 $W
b00000000 $X
b00000000 $Y
b00000000 $Z
b00000000 $[
b00000000 $\
b00000000 $]
b00000000 $^
b00000000 $_
b00000000 $`
b00000000 $a
b00000000 $b
b00000000 $c
b00000000 $d
b00000000 $e
b00000000 $f
b00000000 $g
b00000000 $h
b00000000 $i
b00000000 $j
b00000000 $k
b00000000 $l
b00000000 $m
b00000000 $n
b00000000 $o
b00000000 $p
b00000000 $q
b00000000 $r
b00000000 $s
b00000000 $t
b00000000 $u
b00000000 $v
b00000000 $w
b00000000 $x
b00000000 $y
b00000000 $z
b00000000 ${
b00000000 $|
b00000000 $}
b00000000 $~
b00000000 %!
b00000000 %"
b00000000 %#
b00000000 %$
b00000000 %%
b00000000 %&
b00000000 %'
b00000000 %(
b00000000 %)
b00000000 %*
b00000000 %+
b00000000 %,
b00000000 %-
b00000000 %.
b00000000 %/
b00000000 %0
b00000000 %1
b00000000 %2
b00000000 %3
b00000000 %4
b00000000 %5
b00000000 %6
b00000000 %7
b00000000 %8
b00000000 %9
b00000000 %:
b00000000 %;
b00000000 %<
b00000000 %=
b00000000 %>
b00000000 %?
b00000000 %@
b00000000 %A
b00000000 %B
b00000000 %C
b00000000 %D
b00000000 %E
b00000000 %F
b00000000 %G
b00000000 %H
b00000000 %I
b00000000 %J
b00000000 %K
b00000000 %L
b00000000 %M
b00000000 %N
b00000000 %O
b00000000 %P
b00000000 %Q
b00000000 %R
b00000000 %S
b00000000 %T
b00000000 %U
b00000000 %V
b00000000 %W
b00000000 %X
b00000000 %Y
b00000000 %Z
b00000000 %[
b00000000 %\
b00000000 %]
b00000000 %^
b00000000 %_
b00000000 %`
b00000000 %a
b00000000 %b
b00000000 %c
b00000000 %d
b00000000 %e
b00000000 %f
b00000000 %g
b00000000 %h
b00000000 %i
b00000000 %j
b00000000 %k
b00000000 %l
b00000000 %m
b00000000 %n
b00000000 %o
b00000000 %p
b00000000 %q
b00000000 %r
b00000000 %s
b00000000 %t
b00000000 %u
b00000000 %v
b00000000 %w
b00000000 %x
b00000000 %y
b00000000 %z
b00000000 %{
b00000000 %|
b00000000 %}
b00000000 %~
b00000000 &!
b00000000 &"
b00000000 &#
b00000000 &$
b00000000 &%
b00000000 &&
b00000000 &'
b00000000 &(
b00000000 &)
b00000000 &*
b00000000 &+
b00000000 &,
b00000000 &-
b00000000 &.
b00000000 &/
b00000000 &0
b00000000 &1
b00000000 &2
b00000000 &3
b00000000 &4
b00000000 &5
b00000000 &6
b00000000 &7
b00000000 &8
b00000000 &9
b00000000 &:
b00000000 &;
b00000000 &<
b00000000 &=
b00000000 &>
b00000000 &?
b00000000 &@
b00000000 &A
b00000000 &B
b00000000 &C
b00000000 &D
b00000000 &E
b00000000 &F
b00000000 &G
b00000000 &H
b00000000 &I
b00000000 &J
b00000000 &K
b00000000 &L
b00000000 &M
b00000000 &N
b00000000 &O
b00000000 &P
b00000000 &Q
b00000000 &R
b00000000 &S
b00000000 &T
b00000000 &U
b00000000 &V
b00000000 &W
b00000000 &X
b00000000 &Y
b00000000 &Z
b00000000 &[
b00000000 &\
b00000000 &]
b00000000 &^
b00000000 &_
b00000000 &`
b00000000 &a
b00000000 &b
b00000000 &c
b00000000 &d
b00000000 &e
b00000000 &f
b00000000 &g
b00000000 &h
b00000000 &i
$end
b0000000000000000 7
1+
1(
1/
#20
0*
#40
1*
#60
0*
#80
1*
#100
0*
#120
1*
#140
0*
#160
1*
#180
0*
#200
1*
#220
0*
#240
1*
#260
0*
#280
1*
#300
0*
#320
1*
#340
0*
0/
#360
1*
b00100000000000000000010 1
b1111111111111111 $
b010 )
bzzzzzzzzzzzzzzzz 7
#380
0*
#400
1*
02
#420
0*
#440
1*
0%
#460
0*
#480
1*
1%
b11111111 :
#500
0*
#520
1*
12
sTRANSFER_LOWERCS 5
#540
0*
#560
1*
0,
sTRANSFER_TRANSFER 5
#580
0*
#600
1*
b001 4
#620
0*
#640
1*
b010 4
#660
0*
#680
1*
b011 4
#700
0*
#720
1*
b100 4
#740
0*
#760
1*
b101 4
#780
0*
#800
1*
b110 4
#820
0*
#840
1*
b111 4
#860
0*
#880
1*
b11111110 :
b000 4
#900
0*
#920
1*
b001 4
#940
0*
#960
1*
b010 4
#980
0*
#1000
1*
b011 4
#1020
0*
#1040
1*
b100 4
#1060
0*
#1080
1*
b101 4
#1100
0*
#1120
1*
b110 4
#1140
0*
#1160
1*
b111 4
#1180
0*
#1200
1*
b11111101 :
b000 4
#1220
0*
#1240
1*
b001 4
#1260
0*
#1280
1*
b010 4
#1300
0*
#1320
1*
b011 4
#1340
0*
#1360
1*
b100 4
#1380
0*
#1400
1*
b101 4
#1420
0*
#1440
1*
b110 4
#1460
0*
#1480
1*
b111 4
#1500
0*
#1520
1*
b11111100 :
b000 4
#1540
0*
#1560
1*
b001 4
#1580
0*
#1600
1*
b010 4
#1620
0*
#1640
1*
b011 4
#1660
0*
#1680
1*
b100 4
#1700
0*
#1720
1*
b101 4
#1740
0*
#1760
1*
b110 4
#1780
0*
#1800
1*
b111 4
#1820
0*
#1840
1*
b11111011 :
b000 4
#1860
0*
#1880
1*
b001 4
#1900
0*
#1920
1*
b010 4
#1940
0*
#1960
1*
b011 4
#1980
0*
#2000
1*
b100 4
#2020
0*
#2040
1*
b101 4
#2060
0*
#2080
1*
b110 4
#2100
0*
#2120
1*
b111 4
#2140
0*
#2160
1*
b11111010 :
b000 4
#2180
0*
#2200
1*
b001 4
#2220
0*
#2240
1*
b010 4
#2260
0*
#2280
1*
b011 4
#2300
0*
