fpga/myhdl/Uart.vcd
$date
    Wed Jun 10 00:42:42 2015
$end
$version
    MyHDL 0.9.dev0
$end
$timescale
    1ns
$end

$scope module Uart $end
$var reg 1 ! txpop $end
$var reg 8 " upperbytein $end
$var reg 16 # datain $end
$var reg 3 $ rxbitcounter $end
$var reg 8 % txdataout $end
$var reg 3 & registeraddrbits $end
$var reg 16 ' intdataout $end
$var reg 1 ( txpopcs $end
$var reg 1 ) rxfull $end
$var reg 8 * clockscaler1 $end
$var reg 8 + fill $end
$var reg 1 , rxpushcs $end
$var real 1 - rxstate $end
$var reg 8 . rxdataout $end
$var reg 23 / addr $end
$var reg 1 0 tx $end
$var reg 1 1 clk $end
$var reg 4 2 rxfill $end
$var reg 1 3 rx $end
$var reg 1 4 rxempty $end
$var reg 8 5 clockscalercounter1 $end
$var reg 8 6 txdatain $end
$var reg 8 7 clockscalercounter2 $end
$var reg 1 8 baudclock $end
$var reg 8 9 config $end
$var reg 1 : readstrobe $end
$var reg 4 ; status $end
$var reg 1 < notcs $end
$var reg 1 = fifocs $end
$var reg 1 > rxpush $end
$var real 1 ? txstate $end
$var reg 4 @ rxcounter $end
$var reg 1 A notoe $end
$var reg 8 B rxdatain $end
$var reg 1 C reset $end
$var reg 1 D notwe $end
$var reg 1 E baudout $end
$var reg 8 F clockscaler2 $end
$var reg 1 G txfull $end
$var reg 3 H txbitcounter $end
$var reg 4 I txfill $end
$var reg 8 J upperbyteout $end
$var reg 16 K dataout $end
$var reg 1 L txempty $end
$var reg 4 M txcounter $end
$var reg 1 N rxdatainbits(0) $end
$var reg 1 O rxdatainbits(1) $end
$var reg 1 P rxdatainbits(2) $end
$var reg 1 Q rxdatainbits(3) $end
$var reg 1 R rxdatainbits(4) $end
$var reg 1 S rxdatainbits(5) $end
$var reg 1 T rxdatainbits(6) $end
$var reg 1 U rxdatainbits(7) $end
$scope module shim $end
$var reg 16 ' dataout $end
$var reg 8 V lowerbyteout $end
$var reg 16 # datain $end
$var reg 8 J byteout $end
$var reg 8 " bytein $end
$var reg 16 W intdataout $end
$upscope $end
$scope module txfifo $end
$var reg 1 G full $end
$var reg 4 X outpointer $end
$var reg 1 ( cspop $end
$var reg 8 6 datain $end
$var reg 4 Y inpointer $end
$var reg 1 ! pop $end
$var reg 1 C rst $end
$var reg 8 % dataout $end
$var reg 1 = cspush $end
$var reg 1 D push $end
$var reg 1 L empty $end
$var reg 4 I fill $end
$var reg 8 Z mem(0) $end
$var reg 8 [ mem(1) $end
$var reg 8 \ mem(2) $end
$var reg 8 ] mem(3) $end
$var reg 8 ^ mem(4) $end
$var reg 8 _ mem(5) $end
$var reg 8 ` mem(6) $end
$var reg 8 a mem(7) $end
$var reg 8 b mem(8) $end
$var reg 8 c mem(9) $end
$var reg 8 d mem(10) $end
$var reg 8 e mem(11) $end
$var reg 8 f mem(12) $end
$var reg 8 g mem(13) $end
$var reg 8 h mem(14) $end
$var reg 8 i mem(15) $end
$upscope $end
$scope module rxfifo $end
$var reg 1 ) full $end
$var reg 4 j outpointer $end
$var reg 1 = cspop $end
$var reg 8 B datain $end
$var reg 4 k inpointer $end
$var reg 1 : pop $end
$var reg 1 C rst $end
$var reg 8 . dataout $end
$var reg 1 , cspush $end
$var reg 1 > push $end
$var reg 1 4 empty $end
$var reg 4 2 fill $end
$var reg 8 l mem(0) $end
$var reg 8 m mem(1) $end
$var reg 8 n mem(2) $end
$var reg 8 o mem(3) $end
$var reg 8 p mem(4) $end
$var reg 8 q mem(5) $end
$var reg 8 r mem(6) $end
$var reg 8 s mem(7) $end
$var reg 8 t mem(8) $end
$var reg 8 u mem(9) $end
$var reg 8 v mem(10) $end
$var reg 8 w mem(11) $end
$var reg 8 x mem(12) $end
$var reg 8 y mem(13) $end
$var reg 8 z mem(14) $end
$var reg 8 { mem(15) $end
$upscope $end
$upscope $end

$enddefinitions $end
$dumpvars
1!
b00000000 "
b0000000000000000 #
b000 $
b00000000 %
b000 &
b0000000000000000 '
1(
0)
b00000000 *
b00000000 +
1,
sRXSTATE_IDLE -
b00000000 .
b00000000000000000000000 /
10
11
b0000 2
13
14
b00000000 5
b00000000 6
b00000000 7
18
b00000000 9
1:
b0101 ;
1<
1=
1>
sTXSTATE_IDLE ?
b0000 @
1A
b00000000 B
0C
1D
1E
b00000000 F
0G
b000 H
b0000 I
b00000000 J
bzzzzzzzzzzzzzzzz K
1L
b0000 M
0N
0O
0P
0Q
0R
0S
0T
0U
b00000000 V
b0000000000000000 W
b0000 X
b0000 Y
b00000000 Z
b00000000 [
b00000000 \
b00000000 ]
b00000000 ^
b00000000 _
b00000000 `
b00000000 a
b00000000 b
b00000000 c
b00000000 d
b00000000 e
b00000000 f
b00000000 g
b00000000 h
b00000000 i
b0000 j
b0000 k
b00000000 l
b00000000 m
b00000000 n
b00000000 o
b00000000 p
b00000000 q
b00000000 r
b00000000 s
b00000000 t
b00000000 u
b00000000 v
b00000000 w
b00000000 x
b00000000 y
b00000000 z
b00000000 {
$end
1C
#20
01
#40
11
#60
01
#80
11
#100
01
#120
11
#140
01
#160
11
#180
01
#200
11
#220
01
#240
11
#260
01
#280
11
#300
01
#320
11
#340
01
0C
#360
11
b00100000000000000000000 /
b1010101010101010 #
08
0E
b10101010 "
b10101010 6
#380
01
#400
11
0<
18
1E
0=
03
#420
01
#440
11
0D
08
0E
#460
01
#480
11
1D
18
0,
sRXSTATE_START -
1E
b10101010 Z
b0001 Y
b0001 I
0L
b10101010 %
b0100 ;
b00000001 +
#500
01
#520
11
1<
08
0E
1=
#540
01
#560
11
18
0(
sTXSTATE_START ?
0>
b0001 @
1E
#580
01
#600
11
08
0E
#620
01
#640
11
18
b0010 @
00
0!
b0001 M
1E
#660
01
#680
11
08
0E
#700
01
#720
11
18
b0010 M
b0011 @
1E
#740
01
#760
11
08
0E
#780
01
#800
11
18
b0100 @
b0011 M
1E
#820
01
#840
11
08
0E
#860
01
#880
11
18
b0100 M
b0101 @
1E
#900
01
#920
11
08
0E
#940
01
#960
11
18
b0110 @
b0101 M
1E
#980
01
#1000
11
08
0E
#1020
01
#1040
11
18
b0110 M
b0111 @
1E
#1060
01
#1080
11
08
0E
#1100
01
#1120
11
18
b1000 @
b0111 M
1E
#1140
01
#1160
11
08
0E
#1180
01
#1200
11
18
b1000 M
b1001 @
1E
#1220
01
#1240
11
08
0E
#1260
01
#1280
11
18
b1010 @
b1001 M
1E
#1300
01
#1320
11
08
0E
#1340
01
#1360
11
18
b1010 M
b1011 @
1E
#1380
01
#1400
11
08
0E
#1420
01
#1440
11
18
b1100 @
b1011 M
1E
#1460
01
#1480
11
08
0E
#1500
01
#1520
11
18
b1100 M
b1101 @
1E
#1540
01
#1560
11
08
0E
#1580
01
#1600
11
18
b1110 @
b1101 M
1E
#1620
01
#1640
11
08
0E
#1660
01
#1680
11
18
b1110 M
b1111 @
1E
13
#1700
01
#1720
11
08
0E
#1740
01
#1760
11
18
sRXSTATE_DATA -
b0000 @
b1111 M
1E
#1780
01
#1800
11
08
0E
#1820
01
#1840
11
18
sTXSTATE_DATA ?
b0000 M
b0001 @
1E
#1860
01
#1880
11
08
0E
#1900
01
#1920
11
18
b0010 @
b0001 M
1E
#1940
01
#1960
11
08
0E
#1980
01
#2000
11
18
b0010 M
b0011 @
1E
#2020
01
#2040
11
08
0E
#2060
01
#2080
11
18
b0100 @
b0011 M
1E
#2100
01
#2120
11
08
0E
#2140
01
#2160
11
18
b0100 M
b0101 @
1E
#2180
01
#2200
11
08
0E
#2220
01
#2240
11
18
b0110 @
b0101 M
1E
#2260
01
#2280
11
08
0E
#2300
01
#2320
11
18
b0110 M
b0111 @
1E
#2340
01
#2360
11
08
0E
#2380
01
#2400
11
18
b1000 @
b0111 M
1E
#2420
01
#2440
11
08
0E
#2460
01
#2480
11
18
b1000 M
1N
b1001 @
1E
b10000000 B
#2500
01
#2520
11
08
0E
#2540
01
#2560
11
18
b1010 @
b1001 M
1E
#2580
01
#2600
11
08
0E
#2620
01
#2640
11
18
b1010 M
b1011 @
1E
#2660
01
#2680
11
08
0E
#2700
01
#2720
11
18
b1100 @
b1011 M
1E
#2740
01
#2760
11
08
0E
#2780
01
#2800
11
18
b1100 M
b1101 @
1E
#2820
01
#2840
11
08
0E
#2860
01
#2880
11
18
b1110 @
b1101 M
1E
#2900
01
#2920
11
08
0E
#2940
01
#2960
11
18
b1110 M
b1111 @
1E
#2980
01
#3000
11
08
0E
#3020
01
#3040
11
18
b001 $
b0000 @
b1111 M
1E
#3060
01
#3080
11
08
0E
#3100
01
#3120
11
18
b001 H
b0000 M
b0001 @
1E
#3140
01
#3160
11
08
0E
#3180
01
#3200
11
18
b0010 @
10
b0001 M
1E
#3220
01
#3240
11
08
0E
#3260
01
#3280
11
18
b0010 M
b0011 @
1E
#3300
01
#3320
11
08
0E
#3340
01
#3360
11
18
b0100 @
b0011 M
1E
#3380
01
#3400
11
08
0E
#3420
01
#3440
11
18
b0100 M
b0101 @
1E
#3460
01
#3480
11
08
0E
#3500
01
#3520
11
18
b0110 @
b0101 M
1E
#3540
01
#3560
11
08
0E
#3580
01
#3600
11
18
b0110 M
b0111 @
1E
#3620
01
#3640
11
08
0E
#3660
01
#3680
11
18
b1000 @
b0111 M
1E
#3700
01
#3720
11
08
0E
#3740
01
#3760
11
18
b1000 M
1O
b1001 @
1E
b11000000 B
#3780
01
#3800
11
08
0E
#3820
01
#3840
11
18
b1010 @
b1001 M
1E
#3860
01
#3880
11
08
0E
#3900
01
#3920
11
18
b1010 M
b1011 @
1E
#3940
01
#3960
11
08
0E
#3980
01
#4000
11
18
b1100 @
b1011 M
1E
#4020
01
#4040
11
08
0E
#4060
01
#4080
11
18
b1100 M
b1101 @
1E
#4100
01
#4120
11
08
0E
#4140
01
#4160
11
18
b1110 @
b1101 M
1E
#4180
01
#4200
11
08
0E
#4220
01
#4240
11
18
b1110 M
b1111 @
1E
#4260
01
#4280
11
08
0E
#4300
01
#4320
11
18
b010 $
b0000 @
b1111 M
1E
#4340
01
#4360
11
08
0E
#4380
01
#4400
11
18
b010 H
b0000 M
b0001 @
1E
#4420
01
#4440
11
08
0E
#4460
01
#4480
11
18
b0010 @
00
b0001 M
1E
#4500
01
#4520
11
08
0E
#4540
01
#4560
11
18
b0010 M
b0011 @
1E
#4580
01
#4600
11
08
0E
#4620
01
#4640
11
18
b0100 @
b0011 M
1E
#4660
01
#4680
11
08
0E
#4700
01
#4720
11
18
b0100 M
b0101 @
1E
#4740
01
#4760
11
08
0E
#4780
01
#4800
11
18
b0110 @
b0101 M
1E
#4820
01
#4840
11
08
0E
#4860
01
#4880
11
18
b0110 M
b0111 @
1E
#4900
01
#4920
11
08
0E
#4940
01
#4960
11
18
b1000 @
b0111 M
1E
#4980
01
#5000
11
08
0E
#5020
01
#5040
11
18
b1000 M
1P
b1001 @
1E
b11100000 B
#5060
01
#5080
11
08
0E
#5100
01
#5120
11
18
b1010 @
b1001 M
1E
#5140
01
#5160
11
08
0E
#5180
01
#5200
11
18
b1010 M
b1011 @
1E
#5220
01
#5240
11
08
0E
#5260
01
#5280
11
18
b1100 @
b1011 M
1E
#5300
01
#5320
11
08
0E
#5340
01
#5360
11
18
b1100 M
b1101 @
1E
#5380
01
#5400
11
08
0E
#5420
01
#5440
11
18
b1110 @
b1101 M
1E
#5460
01
#5480
11
08
0E
#5500
01
#5520
11
18
b1110 M
b1111 @
1E
#5540
01
#5560
11
08
0E
#5580
01
#5600
11
18
b011 $
b0000 @
b1111 M
1E
#5620
01
#5640
11
08
0E
#5660
01
#5680
11
18
b011 H
b0000 M
b0001 @
1E
#5700
01
#5720
11
08
0E
#5740
01
#5760
11
18
b0010 @
10
b0001 M
1E
#5780
01
#5800
11
08
0E
#5820
01
#5840
11
18
b0010 M
b0011 @
1E
#5860
01
#5880
11
08
0E
#5900
01
#5920
11
18
b0100 @
b0011 M
1E
#5940
01
#5960
11
08
0E
#5980
01
#6000
11
18
b0100 M
b0101 @
1E
#6020
01
#6040
11
08
0E
#6060
01
#6080
11
18
b0110 @
b0101 M
1E
#6100
01
#6120
11
08
0E
#6140
01
#6160
11
18
b0110 M
b0111 @
1E
#6180
01
#6200
11
08
0E
#6220
01
#6240
11
18
b1000 @
b0111 M
1E
#6260
01
#6280
11
08
0E
#6300
01
#6320
11
18
b1000 M
1Q
b1001 @
1E
b11110000 B
#6340
01
#6360
11
08
0E
#6380
01
#6400
11
18
b1010 @
b1001 M
1E
#6420
01
#6440
11
08
0E
#6460
01
#6480
11
18
b1010 M
b1011 @
1E
#6500
01
#6520
11
08
0E
#6540
01
#6560
11
18
b1100 @
b1011 M
1E
#6580
01
#6600
11
08
0E
#6620
01
#6640
11
18
b1100 M
b1101 @
1E
#6660
01
#6680
11
08
0E
#6700
01
#6720
11
18
b1110 @
b1101 M
1E
#6740
01
#6760
11
08
0E
#6780
01
#6800
11
18
b1110 M
b1111 @
1E
#6820
01
#6840
11
08
0E
#6860
01
#6880
11
18
b100 $
b0000 @
b1111 M
1E
#6900
01
#6920
11
08
0E
#6940
01
#6960
11
18
b100 H
b0000 M
b0001 @
1E
#6980
01
#7000
11
08
0E
#7020
01
#7040
11
18
b0010 @
00
b0001 M
1E
#7060
01
#7080
11
08
0E
#7100
01
#7120
11
18
b0010 M
b0011 @
1E
#7140
01
#7160
11
08
0E
#7180
01
#7200
11
18
b0100 @
b0011 M
1E
#7220
01
#7240
11
08
0E
#7260
01
#7280
11
18
b0100 M
b0101 @
1E
#7300
01
#7320
11
08
0E
#7340
01
#7360
11
18
b0110 @
b0101 M
1E
#7380
01
#7400
11
08
0E
#7420
01
#7440
11
18
b0110 M
b0111 @
1E
#7460
01
#7480
11
08
0E
#7500
01
#7520
11
18
b1000 @
b0111 M
1E
#7540
01
#7560
11
08
0E
#7580
01
#7600
11
18
b1000 M
1R
b1001 @
1E
b11111000 B
#7620
01
#7640
11
08
0E
#7660
01
#7680
11
18
b1010 @
b1001 M
1E
#7700
01
#7720
11
08
0E
#7740
01
#7760
11
18
b1010 M
b1011 @
1E
#7780
01
#7800
11
08
0E
#7820
01
#7840
11
18
b1100 @
b1011 M
1E
#7860
01
#7880
11
08
0E
#7900
01
#7920
11
18
b1100 M
b1101 @
1E
#7940
01
#7960
11
08
0E
#7980
01
#8000
11
18
b1110 @
b1101 M
1E
#8020
01
#8040
11
08
0E
#8060
01
#8080
11
18
b1110 M
b1111 @
1E
#8100
01
#8120
11
08
0E
#8140
01
#8160
11
18
b101 $
b0000 @
b1111 M
1E
#8180
01
#8200
11
08
0E
#8220
01
#8240
11
18
b101 H
b0000 M
b0001 @
1E
#8260
01
#8280
11
08
0E
#8300
01
#8320
11
18
b0010 @
10
b0001 M
1E
#8340
01
#8360
11
08
0E
#8380
01
#8400
11
18
b0010 M
b0011 @
1E
#8420
01
#8440
11
08
0E
#8460
01
#8480
11
18
b0100 @
b0011 M
1E
#8500
01
#8520
11
08
0E
#8540
01
#8560
11
18
b0100 M
b0101 @
1E
#8580
01
#8600
11
08
0E
#8620
01
#8640
11
18
b0110 @
b0101 M
1E
#8660
01
#8680
11
08
0E
#8700
01
#8720
11
18
b0110 M
b0111 @
1E
#8740
01
#8760
11
08
0E
#8780
01
#8800
11
18
b1000 @
b0111 M
1E
#8820
01
#8840
11
08
0E
#8860
01
#8880
11
18
b1000 M
1S
b1001 @
1E
b11111100 B
#8900
01
#8920
11
08
0E
#8940
01
#8960
11
18
b1010 @
b1001 M
1E
#8980
01
#9000
11
08
0E
#9020
01
#9040
11
18
b1010 M
b1011 @
1E
#9060
01
#9080
11
08
0E
#9100
01
#9120
11
18
b1100 @
b1011 M
1E
#9140
01
#9160
11
08
0E
#9180
01
#9200
11
18
b1100 M
b1101 @
1E
#9220
01
#9240
11
08
0E
#9260
01
#9280
11
18
b1110 @
b1101 M
1E
#9300
01
#9320
11
08
0E
#9340
01
#9360
11
18
b1110 M
b1111 @
1E
#9380
01
#9400
11
08
0E
#9420
01
#9440
11
18
b110 $
b0000 @
b1111 M
1E
#9460
01
#9480
11
08
0E
#9500
01
#9520
11
18
b110 H
b0000 M
b0001 @
1E
#9540
01
#9560
11
08
0E
#9580
01
#9600
11
18
b0010 @
00
b0001 M
1E
#9620
01
#9640
11
08
0E
#9660
01
#9680
11
18
b0010 M
b0011 @
1E
#9700
01
#9720
11
08
0E
#9740
01
#9760
11
18
b0100 @
b0011 M
1E
#9780
01
#9800
11
08
0E
#9820
01
#9840
11
18
b0100 M
b0101 @
1E
#9860
01
#9880
11
08
0E
#9900
01
#9920
11
18
b0110 @
b0101 M
1E
#9940
01
#9960
11
08
0E
#9980
01
#10000
11
18
b0110 M
b0111 @
1E
#10020
01
#10040
11
08
0E
#10060
01
#10080
11
18
b1000 @
b0111 M
1E
#10100
01
#10120
11
08
0E
#10140
01
#10160
11
18
b1000 M
1T
b1001 @
1E
b11111110 B
#10180
01
#10200
11
08
0E
#10220
01
#10240
11
18
b1010 @
b1001 M
1E
#10260
01
#10280
11
08
0E
#10300
01
#10320
11
18
b1010 M
b1011 @
1E
#10340
01
#10360
11
08
0E
#10380
01
#10400
11
18
b1100 @
b1011 M
1E
#10420
01
#10440
11
08
0E
#10460
01
#10480
11
18
b1100 M
b1101 @
1E
#10500
01
#10520
11
08
0E
#10540
01
#10560
11
18
b1110 @
b1101 M
1E
#10580
01
#10600
11
08
0E
#10620
01
#10640
11
18
b1110 M
b1111 @
1E
#10660
01
#10680
11
08
0E
#10700
01
#10720
11
18
b111 $
b0000 @
b1111 M
1E
#10740
01
#10760
11
08
0E
#10780
01
#10800
11
18
b111 H
b0000 M
b0001 @
1E
#10820
01
#10840
11
08
0E
#10860
01
#10880
11
18
b0010 @
10
b0001 M
1E
#10900
01
#10920
11
08
0E
#10940
01
#10960
11
18
b0010 M
b0011 @
1E
#10980
01
#11000
11
08
0E
#11020
01
#11040
11
18
b0100 @
b0011 M
1E
#11060
01
#11080
11
08
0E
#11100
01
#11120
11
18
b0100 M
b0101 @
1E
#11140
01
#11160
11
08
0E
#11180
01
#11200
11
18
b0110 @
b0101 M
1E
#11220
01
#11240
11
08
0E
#11260
01
#11280
11
18
b0110 M
b0111 @
1E
#11300
01
#11320
11
08
0E
#11340
01
#11360
11
18
b1000 @
b0111 M
1E
#11380
01
#11400
11
08
0E
#11420
01
#11440
11
18
b1000 M
1U
b1001 @
1E
b11111111 B
#11460
01
#11480
11
08
0E
#11500
01
#11520
11
18
b1010 @
b1001 M
1E
#11540
01
#11560
11
08
0E
#11580
01
#11600
11
18
b1010 M
b1011 @
1E
#11620
01
#11640
11
08
0E
#11660
01
#11680
11
18
b1100 @
b1011 M
1E
#11700
01
#11720
11
08
0E
#11740
01
#11760
11
18
b1100 M
b1101 @
1E
#11780
01
#11800
11
08
0E
#11820
01
#11840
11
18
b1110 @
b1101 M
1E
#11860
01
#11880
11
08
0E
#11900
01
#11920
11
18
b1110 M
b1111 @
1E
#11940
01
#11960
11
08
0E
#11980
01
#12000
11
18
sRXSTATE_STOP -
b000 $
b0000 @
b1111 M
1E
#12020
01
#12040
11
08
0E
#12060
01
#12080
11
18
sTXSTATE_STOP ?
b000 H
b0000 M
1>
b0001 @
1E
b11111111 l
b0001 k
b0001 2
04
b11111111 .
b11111111 J
b0000 ;
b00010001 +
b1111111100000000 W
b1111111100000000 '
#12100
01
#12120
11
08
0E
#12140
01
#12160
11
18
b0010 @
1!
b0001 M
1E
b0001 X
b00000000 %
1L
b0000 I
b00010000 +
b0001 ;
#12180
01
#12200
11
08
0E
#12220
01
#12240
11
18
b0010 M
b0011 @
1E
#12260
01
#12280
11
08
0E
#12300
01
#12320
11
18
b0100 @
b0011 M
1E
#12340
01
#12360
11
08
0E
#12380
01
#12400
11
18
b0100 M
b0101 @
1E
#12420
01
#12440
11
08
0E
#12460
01
#12480
11
18
b0110 @
b0101 M
1E
#12500
01
#12520
11
08
0E
#12540
01
#12560
11
18
b0110 M
b0111 @
1E
#12580
01
#12600
11
08
0E
#12620
01
#12640
11
18
b1000 @
b0111 M
1E
#12660
01
#12680
11
08
0E
#12700
01
#12720
11
18
b1000 M
b1001 @
1E
#12740
01
#12760
11
08
0E
#12780
01
#12800
11
18
b1010 @
b1001 M
1E
#12820
01
#12840
11
08
0E
#12860
01
#12880
11
18
b1010 M
b1011 @
1E
#12900
01
#12920
11
08
0E
#12940
01
#12960
11
18
b1100 @
b1011 M
1E
#12980
01
#13000
11
08
0E
#13020
01
#13040
11
18
b1100 M
b1101 @
1E
#13060
01
#13080
11
08
0E
#13100
01
#13120
11
18
b1110 @
b1101 M
1E
#13140
01
#13160
11
08
0E
#13180
01
#13200
11
18
b1110 M
b1111 @
1E
03
#13220
01
#13240
11
08
0E
#13260
01
#13280
11
18
1,
sRXSTATE_IDLE -
b0000 @
b1111 M
1E
#13300
01
#13320
11
08
0E
#13340
01
#13360
11
18
b001 H
b0000 M
0,
sRXSTATE_START -
1E
#13380
01
#13400
11
08
0E
#13420
01
#13440
11
18
0>
b0001 @
b0001 M
1E
#13460
01
#13480
11
08
0E
#13500
01
#13520
11
18
b0010 M
b0010 @
1E
#13540
01
#13560
11
08
0E
#13580
01
#13600
11
18
b0011 @
b0011 M
1E
#13620
01
#13640
11
08
0E
#13660
01
#13680
11
18
b0100 M
b0100 @
1E
#13700
01
#13720
11
08
0E
#13740
01
#13760
11
18
b0101 @
b0101 M
1E
#13780
01
#13800
11
08
0E
#13820
01
#13840
11
18
b0110 M
b0110 @
1E
#13860
01
#13880
11
08
0E
#13900
01
#13920
11
18
b0111 @
b0111 M
1E
#13940
01
#13960
11
08
0E
#13980
01
#14000
11
18
b1000 M
b1000 @
1E
#14020
01
#14040
11
08
0E
#14060
01
#14080
11
18
b1001 @
b1001 M
1E
#14100
01
#14120
11
08
0E
#14140
01
#14160
11
18
b1010 M
b1010 @
1E
#14180
01
#14200
11
08
0E
#14220
01
#14240
11
18
b1011 @
b1011 M
1E
#14260
01
#14280
11
08
0E
#14300
01
#14320
11
18
b1100 M
b1100 @
1E
#14340
01
#14360
11
08
0E
#14380
01
#14400
11
18
b1101 @
b1101 M
1E
#14420
01
#14440
11
08
0E
#14460
01
#14480
11
18
b1110 M
b1110 @
1E
13
#14500
01
#14520
11
08
0E
#14540
01
#14560
11
18
b1111 @
b1111 M
1E
#14580
01
#14600
11
08
0E
#14620
01
#14640
11
18
b000 H
sTXSTATE_IDLE ?
1(
b0000 M
sRXSTATE_DATA -
b0000 @
1E
#14660
01
#14680
11
08
0E
#14700
01
#14720
11
18
b0001 @
1E
#14740
01
#14760
11
08
0E
#14780
01
#14800
11
18
b0010 @
1E
#14820
01
#14840
11
08
0E
#14860
01
#14880
11
18
b0011 @
1E
#14900
01
#14920
11
08
0E
#14940
01
#14960
11
18
b0100 @
1E
#14980
01
#15000
11
08
0E
#15020
01
#15040
11
18
b0101 @
1E
#15060
01
#15080
11
08
0E
#15100
01
#15120
11
18
b0110 @
1E
#15140
01
#15160
11
08
0E
#15180
01
#15200
11
18
b0111 @
1E
#15220
01
#15240
11
08
0E
#15260
01
#15280
11
18
b1000 @
1E
#15300
01
#15320
11
08
0E
#15340
01
#15360
11
18
b1001 @
1E
#15380
01
#15400
11
08
0E
#15420
01
#15440
11
18
b1010 @
1E
#15460
01
#15480
11
08
0E
#15500
01
#15520
11
18
b1011 @
1E
#15540
01
#15560
11
08
0E
#15580
01
#15600
11
18
b1100 @
1E
#15620
01
#15640
11
08
0E
#15660
01
#15680
11
18
b1101 @
1E
#15700
01
#15720
11
08
0E
#15740
01
#15760
11
18
b1110 @
1E
#15780
01
#15800
11
08
0E
#15820
01
#15840
11
18
b1111 @
1E
#15860
01
#15880
11
08
0E
#15900
01
#15920
11
18
b001 $
b0000 @
1E
#15940
01
#15960
11
08
0E
#15980
01
#16000
11
18
b0001 @
1E
#16020
01
#16040
11
08
0E
#16060
01
#16080
11
18
b0010 @
1E
#16100
01
#16120
11
08
0E
#16140
01
#16160
11
18
b0011 @
1E
#16180
01
#16200
11
08
0E
#16220
01
#16240
11
18
b0100 @
1E
#16260
01
#16280
11
08
0E
#16300
01
#16320
11
18
b0101 @
1E
#16340
01
#16360
11
08
0E
#16380
01
#16400
11
18
b0110 @
1E
#16420
01
#16440
11
08
0E
#16460
01
#16480
11
18
b0111 @
1E
#16500
01
#16520
11
08
0E
#16540
01
#16560
11
18
b1000 @
1E
#16580
01
#16600
11
08
0E
#16620
01
#16640
11
18
b1001 @
1E
#16660
01
#16680
11
08
0E
#16700
01
#16720
11
18
b1010 @
1E
#16740
01
#16760
11
08
0E
#16780
01
#16800
11
18
b1011 @
1E
#16820
01
#16840
11
08
0E
#16860
01
#16880
11
18
b1100 @
1E
#16900
01
#16920
11
08
0E
#16940
01
#16960
11
18
b1101 @
1E
#16980
01
#17000
11
08
0E
#17020
01
#17040
11
18
b1110 @
1E
#17060
01
#17080
11
08
0E
#17100
01
#17120
11
18
b1111 @
1E
#17140
01
#17160
11
08
0E
#17180
01
#17200
11
18
b010 $
b0000 @
1E
#17220
01
#17240
11
08
0E
#17260
01
#17280
11
18
b0001 @
1E
#17300
01
#17320
11
08
0E
#17340
01
#17360
11
18
b0010 @
1E
#17380
01
#17400
11
08
0E
#17420
01
#17440
11
18
b0011 @
1E
#17460
01
#17480
11
08
0E
#17500
01
#17520
11
18
b0100 @
1E
#17540
01
#17560
11
08
0E
#17580
01
#17600
11
18
b0101 @
1E
#17620
01
#17640
11
08
0E
#17660
01
#17680
11
18
b0110 @
1E
#17700
01
#17720
11
08
0E
#17740
01
#17760
11
18
b0111 @
1E
#17780
01
#17800
11
08
0E
#17820
01
#17840
11
18
b1000 @
1E
#17860
01
#17880
11
08
0E
#17900
01
#17920
11
18
b1001 @
1E
#17940
01
#17960
11
08
0E
#17980
01
#18000
11
18
b1010 @
1E
#18020
01
#18040
11
08
0E
#18060
01
#18080
11
18
b1011 @
1E
#18100
01
#18120
11
08
0E
#18140
01
#18160
11
18
b1100 @
1E
#18180
01
#18200
11
08
0E
#18220
01
#18240
11
18
b1101 @
1E
#18260
01
#18280
11
08
0E
#18300
01
#18320
11
18
b1110 @
1E
#18340
01
#18360
11
08
0E
#18380
01
#18400
11
18
b1111 @
1E
#18420
01
#18440
11
08
0E
#18460
01
#18480
11
18
b011 $
b0000 @
1E
#18500
01
#18520
11
08
0E
#18540
01
#18560
11
18
b0001 @
1E
#18580
01
#18600
11
08
0E
#18620
01
#18640
11
18
b0010 @
1E
#18660
01
#18680
11
08
0E
#18700
01
#18720
11
18
b0011 @
1E
#18740
01
#18760
11
08
0E
#18780
01
#18800
11
18
b0100 @
1E
#18820
01
#18840
11
08
0E
#18860
01
#18880
11
18
b0101 @
1E
#18900
01
#18920
11
08
0E
#18940
01
#18960
11
18
b0110 @
1E
#18980
01
#19000
11
08
0E
#19020
01
#19040
11
18
b0111 @
1E
#19060
01
#19080
11
08
0E
#19100
01
#19120
11
18
b1000 @
1E
#19140
01
#19160
11
08
0E
#19180
01
#19200
11
18
b1001 @
1E
#19220
01
#19240
11
08
0E
#19260
01
#19280
11
18
b1010 @
1E
#19300
01
#19320
11
08
0E
#19340
01
#19360
11
18
b1011 @
1E
#19380
01
#19400
11
08
0E
#19420
01
#19440
11
18
b1100 @
1E
#19460
01
#19480
11
08
0E
#19500
01
#19520
11
18
b1101 @
1E
#19540
01
#19560
11
08
0E
#19580
01
#19600
11
18
b1110 @
1E
#19620
01
#19640
11
08
0E
#19660
01
#19680
11
18
b1111 @
1E
#19700
01
#19720
11
08
0E
#19740
01
#19760
11
18
b100 $
b0000 @
1E
#19780
01
#19800
11
08
0E
#19820
01
#19840
11
18
b0001 @
1E
#19860
01
#19880
11
08
0E
#19900
01
#19920
11
18
b0010 @
1E
#19940
01
#19960
11
08
0E
#19980
01
#20000
11
18
b0011 @
1E
#20020
01
#20040
11
08
0E
#20060
01
#20080
11
18
b0100 @
1E
#20100
01
#20120
11
08
0E
#20140
01
#20160
11
18
b0101 @
1E
#20180
01
#20200
11
08
0E
#20220
01
#20240
11
18
b0110 @
1E
#20260
01
#20280
11
08
0E
#20300
01
#20320
11
18
b0111 @
1E
#20340
01
#20360
11
08
0E
#20380
01
#20400
11
18
b1000 @
1E
#20420
01
#20440
11
08
0E
#20460
01
#20480
11
18
b1001 @
1E
#20500
01
#20520
11
08
0E
#20540
01
#20560
11
18
b1010 @
1E
#20580
01
#20600
11
08
0E
#20620
01
#20640
11
18
b1011 @
1E
#20660
01
#20680
11
08
0E
#20700
01
#20720
11
18
b1100 @
1E
#20740
01
#20760
11
08
0E
#20780
01
#20800
11
18
b1101 @
1E
#20820
01
#20840
11
08
0E
#20860
01
#20880
11
18
b1110 @
1E
#20900
01
#20920
11
08
0E
#20940
01
#20960
11
18
b1111 @
1E
#20980
01
#21000
11
08
0E
#21020
01
#21040
11
18
b101 $
b0000 @
1E
#21060
01
#21080
11
08
0E
#21100
01
#21120
11
18
b0001 @
1E
#21140
01
#21160
11
08
0E
#21180
01
#21200
11
18
b0010 @
1E
#21220
01
#21240
11
08
0E
#21260
01
#21280
11
18
b0011 @
1E
#21300
01
#21320
11
08
0E
#21340
01
#21360
11
18
b0100 @
1E
#21380
01
#21400
11
08
0E
#21420
01
#21440
11
18
b0101 @
1E
#21460
01
#21480
11
08
0E
#21500
01
#21520
11
18
b0110 @
1E
#21540
01
#21560
11
08
0E
#21580
01
#21600
11
18
b0111 @
1E
#21620
01
#21640
11
08
0E
#21660
01
#21680
11
18
b1000 @
1E
#21700
01
#21720
11
08
0E
#21740
01
#21760
11
18
b1001 @
1E
#21780
01
#21800
11
08
0E
#21820
01
#21840
11
18
b1010 @
1E
#21860
01
#21880
11
08
0E
#21900
01
#21920
11
18
b1011 @
1E
